{ "waveDuration": 232,
 "transcriptionDuration": 44,
"parts": [{
  "result" : [{
      "conf" : 1.000000,
      "end" : 0.240000,
      "start" : 0.005128,
      "word" : "il"
    }, {
      "conf" : 1.000000,
      "end" : 0.300000,
      "start" : 0.240000,
      "word" : "est"
    }, {
      "conf" : 1.000000,
      "end" : 0.540000,
      "start" : 0.300000,
      "word" : "sept"
    }, {
      "conf" : 1.000000,
      "end" : 0.690000,
      "start" : 0.540000,
      "word" : "heures"
    }, {
      "conf" : 1.000000,
      "end" : 0.930000,
      "start" : 0.690000,
      "word" : "moins"
    }, {
      "conf" : 0.972903,
      "end" : 1.200000,
      "start" : 0.930000,
      "word" : "dix"
    }, {
      "conf" : 1.000000,
      "end" : 1.500000,
      "start" : 1.230000,
      "word" : "voici"
    }, {
      "conf" : 1.000000,
      "end" : 1.560000,
      "start" : 1.500000,
      "word" : "le"
    }, {
      "conf" : 0.930755,
      "end" : 1.830000,
      "start" : 1.560000,
      "word" : "conseil"
    }, {
      "conf" : 0.925375,
      "end" : 2.130000,
      "start" : 1.830000,
      "word" : "télé"
    }, {
      "conf" : 0.976932,
      "end" : 2.580000,
      "start" : 2.460000,
      "word" : "de"
    }, {
      "conf" : 1.000000,
      "end" : 3.000000,
      "start" : 2.580000,
      "word" : "dorothée"
    }, {
      "conf" : 1.000000,
      "end" : 3.510000,
      "start" : 3.000000,
      "word" : "barba"
    }, {
      "conf" : 0.997470,
      "end" : 4.020000,
      "start" : 3.540000,
      "word" : "jean-louis"
    }, {
      "conf" : 1.000000,
      "end" : 4.710000,
      "start" : 4.020000,
      "word" : "trintignant"
    }, {
      "conf" : 0.619448,
      "end" : 4.860000,
      "start" : 4.710000,
      "word" : "et"
    }, {
      "conf" : 0.998748,
      "end" : 4.980000,
      "start" : 4.860000,
      "word" : "dans"
    }, {
      "conf" : 1.000000,
      "end" : 5.250000,
      "start" : 4.980000,
      "word" : "votre"
    }, {
      "conf" : 0.963136,
      "end" : 5.640000,
      "start" : 5.250000,
      "word" : "capture"
    }, {
      "conf" : 0.962014,
      "end" : 6.060000,
      "start" : 5.640000,
      "word" : "d'écran"
    }, {
      "conf" : 0.997344,
      "end" : 6.749988,
      "start" : 6.390000,
      "word" : "arte"
    }, {
      "conf" : 0.999024,
      "end" : 6.930000,
      "start" : 6.780000,
      "word" : "rend"
    }, {
      "conf" : 1.000000,
      "end" : 7.320000,
      "start" : 6.930000,
      "word" : "hommage"
    }, {
      "conf" : 1.000000,
      "end" : 7.380000,
      "start" : 7.320000,
      "word" : "à"
    }, {
      "conf" : 1.000000,
      "end" : 7.770000,
      "start" : 7.380000,
      "word" : "l'acteur"
    }, {
      "conf" : 0.872032,
      "end" : 7.950000,
      "start" : 7.770000,
      "word" : "mort"
    }, {
      "conf" : 1.000000,
      "end" : 8.040000,
      "start" : 7.950000,
      "word" : "la"
    }, {
      "conf" : 1.000000,
      "end" : 8.250000,
      "start" : 8.040000,
      "word" : "semaine"
    }, {
      "conf" : 1.000000,
      "end" : 8.580000,
      "start" : 8.250000,
      "word" : "dernière"
    }, {
      "conf" : 1.000000,
      "end" : 8.640000,
      "start" : 8.580000,
      "word" : "en"
    }, {
      "conf" : 1.000000,
      "end" : 9.030000,
      "start" : 8.640000,
      "word" : "diffusant"
    }, {
      "conf" : 1.000000,
      "end" : 9.090000,
      "start" : 9.030000,
      "word" : "un"
    }, {
      "conf" : 1.000000,
      "end" : 9.300000,
      "start" : 9.090000,
      "word" : "film"
    }, {
      "conf" : 0.999269,
      "end" : 9.390000,
      "start" : 9.300000,
      "word" : "de"
    }, {
      "conf" : 1.000000,
      "end" : 9.540000,
      "start" : 9.390000,
      "word" : "mille"
    }, {
      "conf" : 1.000000,
      "end" : 9.660000,
      "start" : 9.540000,
      "word" : "neuf"
    }, {
      "conf" : 1.000000,
      "end" : 9.780000,
      "start" : 9.660000,
      "word" : "cent"
    }, {
      "conf" : 1.000000,
      "end" : 10.530000,
      "start" : 9.780000,
      "word" : "soixante-treize"
    }, {
      "conf" : 1.000000,
      "end" : 10.980000,
      "start" : 10.770000,
      "word" : "le"
    }, {
      "conf" : 1.000000,
      "end" : 11.250000,
      "start" : 10.980000,
      "word" : "train"
    }, {
      "conf" : 0.996495,
      "end" : 11.970000,
      "start" : 11.581595,
      "word" : "jean-louis"
    }, {
      "conf" : 1.000000,
      "end" : 12.540000,
      "start" : 11.970000,
      "word" : "trintignant"
    }, {
      "conf" : 0.999968,
      "end" : 12.840000,
      "start" : 12.600000,
      "word" : "et"
    }, {
      "conf" : 1.000000,
      "end" : 13.290000,
      "start" : 12.900000,
      "word" : "romy"
    }, {
      "conf" : 1.000000,
      "end" : 13.890000,
      "start" : 13.290000,
      "word" : "schneider"
    }, {
      "conf" : 1.000000,
      "end" : 14.070000,
      "start" : 13.890000,
      "word" : "que"
    }, {
      "conf" : 0.967101,
      "end" : 14.520000,
      "start" : 14.070000,
      "word" : "demander"
    }, {
      "conf" : 1.000000,
      "end" : 14.730000,
      "start" : 14.550000,
      "word" : "de"
    }, {
      "conf" : 1.000000,
      "end" : 15.030000,
      "start" : 14.730000,
      "word" : "mieux"
    }, {
      "conf" : 1.000000,
      "end" : 15.240000,
      "start" : 15.060000,
      "word" : "le"
    }, {
      "conf" : 1.000000,
      "end" : 15.630000,
      "start" : 15.240000,
      "word" : "train"
    }, {
      "conf" : 0.597211,
      "end" : 15.772386,
      "start" : 15.690000,
      "word" : "est"
    }, {
      "conf" : 0.678598,
      "end" : 15.839886,
      "start" : 15.772386,
      "word" : "l"
    }, {
      "conf" : 0.760426,
      "end" : 16.350016,
      "start" : 15.839886,
      "word" : "adaptation"
    }, {
      "conf" : 0.920517,
      "end" : 16.500000,
      "start" : 16.350016,
      "word" : "d'un"
    }, {
      "conf" : 1.000000,
      "end" : 16.860000,
      "start" : 16.588380,
      "word" : "roman"
    }, {
      "conf" : 1.000000,
      "end" : 16.980000,
      "start" : 16.860000,
      "word" : "de"
    }, {
      "conf" : 0.998556,
      "end" : 17.310000,
      "start" : 16.980000,
      "word" : "georges"
    }, {
      "conf" : 1.000000,
      "end" : 17.760000,
      "start" : 17.310000,
      "word" : "simenon"
    }, {
      "conf" : 0.925926,
      "end" : 18.210000,
      "start" : 17.760004,
      "word" : "réalisé"
    }, {
      "conf" : 1.000000,
      "end" : 18.420000,
      "start" : 18.210000,
      "word" : "par"
    }, {
      "conf" : 1.000000,
      "end" : 18.690000,
      "start" : 18.420000,
      "word" : "pierre"
    }, {
      "conf" : 0.970935,
      "end" : 18.990000,
      "start" : 18.690000,
      "word" : "granier"
    }, {
      "conf" : 0.887367,
      "end" : 19.470000,
      "start" : 18.990000,
      "word" : "deferre"
    }, {
      "conf" : 1.000000,
      "end" : 20.010000,
      "start" : 19.890000,
      "word" : "nous"
    }, {
      "conf" : 0.986414,
      "end" : 20.160000,
      "start" : 20.010000,
      "word" : "sommes"
    }],
  "text" : "il est sept heures moins dix voici le conseil télé de dorothée barba jean-louis trintignant et dans votre capture d'écran arte rend hommage à l'acteur mort la semaine dernière en diffusant un film de mille neuf cent soixante-treize le train jean-louis trintignant et romy schneider que demander de mieux le train est l adaptation d'un roman de georges simenon réalisé par pierre granier deferre nous sommes"
},{
  "result" : [{
      "conf" : 0.520292,
      "end" : 20.670000,
      "start" : 20.220000,
      "word" : "plongez"
    }, {
      "conf" : 1.000000,
      "end" : 20.880000,
      "start" : 20.670000,
      "word" : "dans"
    }, {
      "conf" : 1.000000,
      "end" : 21.510000,
      "start" : 20.880000,
      "word" : "l'exode"
    }, {
      "conf" : 0.996723,
      "end" : 21.690000,
      "start" : 21.540000,
      "word" : "de"
    }, {
      "conf" : 1.000000,
      "end" : 21.840000,
      "start" : 21.690000,
      "word" : "mille"
    }, {
      "conf" : 1.000000,
      "end" : 21.960000,
      "start" : 21.840000,
      "word" : "neuf"
    }, {
      "conf" : 1.000000,
      "end" : 22.110000,
      "start" : 21.960000,
      "word" : "cent"
    }, {
      "conf" : 1.000000,
      "end" : 22.620000,
      "start" : 22.110000,
      "word" : "quarante"
    }, {
      "conf" : 0.928488,
      "end" : 23.370000,
      "start" : 23.040000,
      "word" : "jean-louis"
    }, {
      "conf" : 1.000000,
      "end" : 23.880000,
      "start" : 23.370000,
      "word" : "trintignant"
    }, {
      "conf" : 0.998735,
      "end" : 24.210000,
      "start" : 23.880000,
      "word" : "incarne"
    }, {
      "conf" : 1.000000,
      "end" : 24.330000,
      "start" : 24.210000,
      "word" : "un"
    }, {
      "conf" : 1.000000,
      "end" : 24.600000,
      "start" : 24.330000,
      "word" : "homme"
    }, {
      "conf" : 1.000000,
      "end" : 24.750000,
      "start" : 24.600000,
      "word" : "qui"
    }, {
      "conf" : 1.000000,
      "end" : 24.870000,
      "start" : 24.750000,
      "word" : "vit"
    }, {
      "conf" : 1.000000,
      "end" : 25.020000,
      "start" : 24.870000,
      "word" : "dans"
    }, {
      "conf" : 1.000000,
      "end" : 25.170000,
      "start" : 25.020000,
      "word" : "une"
    }, {
      "conf" : 1.000000,
      "end" : 25.440000,
      "start" : 25.170000,
      "word" : "petite"
    }, {
      "conf" : 1.000000,
      "end" : 25.620000,
      "start" : 25.440000,
      "word" : "ville"
    }, {
      "conf" : 1.000000,
      "end" : 25.770000,
      "start" : 25.620000,
      "word" : "des"
    }, {
      "conf" : 1.000000,
      "end" : 26.220000,
      "start" : 25.770000,
      "word" : "ardennes"
    }, {
      "conf" : 0.998203,
      "end" : 26.340000,
      "start" : 26.250000,
      "word" : "à"
    }, {
      "conf" : 1.000000,
      "end" : 26.430000,
      "start" : 26.340000,
      "word" : "la"
    }, {
      "conf" : 1.000000,
      "end" : 26.790000,
      "start" : 26.430000,
      "word" : "frontière"
    }, {
      "conf" : 1.000000,
      "end" : 27.180000,
      "start" : 26.790000,
      "word" : "belge"
    }, {
      "conf" : 0.672222,
      "end" : 27.660000,
      "start" : 27.600000,
      "word" : "à"
    }, {
      "conf" : 0.524598,
      "end" : 28.050000,
      "start" : 27.660000,
      "word" : "l'annonce"
    }, {
      "conf" : 0.999913,
      "end" : 28.260000,
      "start" : 28.050000,
      "word" : "de"
    }, {
      "conf" : 0.909639,
      "end" : 28.320000,
      "start" : 28.260000,
      "word" : "l"
    }, {
      "conf" : 0.910134,
      "end" : 28.740000,
      "start" : 28.320000,
      "word" : "invasion"
    }, {
      "conf" : 1.000000,
      "end" : 29.190000,
      "start" : 28.740000,
      "word" : "allemande"
    }, {
      "conf" : 1.000000,
      "end" : 29.370000,
      "start" : 29.190000,
      "word" : "comme"
    }, {
      "conf" : 1.000000,
      "end" : 29.520000,
      "start" : 29.370000,
      "word" : "tout"
    }, {
      "conf" : 1.000000,
      "end" : 29.580000,
      "start" : 29.520000,
      "word" : "le"
    }, {
      "conf" : 1.000000,
      "end" : 29.760000,
      "start" : 29.580000,
      "word" : "monde"
    }, {
      "conf" : 1.000000,
      "end" : 29.820000,
      "start" : 29.760000,
      "word" : "ou"
    }, {
      "conf" : 1.000000,
      "end" : 30.210000,
      "start" : 29.820000,
      "word" : "presque"
    }, {
      "conf" : 0.776510,
      "end" : 30.390000,
      "start" : 30.210000,
      "word" : "il"
    }, {
      "conf" : 0.477808,
      "end" : 30.930000,
      "start" : 30.390000,
      "word" : "s'enfuit"
    }, {
      "conf" : 0.996057,
      "end" : 31.470000,
      "start" : 31.350000,
      "word" : "il"
    }, {
      "conf" : 1.000000,
      "end" : 31.620000,
      "start" : 31.470000,
      "word" : "se"
    }, {
      "conf" : 1.000000,
      "end" : 31.740000,
      "start" : 31.620000,
      "word" : "rend"
    }, {
      "conf" : 1.000000,
      "end" : 31.830000,
      "start" : 31.770000,
      "word" : "à"
    }, {
      "conf" : 1.000000,
      "end" : 31.920000,
      "start" : 31.830000,
      "word" : "la"
    }, {
      "conf" : 0.995499,
      "end" : 32.160000,
      "start" : 31.920000,
      "word" : "gare"
    }, {
      "conf" : 1.000000,
      "end" : 32.340000,
      "start" : 32.160000,
      "word" : "avec"
    }, {
      "conf" : 0.999886,
      "end" : 32.490000,
      "start" : 32.340000,
      "word" : "sa"
    }, {
      "conf" : 0.998568,
      "end" : 32.850000,
      "start" : 32.490000,
      "word" : "femme"
    }, {
      "conf" : 0.996556,
      "end" : 33.360000,
      "start" : 32.880000,
      "word" : "enceinte"
    }, {
      "conf" : 0.979013,
      "end" : 33.480000,
      "start" : 33.360000,
      "word" : "et"
    }, {
      "conf" : 0.946287,
      "end" : 33.660000,
      "start" : 33.480000,
      "word" : "leur"
    }, {
      "conf" : 0.945332,
      "end" : 34.020000,
      "start" : 33.660000,
      "word" : "fille"
    }, {
      "conf" : 1.000000,
      "end" : 34.530000,
      "start" : 34.410000,
      "word" : "mais"
    }, {
      "conf" : 0.990081,
      "end" : 34.650000,
      "start" : 34.530000,
      "word" : "ils"
    }, {
      "conf" : 0.999064,
      "end" : 34.740000,
      "start" : 34.650000,
      "word" : "ne"
    }, {
      "conf" : 1.000000,
      "end" : 34.920000,
      "start" : 34.740000,
      "word" : "peuvent"
    }, {
      "conf" : 1.000000,
      "end" : 35.040000,
      "start" : 34.920000,
      "word" : "pas"
    }, {
      "conf" : 0.992463,
      "end" : 35.430000,
      "start" : 35.040000,
      "word" : "voyager"
    }, {
      "conf" : 1.000000,
      "end" : 36.000000,
      "start" : 35.430000,
      "word" : "ensemble"
    }, {
      "conf" : 0.972103,
      "end" : 36.540000,
      "start" : 36.000000,
      "word" : "l'épouse"
    }, {
      "conf" : 0.979651,
      "end" : 36.659993,
      "start" : 36.540000,
      "word" : "et"
    }, {
      "conf" : 0.962285,
      "end" : 37.049963,
      "start" : 36.660000,
      "word" : "l'enfant"
    }, {
      "conf" : 0.871735,
      "end" : 37.350000,
      "start" : 37.050000,
      "word" : "monte"
    }, {
      "conf" : 1.000000,
      "end" : 37.470000,
      "start" : 37.380000,
      "word" : "en"
    }, {
      "conf" : 1.000000,
      "end" : 37.800000,
      "start" : 37.470000,
      "word" : "première"
    }, {
      "conf" : 1.000000,
      "end" : 38.190000,
      "start" : 37.800000,
      "word" : "classe"
    }, {
      "conf" : 1.000000,
      "end" : 38.670000,
      "start" : 38.520000,
      "word" : "le"
    }, {
      "conf" : 0.989084,
      "end" : 39.000000,
      "start" : 38.670000,
      "word" : "mari"
    }, {
      "conf" : 0.926222,
      "end" : 39.150000,
      "start" : 39.060000,
      "word" : "est"
    }, {
      "conf" : 0.737358,
      "end" : 39.570000,
      "start" : 39.150000,
      "word" : "reléguée"
    }, {
      "conf" : 1.000000,
      "end" : 39.750000,
      "start" : 39.570000,
      "word" : "tout"
    }, {
      "conf" : 1.000000,
      "end" : 39.870000,
      "start" : 39.750000,
      "word" : "au"
    }, {
      "conf" : 1.000000,
      "end" : 40.020000,
      "start" : 39.870000,
      "word" : "bout"
    }, {
      "conf" : 1.000000,
      "end" : 40.140000,
      "start" : 40.020000,
      "word" : "du"
    }, {
      "conf" : 0.977939,
      "end" : 40.320000,
      "start" : 40.140000,
      "word" : "train"
    }],
  "text" : "plongez dans l'exode de mille neuf cent quarante jean-louis trintignant incarne un homme qui vit dans une petite ville des ardennes à la frontière belge à l'annonce de l invasion allemande comme tout le monde ou presque il s'enfuit il se rend à la gare avec sa femme enceinte et leur fille mais ils ne peuvent pas voyager ensemble l'épouse et l'enfant monte en première classe le mari est reléguée tout au bout du train"
},{
  "result" : [{
      "conf" : 0.802285,
      "end" : 40.530000,
      "start" : 40.320000,
      "word" : "hein"
    }, {
      "conf" : 1.000000,
      "end" : 40.800000,
      "start" : 40.560000,
      "word" : "dans"
    }, {
      "conf" : 1.000000,
      "end" : 40.890000,
      "start" : 40.800000,
      "word" : "un"
    }, {
      "conf" : 1.000000,
      "end" : 41.280000,
      "start" : 40.890000,
      "word" : "wagon"
    }, {
      "conf" : 1.000000,
      "end" : 41.400000,
      "start" : 41.340000,
      "word" : "à"
    }, {
      "conf" : 1.000000,
      "end" : 42.030000,
      "start" : 41.400000,
      "word" : "bestiaux"
    }],
  "text" : "hein dans un wagon à bestiaux"
},{
  "result" : [{
      "conf" : 0.897999,
      "end" : 43.227968,
      "start" : 43.170000,
      "word" : "il"
    }, {
      "conf" : 0.999483,
      "end" : 43.256953,
      "start" : 43.227968,
      "word" : "y"
    }, {
      "conf" : 0.999565,
      "end" : 43.290000,
      "start" : 43.256953,
      "word" : "a"
    }, {
      "conf" : 1.000000,
      "end" : 43.380000,
      "start" : 43.290000,
      "word" : "du"
    }, {
      "conf" : 1.000000,
      "end" : 43.799974,
      "start" : 43.380000,
      "word" : "monde"
    }, {
      "conf" : 1.000000,
      "end" : 44.010000,
      "start" : 43.860000,
      "word" : "qui"
    }, {
      "conf" : 0.805291,
      "end" : 44.580000,
      "start" : 44.010000,
      "word" : "s'entassent"
    }, {
      "conf" : 0.986024,
      "end" : 44.938085,
      "start" : 44.670000,
      "word" : "assis"
    }, {
      "conf" : 0.997618,
      "end" : 44.998140,
      "start" : 44.938085,
      "word" : "à"
    }, {
      "conf" : 1.000000,
      "end" : 45.210000,
      "start" : 44.999473,
      "word" : "même"
    }, {
      "conf" : 1.000000,
      "end" : 45.330000,
      "start" : 45.210000,
      "word" : "le"
    }, {
      "conf" : 1.000000,
      "end" : 45.600000,
      "start" : 45.330000,
      "word" : "sol"
    }, {
      "conf" : 0.931417,
      "end" : 45.749927,
      "start" : 45.659963,
      "word" : "et"
    }, {
      "conf" : 0.784783,
      "end" : 46.050000,
      "start" : 45.750000,
      "word" : "là"
    }, {
      "conf" : 0.979991,
      "end" : 46.710000,
      "start" : 46.560000,
      "word" : "il"
    }, {
      "conf" : 0.979991,
      "end" : 46.980000,
      "start" : 46.710000,
      "word" : "croise"
    }, {
      "conf" : 1.000000,
      "end" : 47.070000,
      "start" : 46.980000,
      "word" : "le"
    }, {
      "conf" : 0.598322,
      "end" : 47.370011,
      "start" : 47.070000,
      "word" : "regard"
    }, {
      "conf" : 0.597736,
      "end" : 47.550000,
      "start" : 47.370011,
      "word" : "d'une"
    }, {
      "conf" : 1.000000,
      "end" : 48.060000,
      "start" : 47.550000,
      "word" : "femme"
    }, {
      "conf" : 1.000000,
      "end" : 48.540000,
      "start" : 48.180000,
      "word" : "sans"
    }, {
      "conf" : 1.000000,
      "end" : 48.690000,
      "start" : 48.540000,
      "word" : "un"
    }, {
      "conf" : 0.993993,
      "end" : 48.990000,
      "start" : 48.690000,
      "word" : "mot"
    }, {
      "conf" : 1.000000,
      "end" : 49.860000,
      "start" : 49.500000,
      "word" : "romy"
    }, {
      "conf" : 1.000000,
      "end" : 50.430000,
      "start" : 49.860000,
      "word" : "schneider"
    }, {
      "conf" : 0.972875,
      "end" : 51.420000,
      "start" : 50.460000,
      "word" : "magnétique"
    }, {
      "conf" : 0.990761,
      "end" : 51.720000,
      "start" : 51.630000,
      "word" : "et"
    }, {
      "conf" : 0.979765,
      "end" : 52.530000,
      "start" : 51.720000,
      "word" : "mystérieuse"
    }],
  "text" : "il y a du monde qui s'entassent assis à même le sol et là il croise le regard d'une femme sans un mot romy schneider magnétique et mystérieuse"
},{
  "text" : ""
},{
  "result" : [{
      "conf" : 1.000000,
      "end" : 60.930000,
      "start" : 60.690000,
      "word" : "la"
    }, {
      "conf" : 0.998915,
      "end" : 61.469978,
      "start" : 60.930000,
      "word" : "musique"
    }, {
      "conf" : 0.993387,
      "end" : 61.740000,
      "start" : 61.500000,
      "word" : "cela"
    }, {
      "conf" : 0.595541,
      "end" : 61.860000,
      "start" : 61.740000,
      "word" : "me"
    }, {
      "conf" : 0.878607,
      "end" : 62.100000,
      "start" : 61.860000,
      "word" : "gâche"
    }, {
      "conf" : 1.000000,
      "end" : 62.460000,
      "start" : 62.100000,
      "word" : "rien"
    }, {
      "conf" : 0.582363,
      "end" : 62.580000,
      "start" : 62.460000,
      "word" : "est"
    }, {
      "conf" : 0.613839,
      "end" : 62.970000,
      "start" : 62.580000,
      "word" : "composée"
    }, {
      "conf" : 1.000000,
      "end" : 63.150000,
      "start" : 62.970000,
      "word" : "par"
    }, {
      "conf" : 1.000000,
      "end" : 63.420000,
      "start" : 63.150000,
      "word" : "philippe"
    }, {
      "conf" : 1.000000,
      "end" : 63.900000,
      "start" : 63.420000,
      "word" : "sarde"
    }, {
      "conf" : 1.000000,
      "end" : 64.380000,
      "start" : 63.960000,
      "word" : "comme"
    }, {
      "conf" : 0.833122,
      "end" : 64.650000,
      "start" : 64.410000,
      "word" : "celles"
    }, {
      "conf" : 1.000000,
      "end" : 64.770000,
      "start" : 64.650000,
      "word" : "des"
    }, {
      "conf" : 0.995342,
      "end" : 65.160000,
      "start" : 64.770000,
      "word" : "films"
    }, {
      "conf" : 1.000000,
      "end" : 65.310000,
      "start" : 65.190000,
      "word" : "de"
    }, {
      "conf" : 1.000000,
      "end" : 65.580000,
      "start" : 65.310000,
      "word" : "claude"
    }, {
      "conf" : 1.000000,
      "end" : 65.940000,
      "start" : 65.580000,
      "word" : "sautet"
    }, {
      "conf" : 1.000000,
      "end" : 66.990000,
      "start" : 66.450000,
      "word" : "combien"
    }, {
      "conf" : 1.000000,
      "end" : 67.170000,
      "start" : 67.020000,
      "word" : "de"
    }, {
      "conf" : 1.000000,
      "end" : 67.560000,
      "start" : 67.170000,
      "word" : "fois"
    }, {
      "conf" : 1.000000,
      "end" : 67.860000,
      "start" : 67.560000,
      "word" : "a-t-on"
    }, {
      "conf" : 0.787572,
      "end" : 68.370000,
      "start" : 67.860000,
      "word" : "filmé"
    }, {
      "conf" : 1.000000,
      "end" : 68.640000,
      "start" : 68.490000,
      "word" : "une"
    }, {
      "conf" : 1.000000,
      "end" : 69.360000,
      "start" : 68.640000,
      "word" : "rencontre"
    }, {
      "conf" : 1.000000,
      "end" : 69.600000,
      "start" : 69.480000,
      "word" : "au"
    }, {
      "conf" : 0.987216,
      "end" : 70.140000,
      "start" : 69.600000,
      "word" : "cinéma"
    }, {
      "conf" : 0.508515,
      "end" : 70.620000,
      "start" : 70.530000,
      "word" : "a"
    }, {
      "conf" : 1.000000,
      "end" : 70.830000,
      "start" : 70.620000,
      "word" : "quoi"
    }, {
      "conf" : 1.000000,
      "end" : 71.040000,
      "start" : 70.830000,
      "word" : "cela"
    }, {
      "conf" : 1.000000,
      "end" : 71.430000,
      "start" : 71.040000,
      "word" : "tient-il"
    }, {
      "conf" : 0.357975,
      "end" : 71.581560,
      "start" : 71.430000,
      "word" : "qui"
    }, {
      "conf" : 0.463838,
      "end" : 71.910000,
      "start" : 71.581560,
      "word" : "ici"
    }, {
      "conf" : 1.000000,
      "end" : 72.090000,
      "start" : 71.970000,
      "word" : "on"
    }, {
      "conf" : 1.000000,
      "end" : 72.180000,
      "start" : 72.090000,
      "word" : "y"
    }, {
      "conf" : 0.983425,
      "end" : 72.480000,
      "start" : 72.180000,
      "word" : "croit"
    }, {
      "conf" : 1.000000,
      "end" : 72.750000,
      "start" : 72.510000,
      "word" : "dur"
    }, {
      "conf" : 1.000000,
      "end" : 72.930000,
      "start" : 72.750000,
      "word" : "comme"
    }, {
      "conf" : 1.000000,
      "end" : 73.350000,
      "start" : 72.930000,
      "word" : "fer"
    }, {
      "conf" : 1.000000,
      "end" : 73.650000,
      "start" : 73.440000,
      "word" : "je"
    }, {
      "conf" : 1.000000,
      "end" : 73.740000,
      "start" : 73.650000,
      "word" : "ne"
    }, {
      "conf" : 1.000000,
      "end" : 73.890000,
      "start" : 73.740000,
      "word" : "sais"
    }, {
      "conf" : 1.000000,
      "end" : 74.160000,
      "start" : 73.890000,
      "word" : "pas"
    }, {
      "conf" : 1.000000,
      "end" : 74.400000,
      "start" : 74.220000,
      "word" : "mais"
    }, {
      "conf" : 0.974992,
      "end" : 74.550000,
      "start" : 74.400000,
      "word" : "ils"
    }, {
      "conf" : 1.000000,
      "end" : 74.820000,
      "start" : 74.550000,
      "word" : "sont"
    }, {
      "conf" : 0.999636,
      "end" : 75.630000,
      "start" : 75.330000,
      "word" : "si"
    }, {
      "conf" : 0.999878,
      "end" : 75.960000,
      "start" : 75.630000,
      "word" : "beaux"
    }, {
      "conf" : 1.000000,
      "end" : 76.170000,
      "start" : 75.990000,
      "word" : "tous"
    }, {
      "conf" : 1.000000,
      "end" : 76.290000,
      "start" : 76.170000,
      "word" : "les"
    }, {
      "conf" : 0.999923,
      "end" : 76.560000,
      "start" : 76.290000,
      "word" : "deux"
    }, {
      "conf" : 0.990247,
      "end" : 76.770000,
      "start" : 76.590000,
      "word" : "ils"
    }, {
      "conf" : 1.000000,
      "end" : 76.980000,
      "start" : 76.770000,
      "word" : "sont"
    }, {
      "conf" : 0.999955,
      "end" : 77.400000,
      "start" : 76.980000,
      "word" : "inquiets"
    }, {
      "conf" : 0.967053,
      "end" : 78.000000,
      "start" : 77.460000,
      "word" : "évidemment"
    }, {
      "conf" : 0.917387,
      "end" : 78.240000,
      "start" : 78.000000,
      "word" : "parce"
    }],
  "text" : "la musique cela me gâche rien est composée par philippe sarde comme celles des films de claude sautet combien de fois a-t-on filmé une rencontre au cinéma a quoi cela tient-il qui ici on y croit dur comme fer je ne sais pas mais ils sont si beaux tous les deux ils sont inquiets évidemment parce"
},{
  "result" : [{
      "conf" : 0.626605,
      "end" : 78.570000,
      "start" : 78.240000,
      "word" : "alizé"
    }, {
      "conf" : 0.980712,
      "end" : 78.720000,
      "start" : 78.570000,
      "word" : "par"
    }, {
      "conf" : 0.979935,
      "end" : 79.260000,
      "start" : 78.720000,
      "word" : "l'angoisse"
    }, {
      "conf" : 1.000000,
      "end" : 79.410000,
      "start" : 79.260000,
      "word" : "le"
    }, {
      "conf" : 1.000000,
      "end" : 79.920000,
      "start" : 79.410000,
      "word" : "contexte"
    }, {
      "conf" : 1.000000,
      "end" : 80.040000,
      "start" : 79.920000,
      "word" : "de"
    }, {
      "conf" : 0.999915,
      "end" : 80.130000,
      "start" : 80.040000,
      "word" : "la"
    }, {
      "conf" : 1.000000,
      "end" : 80.579670,
      "start" : 80.130000,
      "word" : "guerre"
    }, {
      "conf" : 0.847589,
      "end" : 80.820000,
      "start" : 80.580293,
      "word" : "pèse"
    }, {
      "conf" : 1.000000,
      "end" : 81.000000,
      "start" : 80.820000,
      "word" : "très"
    }, {
      "conf" : 1.000000,
      "end" : 81.270000,
      "start" : 81.000000,
      "word" : "lourd"
    }, {
      "conf" : 1.000000,
      "end" : 81.870000,
      "start" : 81.720000,
      "word" : "mais"
    }, {
      "conf" : 1.000000,
      "end" : 81.960000,
      "start" : 81.870000,
      "word" : "on"
    }, {
      "conf" : 0.998769,
      "end" : 82.380000,
      "start" : 81.960176,
      "word" : "sent"
    }, {
      "conf" : 0.995938,
      "end" : 82.829956,
      "start" : 82.410000,
      "word" : "déjà"
    }, {
      "conf" : 0.999859,
      "end" : 82.980000,
      "start" : 82.830044,
      "word" : "que"
    }, {
      "conf" : 1.000000,
      "end" : 83.070000,
      "start" : 82.980000,
      "word" : "la"
    }, {
      "conf" : 1.000000,
      "end" : 83.760000,
      "start" : 83.070000,
      "word" : "complicité"
    }, {
      "conf" : 0.988339,
      "end" : 83.880000,
      "start" : 83.760000,
      "word" : "n'est"
    }, {
      "conf" : 1.000000,
      "end" : 84.030000,
      "start" : 83.880000,
      "word" : "pas"
    }, {
      "conf" : 1.000000,
      "end" : 84.330000,
      "start" : 84.030000,
      "word" : "loin"
    }, {
      "conf" : 0.841840,
      "end" : 84.990000,
      "start" : 84.840000,
      "word" : "il"
    }, {
      "conf" : 0.837326,
      "end" : 85.260000,
      "start" : 84.990000,
      "word" : "monte"
    }, {
      "conf" : 1.000000,
      "end" : 85.560000,
      "start" : 85.260000,
      "word" : "encore"
    }, {
      "conf" : 1.000000,
      "end" : 85.800000,
      "start" : 85.560000,
      "word" : "rien"
    }, {
      "conf" : 1.000000,
      "end" : 86.100000,
      "start" : 85.800000,
      "word" : "dit"
    }, {
      "conf" : 0.939781,
      "end" : 86.280000,
      "start" : 86.190000,
      "word" : "et"
    }, {
      "conf" : 0.972726,
      "end" : 86.700000,
      "start" : 86.280000,
      "word" : "déjà"
    }, {
      "conf" : 0.997488,
      "end" : 86.970000,
      "start" : 86.760000,
      "word" : "je"
    }, {
      "conf" : 0.837599,
      "end" : 87.330000,
      "start" : 86.970000,
      "word" : "fonds"
    }, {
      "conf" : 1.000000,
      "end" : 87.720000,
      "start" : 87.570000,
      "word" : "alors"
    }, {
      "conf" : 1.000000,
      "end" : 87.810000,
      "start" : 87.720000,
      "word" : "je"
    }, {
      "conf" : 1.000000,
      "end" : 87.870000,
      "start" : 87.810000,
      "word" : "vous"
    }, {
      "conf" : 1.000000,
      "end" : 88.350000,
      "start" : 87.870000,
      "word" : "rassure"
    }, {
      "conf" : 0.978105,
      "end" : 88.830000,
      "start" : 88.680000,
      "word" : "ils"
    }, {
      "conf" : 0.992067,
      "end" : 89.340000,
      "start" : 88.830000,
      "word" : "finissent"
    }, {
      "conf" : 1.000000,
      "end" : 89.580000,
      "start" : 89.400000,
      "word" : "par"
    }, {
      "conf" : 1.000000,
      "end" : 89.700000,
      "start" : 89.580000,
      "word" : "se"
    }, {
      "conf" : 0.996746,
      "end" : 90.210000,
      "start" : 89.700000,
      "word" : "parler"
    }],
  "text" : "alizé par l'angoisse le contexte de la guerre pèse très lourd mais on sent déjà que la complicité n'est pas loin il monte encore rien dit et déjà je fonds alors je vous rassure ils finissent par se parler"
},{
  "result" : [{
      "conf" : 0.753217,
      "end" : 93.420000,
      "start" : 93.300000,
      "word" : "quoi"
    }, {
      "conf" : 0.999493,
      "end" : 93.540029,
      "start" : 93.420117,
      "word" : "tu"
    }, {
      "conf" : 0.541049,
      "end" : 93.630000,
      "start" : 93.540029,
      "word" : "n'es"
    }, {
      "conf" : 0.944358,
      "end" : 93.750000,
      "start" : 93.657166,
      "word" : "pas"
    }, {
      "conf" : 0.887572,
      "end" : 94.140000,
      "start" : 93.750542,
      "word" : "soldat"
    }],
  "text" : "quoi tu n'es pas soldat"
},{
  "result" : [{
      "conf" : 0.288246,
      "end" : 97.175010,
      "start" : 97.110000,
      "word" : "tu"
    }, {
      "conf" : 0.440964,
      "end" : 97.650000,
      "start" : 97.320498,
      "word" : "soldats"
    }, {
      "conf" : 0.600331,
      "end" : 97.770000,
      "start" : 97.650000,
      "word" : "les"
    }, {
      "conf" : 0.565023,
      "end" : 98.070000,
      "start" : 97.771633,
      "word" : "taux"
    }],
  "text" : "tu soldats les taux"
},{
  "result" : [{
      "conf" : 0.998784,
      "end" : 101.730000,
      "start" : 101.640000,
      "word" : "je"
    }, {
      "conf" : 0.994449,
      "end" : 101.880000,
      "start" : 101.730000,
      "word" : "suis"
    }, {
      "conf" : 0.667456,
      "end" : 102.269941,
      "start" : 101.880000,
      "word" : "réformé"
    }, {
      "conf" : 0.931503,
      "end" : 102.600029,
      "start" : 102.269941,
      "word" : "numéro"
    }, {
      "conf" : 0.544136,
      "end" : 102.840432,
      "start" : 102.600491,
      "word" : "de"
    }, {
      "conf" : 0.971044,
      "end" : 103.916982,
      "start" : 103.558594,
      "word" : "numéro"
    }, {
      "conf" : 0.931130,
      "end" : 104.155935,
      "start" : 103.916982,
      "word" : "deux"
    }, {
      "conf" : 0.924890,
      "end" : 104.250000,
      "start" : 104.190000,
      "word" : "qu"
    }, {
      "conf" : 0.926057,
      "end" : 104.370000,
      "start" : 104.250000,
      "word" : "est-ce"
    }, {
      "conf" : 0.999094,
      "end" : 104.460000,
      "start" : 104.370000,
      "word" : "que"
    }, {
      "conf" : 0.894466,
      "end" : 104.550000,
      "start" : 104.460000,
      "word" : "c"
    }, {
      "conf" : 0.921659,
      "end" : 104.730886,
      "start" : 104.550886,
      "word" : "est"
    }],
  "text" : "je suis réformé numéro de numéro deux qu est-ce que c est"
},{
  "result" : [{
      "conf" : 0.333964,
      "end" : 107.397729,
      "start" : 107.130000,
      "word" : "deutsche"
    }, {
      "conf" : 0.789997,
      "end" : 107.730000,
      "start" : 107.474092,
      "word" : "moment"
    }, {
      "conf" : 0.894804,
      "end" : 107.851362,
      "start" : 107.734263,
      "word" : "de"
    }, {
      "conf" : 0.702898,
      "end" : 108.089597,
      "start" : 107.851362,
      "word" : "rester"
    }, {
      "conf" : 0.944762,
      "end" : 108.390015,
      "start" : 108.089597,
      "word" : "numéro"
    }, {
      "conf" : 0.944279,
      "end" : 108.600000,
      "start" : 108.390029,
      "word" : "un"
    }],
  "text" : "deutsche moment de rester numéro un"
},{
  "result" : [{
      "conf" : 0.961687,
      "end" : 110.580000,
      "start" : 110.520000,
      "word" : "quand"
    }, {
      "conf" : 0.910393,
      "end" : 110.820000,
      "start" : 110.580103,
      "word" : "j'étais"
    }, {
      "conf" : 0.983094,
      "end" : 111.050654,
      "start" : 110.820000,
      "word" : "petit"
    }, {
      "conf" : 0.397664,
      "end" : 111.209941,
      "start" : 111.133748,
      "word" : "m"
    }, {
      "conf" : 0.793091,
      "end" : 111.720000,
      "start" : 111.209941,
      "word" : "embêter"
    }],
  "text" : "quand j'étais petit m embêter"
},{
  "result" : [{
      "conf" : 0.976412,
      "end" : 113.250000,
      "start" : 113.070044,
      "word" : "pas"
    }, {
      "conf" : 0.795109,
      "end" : 113.640000,
      "start" : 113.250000,
      "word" : "détenir"
    }, {
      "conf" : 0.799891,
      "end" : 113.850000,
      "start" : 113.790000,
      "word" : "et"
    }, {
      "conf" : 0.999787,
      "end" : 114.000000,
      "start" : 113.850000,
      "word" : "de"
    }, {
      "conf" : 0.999948,
      "end" : 114.240000,
      "start" : 114.030000,
      "word" : "porter"
    }, {
      "conf" : 1.000000,
      "end" : 114.360000,
      "start" : 114.240000,
      "word" : "des"
    }, {
      "conf" : 1.000000,
      "end" : 114.749231,
      "start" : 114.360000,
      "word" : "lunettes"
    }],
  "text" : "pas détenir et de porter des lunettes"
},{
  "result" : [{
      "conf" : 0.604319,
      "end" : 116.459033,
      "start" : 116.370000,
      "word" : "a"
    }, {
      "conf" : 0.967283,
      "end" : 116.670037,
      "start" : 116.459033,
      "word" : "l'école"
    }, {
      "conf" : 0.671453,
      "end" : 116.760000,
      "start" : 116.670110,
      "word" : "m"
    }, {
      "conf" : 0.463397,
      "end" : 116.970000,
      "start" : 116.760000,
      "word" : "appeler"
    }, {
      "conf" : 0.872233,
      "end" : 117.119282,
      "start" : 116.970000,
      "word" : "le"
    }, {
      "conf" : 0.832018,
      "end" : 117.420000,
      "start" : 117.120000,
      "word" : "hibou"
    }],
  "text" : "a l'école m appeler le hibou"
},{
  "result" : [{
      "conf" : 1.000000,
      "end" : 120.840000,
      "start" : 120.752358,
      "word" : "les"
    }, {
      "conf" : 1.000000,
      "end" : 121.050000,
      "start" : 120.840000,
      "word" : "filles"
    }, {
      "conf" : 0.997109,
      "end" : 121.289290,
      "start" : 121.050000,
      "word" : "aussi"
    }, {
      "conf" : 0.615625,
      "end" : 121.380044,
      "start" : 121.289663,
      "word" : "c'est"
    }, {
      "conf" : 0.917488,
      "end" : 121.950000,
      "start" : 121.439224,
      "word" : "difficile"
    }],
  "text" : "les filles aussi c'est difficile"
},{
  "result" : [{
      "conf" : 0.962561,
      "end" : 123.209663,
      "start" : 123.090000,
      "word" : "puis"
    }, {
      "conf" : 1.000000,
      "end" : 123.360000,
      "start" : 123.209663,
      "word" : "après"
    }, {
      "conf" : 1.000000,
      "end" : 123.420000,
      "start" : 123.360000,
      "word" : "on"
    }, {
      "conf" : 0.997842,
      "end" : 123.570000,
      "start" : 123.420000,
      "word" : "s'y"
    }, {
      "conf" : 0.998129,
      "end" : 123.930000,
      "start" : 123.570000,
      "word" : "habitue"
    }],
  "text" : "puis après on s'y habitue"
},{
  "result" : [{
      "conf" : 0.912233,
      "end" : 126.437153,
      "start" : 126.120000,
      "word" : "c'est"
    }, {
      "conf" : 1.000000,
      "end" : 126.688389,
      "start" : 126.458335,
      "word" : "un"
    }, {
      "conf" : 1.000000,
      "end" : 127.110000,
      "start" : 126.690000,
      "word" : "épisode"
    }, {
      "conf" : 1.000000,
      "end" : 127.590000,
      "start" : 127.110000,
      "word" : "tragique"
    }, {
      "conf" : 1.000000,
      "end" : 128.010000,
      "start" : 127.590000,
      "word" : "pourtant"
    }, {
      "conf" : 1.000000,
      "end" : 128.489795,
      "start" : 128.010000,
      "word" : "l'ambiance"
    }, {
      "conf" : 0.763217,
      "end" : 128.549927,
      "start" : 128.490000,
      "word" : "est"
    }, {
      "conf" : 0.970981,
      "end" : 128.970000,
      "start" : 128.549927,
      "word" : "volontiers"
    }, {
      "conf" : 0.982127,
      "end" : 129.540000,
      "start" : 128.970000,
      "word" : "festive"
    }, {
      "conf" : 0.998004,
      "end" : 129.690000,
      "start" : 129.540000,
      "word" : "et"
    }, {
      "conf" : 0.988232,
      "end" : 130.260000,
      "start" : 129.690000,
      "word" : "souriante"
    }, {
      "conf" : 1.000000,
      "end" : 130.350000,
      "start" : 130.260000,
      "word" : "le"
    }, {
      "conf" : 1.000000,
      "end" : 130.920000,
      "start" : 130.350000,
      "word" : "réalisateur"
    }, {
      "conf" : 1.000000,
      "end" : 131.100000,
      "start" : 130.920000,
      "word" : "pierre"
    }, {
      "conf" : 0.942939,
      "end" : 131.400000,
      "start" : 131.100000,
      "word" : "granier"
    }, {
      "conf" : 0.803735,
      "end" : 131.700132,
      "start" : 131.400000,
      "word" : "deferre"
    }, {
      "conf" : 0.268624,
      "end" : 131.846030,
      "start" : 131.700132,
      "word" : "s'est"
    }, {
      "conf" : 0.657621,
      "end" : 132.090000,
      "start" : 131.846030,
      "word" : "basé"
    }, {
      "conf" : 1.000000,
      "end" : 132.270000,
      "start" : 132.090000,
      "word" : "sur"
    }, {
      "conf" : 1.000000,
      "end" : 132.420000,
      "start" : 132.270000,
      "word" : "ses"
    }, {
      "conf" : 1.000000,
      "end" : 132.720000,
      "start" : 132.420000,
      "word" : "propres"
    }, {
      "conf" : 0.996152,
      "end" : 133.170000,
      "start" : 132.720000,
      "word" : "souvenirs"
    }, {
      "conf" : 1.000000,
      "end" : 133.650000,
      "start" : 133.530000,
      "word" : "lui"
    }, {
      "conf" : 1.000000,
      "end" : 133.770000,
      "start" : 133.650000,
      "word" : "qui"
    }, {
      "conf" : 0.991215,
      "end" : 133.830000,
      "start" : 133.770000,
      "word" : "a"
    }, {
      "conf" : 1.000000,
      "end" : 134.280000,
      "start" : 133.830000,
      "word" : "vécu"
    }, {
      "conf" : 1.000000,
      "end" : 134.550000,
      "start" : 134.310000,
      "word" : "cet"
    }, {
      "conf" : 1.000000,
      "end" : 135.060000,
      "start" : 134.550000,
      "word" : "exode"
    }, {
      "conf" : 0.392359,
      "end" : 135.870000,
      "start" : 135.360000,
      "word" : "enfermé"
    }, {
      "conf" : 1.000000,
      "end" : 136.020000,
      "start" : 135.870000,
      "word" : "dans"
    }, {
      "conf" : 1.000000,
      "end" : 136.170000,
      "start" : 136.020000,
      "word" : "ce"
    }, {
      "conf" : 1.000000,
      "end" : 136.680000,
      "start" : 136.170000,
      "word" : "wagon"
    }, {
      "conf" : 1.000000,
      "end" : 137.070000,
      "start" : 136.920000,
      "word" : "on"
    }, {
      "conf" : 1.000000,
      "end" : 137.490000,
      "start" : 137.070000,
      "word" : "chante"
    }, {
      "conf" : 1.000000,
      "end" : 137.580000,
      "start" : 137.490000,
      "word" : "on"
    }, {
      "conf" : 1.000000,
      "end" : 137.970000,
      "start" : 137.580000,
      "word" : "rigole"
    }, {
      "conf" : 1.000000,
      "end" : 138.060000,
      "start" : 137.970000,
      "word" : "on"
    }, {
      "conf" : 1.000000,
      "end" : 138.240000,
      "start" : 138.060000,
      "word" : "joue"
    }, {
      "conf" : 1.000000,
      "end" : 138.300000,
      "start" : 138.240000,
      "word" : "aux"
    }, {
      "conf" : 1.000000,
      "end" : 138.690000,
      "start" : 138.300000,
      "word" : "cartes"
    }, {
      "conf" : 1.000000,
      "end" : 139.140000,
      "start" : 139.020000,
      "word" : "les"
    }, {
      "conf" : 1.000000,
      "end" : 139.590000,
      "start" : 139.140000,
      "word" : "barrières"
    }, {
      "conf" : 0.997756,
      "end" : 140.160000,
      "start" : 139.590000,
      "word" : "sociales"
    }, {
      "conf" : 0.817539,
      "end" : 140.760000,
      "start" : 140.160000,
      "word" : "s'envolent"
    }, {
      "conf" : 1.000000,
      "end" : 140.970000,
      "start" : 140.820000,
      "word" : "et"
    }, {
      "conf" : 1.000000,
      "end" : 141.060000,
      "start" : 140.970000,
      "word" : "on"
    }, {
      "conf" : 1.000000,
      "end" : 141.210000,
      "start" : 141.060000,
      "word" : "se"
    }, {
      "conf" : 0.938323,
      "end" : 141.810000,
      "start" : 141.210000,
      "word" : "rapproche"
    }, {
      "conf" : 1.000000,
      "end" : 141.990000,
      "start" : 141.840000,
      "word" : "il"
    }, {
      "conf" : 1.000000,
      "end" : 142.110000,
      "start" : 141.990000,
      "word" : "est"
    }, {
      "conf" : 1.000000,
      "end" : 142.560000,
      "start" : 142.110000,
      "word" : "urgent"
    }, {
      "conf" : 1.000000,
      "end" : 142.770000,
      "start" : 142.590000,
      "word" : "de"
    }, {
      "conf" : 0.993322,
      "end" : 143.220000,
      "start" : 142.770000,
      "word" : "vivre"
    }, {
      "conf" : 1.000000,
      "end" : 143.820000,
      "start" : 143.520000,
      "word" : "parfois"
    }, {
      "conf" : 0.998981,
      "end" : 143.910000,
      "start" : 143.820000,
      "word" : "le"
    }, {
      "conf" : 0.998981,
      "end" : 144.118359,
      "start" : 143.910000,
      "word" : "train"
    }, {
      "conf" : 0.430834,
      "end" : 144.270000,
      "start" : 144.120000,
      "word" : "fait"
    }, {
      "conf" : 1.000000,
      "end" : 144.420000,
      "start" : 144.286919,
      "word" : "une"
    }, {
      "conf" : 0.980683,
      "end" : 144.720000,
      "start" : 144.420000,
      "word" : "pause"
    }],
  "text" : "c'est un épisode tragique pourtant l'ambiance est volontiers festive et souriante le réalisateur pierre granier deferre s'est basé sur ses propres souvenirs lui qui a vécu cet exode enfermé dans ce wagon on chante on rigole on joue aux cartes les barrières sociales s'envolent et on se rapproche il est urgent de vivre parfois le train fait une pause"
},{
  "result" : [{
      "conf" : 0.995639,
      "end" : 144.930000,
      "start" : 144.750000,
      "word" : "alors"
    }, {
      "conf" : 1.000000,
      "end" : 145.020000,
      "start" : 144.930000,
      "word" : "on"
    }, {
      "conf" : 0.993954,
      "end" : 145.140000,
      "start" : 145.020000,
      "word" : "peut"
    }, {
      "conf" : 1.000000,
      "end" : 145.320000,
      "start" : 145.140000,
      "word" : "se"
    }, {
      "conf" : 0.996062,
      "end" : 146.010000,
      "start" : 145.350000,
      "word" : "rafraîchir"
    }, {
      "conf" : 0.955719,
      "end" : 146.250000,
      "start" : 146.106152,
      "word" : "un"
    }, {
      "conf" : 0.933785,
      "end" : 146.520000,
      "start" : 146.250000,
      "word" : "point"
    }, {
      "conf" : 1.000000,
      "end" : 146.850000,
      "start" : 146.520000,
      "word" : "d'eau"
    }],
  "text" : "alors on peut se rafraîchir un point d'eau"
},{
  "result" : [{
      "conf" : 1.000000,
      "end" : 149.250000,
      "start" : 149.130000,
      "word" : "tu"
    }, {
      "conf" : 1.000000,
      "end" : 149.370000,
      "start" : 149.250000,
      "word" : "sais"
    }, {
      "conf" : 0.998653,
      "end" : 149.550000,
      "start" : 149.370000,
      "word" : "cette"
    }, {
      "conf" : 0.799955,
      "end" : 149.729956,
      "start" : 149.550000,
      "word" : "nuit"
    }, {
      "conf" : 0.408636,
      "end" : 149.850000,
      "start" : 149.730000,
      "word" : "la"
    }, {
      "conf" : 0.901263,
      "end" : 150.090000,
      "start" : 149.850000,
      "word" : "grosse"
    }, {
      "conf" : 0.955271,
      "end" : 150.420000,
      "start" : 150.090000,
      "word" : "julie"
    }, {
      "conf" : 0.953754,
      "end" : 150.540000,
      "start" : 150.422300,
      "word" : "elle"
    }, {
      "conf" : 0.988253,
      "end" : 150.660000,
      "start" : 150.540000,
      "word" : "nous"
    }, {
      "conf" : 0.883808,
      "end" : 151.020000,
      "start" : 150.660718,
      "word" : "avait"
    }, {
      "conf" : 1.000000,
      "end" : 151.560000,
      "start" : 151.440000,
      "word" : "fait"
    }, {
      "conf" : 1.000000,
      "end" : 151.620000,
      "start" : 151.560000,
      "word" : "un"
    }, {
      "conf" : 1.000000,
      "end" : 151.920000,
      "start" : 151.620000,
      "word" : "clin"
    }, {
      "conf" : 1.000000,
      "end" : 152.220000,
      "start" : 151.920000,
      "word" : "d'oeil"
    }],
  "text" : "tu sais cette nuit la grosse julie elle nous avait fait un clin d'oeil"
},{
  "result" : [{
      "conf" : 0.857351,
      "end" : 153.540000,
      "start" : 153.360000,
      "word" : "qu'est-ce"
    }, {
      "conf" : 1.000000,
      "end" : 153.630000,
      "start" : 153.543076,
      "word" : "que"
    }, {
      "conf" : 1.000000,
      "end" : 153.750000,
      "start" : 153.630000,
      "word" : "tu"
    }, {
      "conf" : 0.644673,
      "end" : 154.110000,
      "start" : 153.752739,
      "word" : "fais"
    }, {
      "conf" : 0.999085,
      "end" : 154.530000,
      "start" : 154.380000,
      "word" : "la"
    }, {
      "conf" : 1.000000,
      "end" : 154.680000,
      "start" : 154.530000,
      "word" : "même"
    }, {
      "conf" : 1.000000,
      "end" : 155.189370,
      "start" : 154.680000,
      "word" : "chose"
    }],
  "text" : "qu'est-ce que tu fais la même chose"
},{
  "result" : [{
      "conf" : 0.742311,
      "end" : 160.618623,
      "start" : 160.530366,
      "word" : "tu"
    }, {
      "conf" : 0.526191,
      "end" : 160.650000,
      "start" : 160.620000,
      "word" : "es"
    }, {
      "conf" : 0.996834,
      "end" : 160.920000,
      "start" : 160.658320,
      "word" : "déjà"
    }, {
      "conf" : 0.580814,
      "end" : 161.160000,
      "start" : 160.920000,
      "word" : "parti"
    }, {
      "conf" : 1.000000,
      "end" : 161.220000,
      "start" : 161.160190,
      "word" : "en"
    }, {
      "conf" : 0.955219,
      "end" : 161.820000,
      "start" : 161.220000,
      "word" : "vacances"
    }],
  "text" : "tu es déjà parti en vacances"
},{
  "result" : [{
      "conf" : 0.418160,
      "end" : 163.019868,
      "start" : 162.810000,
      "word" : "va"
    }, {
      "conf" : 0.998978,
      "end" : 164.280000,
      "start" : 164.130000,
      "word" : "moi"
    }, {
      "conf" : 1.000000,
      "end" : 164.640000,
      "start" : 164.280000,
      "word" : "jamais"
    }],
  "text" : "va moi jamais"
},{
  "result" : [{
      "conf" : 0.559529,
      "end" : 167.250000,
      "start" : 167.160000,
      "word" : "a"
    }, {
      "conf" : 1.000000,
      "end" : 167.550000,
      "start" : 167.250000,
      "word" : "toi"
    }],
  "text" : "a toi"
},{
  "result" : [{
      "conf" : 0.999150,
      "end" : 171.420000,
      "start" : 171.270000,
      "word" : "elle"
    }, {
      "conf" : 0.999150,
      "end" : 171.450000,
      "start" : 171.420000,
      "word" : "est"
    }, {
      "conf" : 0.932432,
      "end" : 171.750000,
      "start" : 171.450000,
      "word" : "partie"
    }, {
      "conf" : 1.000000,
      "end" : 171.810000,
      "start" : 171.750000,
      "word" : "en"
    }, {
      "conf" : 0.898907,
      "end" : 172.350000,
      "start" : 171.810000,
      "word" : "vacances"
    }, {
      "conf" : 1.000000,
      "end" : 172.860000,
      "start" : 172.410000,
      "word" : "avant"
    }, {
      "conf" : 1.000000,
      "end" : 173.160000,
      "start" : 172.920000,
      "word" : "le"
    }, {
      "conf" : 0.967561,
      "end" : 173.430000,
      "start" : 173.160000,
      "word" : "mot"
    }, {
      "conf" : 0.806963,
      "end" : 174.029868,
      "start" : 173.520000,
      "word" : "avance"
    }, {
      "conf" : 0.792136,
      "end" : 174.122725,
      "start" : 174.035449,
      "word" : "m"
    }, {
      "conf" : 0.699520,
      "end" : 174.210000,
      "start" : 174.123105,
      "word" : "a"
    }, {
      "conf" : 0.607494,
      "end" : 174.540000,
      "start" : 174.210000,
      "word" : "frappé"
    }, {
      "conf" : 0.931403,
      "end" : 174.810000,
      "start" : 174.540000,
      "word" : "revient"
    }, {
      "conf" : 1.000000,
      "end" : 175.230000,
      "start" : 174.810000,
      "word" : "souvent"
    }, {
      "conf" : 1.000000,
      "end" : 175.710000,
      "start" : 175.590000,
      "word" : "dans"
    }, {
      "conf" : 0.880854,
      "end" : 175.890000,
      "start" : 175.710000,
      "word" : "leurs"
    }, {
      "conf" : 0.898077,
      "end" : 176.340000,
      "start" : 175.890000,
      "word" : "échanges"
    }, {
      "conf" : 0.996822,
      "end" : 176.520000,
      "start" : 176.340000,
      "word" : "comme"
    }, {
      "conf" : 0.986470,
      "end" : 176.640000,
      "start" : 176.520000,
      "word" : "si"
    }, {
      "conf" : 1.000000,
      "end" : 176.760000,
      "start" : 176.640000,
      "word" : "ce"
    }, {
      "conf" : 1.000000,
      "end" : 177.150000,
      "start" : 176.760000,
      "word" : "voyage"
    }, {
      "conf" : 1.000000,
      "end" : 177.300000,
      "start" : 177.150000,
      "word" : "vers"
    }, {
      "conf" : 0.880569,
      "end" : 177.360000,
      "start" : 177.300000,
      "word" : "l"
    }, {
      "conf" : 0.858537,
      "end" : 177.750000,
      "start" : 177.360000,
      "word" : "inconnu"
    }, {
      "conf" : 0.994108,
      "end" : 177.900000,
      "start" : 177.750000,
      "word" : "ce"
    }, {
      "conf" : 0.986877,
      "end" : 178.409370,
      "start" : 177.900000,
      "word" : "trajet"
    }, {
      "conf" : 1.000000,
      "end" : 178.620000,
      "start" : 178.410000,
      "word" : "très"
    }, {
      "conf" : 1.000000,
      "end" : 179.040000,
      "start" : 178.620000,
      "word" : "angoissant"
    }, {
      "conf" : 0.886399,
      "end" : 179.280000,
      "start" : 179.040000,
      "word" : "était"
    }, {
      "conf" : 1.000000,
      "end" : 179.400000,
      "start" : 179.280220,
      "word" : "un"
    }, {
      "conf" : 1.000000,
      "end" : 179.760000,
      "start" : 179.400000,
      "word" : "moment"
    }, {
      "conf" : 1.000000,
      "end" : 180.300000,
      "start" : 180.120000,
      "word" : "hors"
    }, {
      "conf" : 1.000000,
      "end" : 180.450000,
      "start" : 180.300000,
      "word" : "du"
    }, {
      "conf" : 1.000000,
      "end" : 180.750000,
      "start" : 180.450000,
      "word" : "temps"
    }, {
      "conf" : 0.639443,
      "end" : 181.170000,
      "start" : 181.050000,
      "word" : "j'y"
    }, {
      "conf" : 0.773784,
      "end" : 181.200000,
      "start" : 181.170000,
      "word" : "ai"
    }, {
      "conf" : 0.963077,
      "end" : 181.470000,
      "start" : 181.200000,
      "word" : "pensé"
    }, {
      "conf" : 0.990762,
      "end" : 181.530000,
      "start" : 181.470000,
      "word" : "au"
    }, {
      "conf" : 1.000000,
      "end" : 182.160000,
      "start" : 181.530000,
      "word" : "confinement"
    }, {
      "conf" : 0.994201,
      "end" : 182.310000,
      "start" : 182.190000,
      "word" : "et"
    }, {
      "conf" : 0.963360,
      "end" : 182.370000,
      "start" : 182.310000,
      "word" : "à"
    }, {
      "conf" : 0.994466,
      "end" : 182.490000,
      "start" : 182.370000,
      "word" : "tous"
    }, {
      "conf" : 1.000000,
      "end" : 182.790000,
      "start" : 182.490000,
      "word" : "ceux"
    }, {
      "conf" : 1.000000,
      "end" : 183.000000,
      "start" : 182.820000,
      "word" : "qui"
    }, {
      "conf" : 1.000000,
      "end" : 183.090000,
      "start" : 183.000000,
      "word" : "ont"
    }, {
      "conf" : 1.000000,
      "end" : 183.390000,
      "start" : 183.090000,
      "word" : "compris"
    }, {
      "conf" : 1.000000,
      "end" : 183.660000,
      "start" : 183.390000,
      "word" : "quelque"
    }, {
      "conf" : 1.000000,
      "end" : 183.900000,
      "start" : 183.660000,
      "word" : "chose"
    }, {
      "conf" : 1.000000,
      "end" : 184.140000,
      "start" : 183.900000,
      "word" : "sur"
    }, {
      "conf" : 0.979557,
      "end" : 184.350000,
      "start" : 184.170000,
      "word" : "eux"
    }, {
      "conf" : 0.931609,
      "end" : 184.440000,
      "start" : 184.350000,
      "word" : "à"
    }, {
      "conf" : 1.000000,
      "end" : 184.530000,
      "start" : 184.440000,
      "word" : "ce"
    }, {
      "conf" : 1.000000,
      "end" : 184.920000,
      "start" : 184.530000,
      "word" : "moment-là"
    }, {
      "conf" : 0.969691,
      "end" : 185.400000,
      "start" : 184.980000,
      "word" : "évidemment"
    }, {
      "conf" : 1.000000,
      "end" : 185.550000,
      "start" : 185.400000,
      "word" : "ce"
    }, {
      "conf" : 0.989462,
      "end" : 185.610000,
      "start" : 185.550000,
      "word" : "n"
    }, {
      "conf" : 0.967627,
      "end" : 185.790000,
      "start" : 185.610000,
      "word" : "était"
    }, {
      "conf" : 1.000000,
      "end" : 185.910000,
      "start" : 185.790000,
      "word" : "pas"
    }, {
      "conf" : 0.999801,
      "end" : 186.000000,
      "start" : 185.910000,
      "word" : "la"
    }, {
      "conf" : 1.000000,
      "end" : 186.270000,
      "start" : 186.000000,
      "word" : "guerre"
    }, {
      "conf" : 0.996790,
      "end" : 186.870000,
      "start" : 186.750000,
      "word" : "mais"
    }, {
      "conf" : 1.000000,
      "end" : 186.960000,
      "start" : 186.870000,
      "word" : "les"
    }, {
      "conf" : 0.995371,
      "end" : 187.470000,
      "start" : 186.960000,
      "word" : "contextes"
    }, {
      "conf" : 0.956185,
      "end" : 188.310000,
      "start" : 187.500000,
      "word" : "extraordinaires"
    }, {
      "conf" : 0.982312,
      "end" : 188.370000,
      "start" : 188.310000,
      "word" : "ont"
    }, {
      "conf" : 1.000000,
      "end" : 188.460000,
      "start" : 188.370000,
      "word" : "le"
    }, {
      "conf" : 1.000000,
      "end" : 188.848491,
      "start" : 188.460000,
      "word" : "pouvoir"
    }],
  "text" : "elle est partie en vacances avant le mot avance m a frappé revient souvent dans leurs échanges comme si ce voyage vers l inconnu ce trajet très angoissant était un moment hors du temps j'y ai pensé au confinement et à tous ceux qui ont compris quelque chose sur eux à ce moment-là évidemment ce n était pas la guerre mais les contextes extraordinaires ont le pouvoir"
},{
  "result" : [{
      "conf" : 1.000000,
      "end" : 189.029883,
      "start" : 188.939927,
      "word" : "nous"
    }, {
      "conf" : 1.000000,
      "end" : 189.270000,
      "start" : 189.030000,
      "word" : "mettre"
    }, {
      "conf" : 1.000000,
      "end" : 189.480000,
      "start" : 189.270000,
      "word" : "face"
    }, {
      "conf" : 1.000000,
      "end" : 189.540000,
      "start" : 189.480000,
      "word" : "à"
    }, {
      "conf" : 0.982951,
      "end" : 189.990000,
      "start" : 189.540000,
      "word" : "nous-mêmes"
    }, {
      "conf" : 0.999968,
      "end" : 190.110000,
      "start" : 189.990000,
      "word" : "de"
    }, {
      "conf" : 0.999989,
      "end" : 190.650000,
      "start" : 190.110000,
      "word" : "révéler"
    }, {
      "conf" : 1.000000,
      "end" : 190.800000,
      "start" : 190.650000,
      "word" : "les"
    }, {
      "conf" : 0.999962,
      "end" : 191.190000,
      "start" : 190.800000,
      "word" : "désirs"
    }, {
      "conf" : 0.999962,
      "end" : 191.700000,
      "start" : 191.190000,
      "word" : "enfouis"
    }, {
      "conf" : 0.880351,
      "end" : 191.850000,
      "start" : 191.730000,
      "word" : "et"
    }, {
      "conf" : 0.944243,
      "end" : 192.000000,
      "start" : 191.850000,
      "word" : "ce"
    }, {
      "conf" : 1.000000,
      "end" : 192.270000,
      "start" : 192.000000,
      "word" : "train"
    }, {
      "conf" : 0.860387,
      "end" : 192.360000,
      "start" : 192.270000,
      "word" : "où"
    }, {
      "conf" : 1.000000,
      "end" : 192.930000,
      "start" : 192.360000,
      "word" : "va-t-il"
    }, {
      "conf" : 1.000000,
      "end" : 193.170000,
      "start" : 192.960000,
      "word" : "vers"
    }, {
      "conf" : 0.799324,
      "end" : 193.230000,
      "start" : 193.170000,
      "word" : "l"
    }, {
      "conf" : 0.799324,
      "end" : 193.590000,
      "start" : 193.230000,
      "word" : "ouest"
    }, {
      "conf" : 1.000000,
      "end" : 193.770000,
      "start" : 193.620000,
      "word" : "la"
    }, {
      "conf" : 1.000000,
      "end" : 194.250000,
      "start" : 193.770000,
      "word" : "rochelle"
    }, {
      "conf" : 0.936910,
      "end" : 194.370000,
      "start" : 194.250059,
      "word" : "il"
    }, {
      "conf" : 0.959119,
      "end" : 194.700000,
      "start" : 194.370000,
      "word" : "subit"
    }, {
      "conf" : 1.000000,
      "end" : 194.910000,
      "start" : 194.700000,
      "word" : "des"
    }, {
      "conf" : 0.999841,
      "end" : 195.570000,
      "start" : 194.910000,
      "word" : "bombardements"
    }, {
      "conf" : 1.000000,
      "end" : 195.750000,
      "start" : 195.570000,
      "word" : "des"
    }, {
      "conf" : 0.990233,
      "end" : 196.170000,
      "start" : 195.750000,
      "word" : "avaries"
    }, {
      "conf" : 1.000000,
      "end" : 196.650000,
      "start" : 196.500000,
      "word" : "je"
    }, {
      "conf" : 1.000000,
      "end" : 196.740000,
      "start" : 196.650000,
      "word" : "ne"
    }, {
      "conf" : 0.971362,
      "end" : 196.860000,
      "start" : 196.740000,
      "word" : "veux"
    }, {
      "conf" : 1.000000,
      "end" : 197.190000,
      "start" : 196.890000,
      "word" : "surtout"
    }, {
      "conf" : 1.000000,
      "end" : 197.310000,
      "start" : 197.190000,
      "word" : "pas"
    }, {
      "conf" : 1.000000,
      "end" : 197.490000,
      "start" : 197.310000,
      "word" : "trop"
    }, {
      "conf" : 0.999824,
      "end" : 197.640000,
      "start" : 197.550000,
      "word" : "en"
    }, {
      "conf" : 1.000000,
      "end" : 197.880000,
      "start" : 197.640000,
      "word" : "dire"
    }, {
      "conf" : 1.000000,
      "end" : 198.000000,
      "start" : 197.880000,
      "word" : "mais"
    }, {
      "conf" : 1.000000,
      "end" : 198.090000,
      "start" : 198.000000,
      "word" : "on"
    }, {
      "conf" : 1.000000,
      "end" : 198.420000,
      "start" : 198.090000,
      "word" : "comprend"
    }, {
      "conf" : 1.000000,
      "end" : 198.630000,
      "start" : 198.420000,
      "word" : "assez"
    }, {
      "conf" : 1.000000,
      "end" : 198.780000,
      "start" : 198.630000,
      "word" : "vite"
    }, {
      "conf" : 1.000000,
      "end" : 198.900000,
      "start" : 198.780000,
      "word" : "que"
    }, {
      "conf" : 1.000000,
      "end" : 198.960000,
      "start" : 198.900000,
      "word" : "le"
    }, {
      "conf" : 1.000000,
      "end" : 199.380000,
      "start" : 198.960000,
      "word" : "personnage"
    }, {
      "conf" : 0.896271,
      "end" : 199.530000,
      "start" : 199.380000,
      "word" : "de"
    }, {
      "conf" : 0.895310,
      "end" : 200.040000,
      "start" : 199.590000,
      "word" : "dana"
    }, {
      "conf" : 1.000000,
      "end" : 200.340000,
      "start" : 200.070000,
      "word" : "romy"
    }, {
      "conf" : 1.000000,
      "end" : 200.790000,
      "start" : 200.340000,
      "word" : "schneider"
    }, {
      "conf" : 1.000000,
      "end" : 201.300000,
      "start" : 201.150000,
      "word" : "est"
    }, {
      "conf" : 0.934310,
      "end" : 201.808916,
      "start" : 201.300000,
      "word" : "allemande"
    }, {
      "conf" : 0.978336,
      "end" : 202.230000,
      "start" : 201.840000,
      "word" : "l'issue"
    }, {
      "conf" : 1.000000,
      "end" : 202.320000,
      "start" : 202.230000,
      "word" : "du"
    }, {
      "conf" : 1.000000,
      "end" : 202.740000,
      "start" : 202.320000,
      "word" : "voyage"
    }, {
      "conf" : 1.000000,
      "end" : 202.950000,
      "start" : 202.800000,
      "word" : "est"
    }, {
      "conf" : 1.000000,
      "end" : 203.550000,
      "start" : 202.950000,
      "word" : "incertaine"
    }, {
      "conf" : 0.580345,
      "end" : 204.138018,
      "start" : 204.060000,
      "word" : "et"
    }, {
      "conf" : 0.703074,
      "end" : 204.239326,
      "start" : 204.138018,
      "word" : "l"
    }, {
      "conf" : 0.974950,
      "end" : 204.930000,
      "start" : 204.239326,
      "word" : "inquiétude"
    }, {
      "conf" : 0.948249,
      "end" : 205.110000,
      "start" : 205.020000,
      "word" : "est"
    }, {
      "conf" : 0.938944,
      "end" : 205.800000,
      "start" : 205.110000,
      "word" : "justifiée"
    }, {
      "conf" : 0.679099,
      "end" : 206.280000,
      "start" : 205.890000,
      "word" : "eros"
    }, {
      "conf" : 1.000000,
      "end" : 206.640000,
      "start" : 206.520000,
      "word" : "et"
    }, {
      "conf" : 1.000000,
      "end" : 207.270000,
      "start" : 206.640000,
      "word" : "thanatos"
    }, {
      "conf" : 0.998934,
      "end" : 207.389985,
      "start" : 207.270000,
      "word" : "se"
    }, {
      "conf" : 0.969221,
      "end" : 207.600000,
      "start" : 207.389985,
      "word" : "tiennent"
    }, {
      "conf" : 1.000000,
      "end" : 207.750000,
      "start" : 207.600000,
      "word" : "par"
    }, {
      "conf" : 1.000000,
      "end" : 207.870000,
      "start" : 207.750000,
      "word" : "la"
    }, {
      "conf" : 1.000000,
      "end" : 208.050000,
      "start" : 207.870000,
      "word" : "main"
    }, {
      "conf" : 1.000000,
      "end" : 208.170000,
      "start" : 208.050000,
      "word" : "le"
    }, {
      "conf" : 0.999594,
      "end" : 208.290000,
      "start" : 208.170000,
      "word" : "dieu"
    }, {
      "conf" : 1.000000,
      "end" : 208.350000,
      "start" : 208.290000,
      "word" : "de"
    }, {
      "conf" : 0.959326,
      "end" : 208.680000,
      "start" : 208.350000,
      "word" : "l'amour"
    }, {
      "conf" : 0.914746,
      "end" : 208.740000,
      "start" : 208.680000,
      "word" : "et"
    }, {
      "conf" : 1.000000,
      "end" : 208.980000,
      "start" : 208.740000,
      "word" : "celui"
    }, {
      "conf" : 0.935901,
      "end" : 209.040000,
      "start" : 208.980000,
      "word" : "de"
    }],
  "text" : "nous mettre face à nous-mêmes de révéler les désirs enfouis et ce train où va-t-il vers l ouest la rochelle il subit des bombardements des avaries je ne veux surtout pas trop en dire mais on comprend assez vite que le personnage de dana romy schneider est allemande l'issue du voyage est incertaine et l inquiétude est justifiée eros et thanatos se tiennent par la main le dieu de l'amour et celui de"
},{
  "result" : [{
      "conf" : 0.983774,
      "end" : 209.129883,
      "start" : 209.040000,
      "word" : "la"
    }, {
      "conf" : 1.000000,
      "end" : 209.430000,
      "start" : 209.129883,
      "word" : "mort"
    }, {
      "conf" : 1.000000,
      "end" : 210.090000,
      "start" : 209.880000,
      "word" : "ce"
    }, {
      "conf" : 1.000000,
      "end" : 210.510000,
      "start" : 210.090000,
      "word" : "film"
    }, {
      "conf" : 0.997279,
      "end" : 210.990000,
      "start" : 210.870000,
      "word" : "est"
    }, {
      "conf" : 0.999859,
      "end" : 211.650000,
      "start" : 210.990000,
      "word" : "bouleversant"
    }, {
      "conf" : 0.877665,
      "end" : 211.830000,
      "start" : 211.710000,
      "word" : "et"
    }, {
      "conf" : 0.985514,
      "end" : 212.190000,
      "start" : 211.830000,
      "word" : "très"
    }, {
      "conf" : 0.717703,
      "end" : 212.700000,
      "start" : 212.190000,
      "word" : "marquant"
    }, {
      "conf" : 1.000000,
      "end" : 213.660000,
      "start" : 213.030000,
      "word" : "schneider"
    }, {
      "conf" : 0.739599,
      "end" : 213.780000,
      "start" : 213.660000,
      "word" : "et"
    }, {
      "conf" : 1.000000,
      "end" : 214.500000,
      "start" : 213.780000,
      "word" : "trintignant"
    }, {
      "conf" : 1.000000,
      "end" : 214.800000,
      "start" : 214.650000,
      "word" : "un"
    }, {
      "conf" : 1.000000,
      "end" : 215.130000,
      "start" : 214.800000,
      "word" : "immense"
    }, {
      "conf" : 0.984260,
      "end" : 215.609941,
      "start" : 215.130000,
      "word" : "acteur"
    }, {
      "conf" : 1.000000,
      "end" : 215.760000,
      "start" : 215.640000,
      "word" : "une"
    }, {
      "conf" : 1.000000,
      "end" : 216.060000,
      "start" : 215.760000,
      "word" : "immense"
    }, {
      "conf" : 0.998033,
      "end" : 216.540000,
      "start" : 216.060000,
      "word" : "actrice"
    }, {
      "conf" : 0.875368,
      "end" : 217.110000,
      "start" : 216.930000,
      "word" : "ceux"
    }, {
      "conf" : 1.000000,
      "end" : 217.230000,
      "start" : 217.110000,
      "word" : "qui"
    }, {
      "conf" : 0.997871,
      "end" : 217.410000,
      "start" : 217.230000,
      "word" : "les"
    }, {
      "conf" : 0.929164,
      "end" : 217.740000,
      "start" : 217.410000,
      "word" : "aiment"
    }, {
      "conf" : 0.723103,
      "end" : 218.490000,
      "start" : 217.800000,
      "word" : "regarderont"
    }, {
      "conf" : 1.000000,
      "end" : 218.700000,
      "start" : 218.520000,
      "word" : "le"
    }, {
      "conf" : 1.000000,
      "end" : 218.970000,
      "start" : 218.700000,
      "word" : "train"
    }, {
      "conf" : 1.000000,
      "end" : 219.450000,
      "start" : 219.090000,
      "word" : "ce"
    }, {
      "conf" : 1.000000,
      "end" : 219.840000,
      "start" : 219.450000,
      "word" : "soir"
    }, {
      "conf" : 1.000000,
      "end" : 220.020000,
      "start" : 219.840000,
      "word" : "sur"
    }, {
      "conf" : 1.000000,
      "end" : 220.319941,
      "start" : 220.020000,
      "word" : "arte"
    }, {
      "conf" : 0.996636,
      "end" : 220.470000,
      "start" : 220.350000,
      "word" : "à"
    }, {
      "conf" : 1.000000,
      "end" : 220.620000,
      "start" : 220.470000,
      "word" : "vingt"
    }, {
      "conf" : 0.978961,
      "end" : 220.770000,
      "start" : 220.620000,
      "word" : "heures"
    }, {
      "conf" : 0.997658,
      "end" : 221.100000,
      "start" : 220.770000,
      "word" : "cinquante"
    }, {
      "conf" : 0.330720,
      "end" : 221.167705,
      "start" : 221.109155,
      "word" : "et"
    }, {
      "conf" : 1.000000,
      "end" : 221.430000,
      "start" : 221.310044,
      "word" : "une"
    }, {
      "conf" : 1.000000,
      "end" : 221.640000,
      "start" : 221.430000,
      "word" : "soirée"
    }, {
      "conf" : 0.994874,
      "end" : 222.120000,
      "start" : 221.640000,
      "word" : "complète"
    }, {
      "conf" : 0.973847,
      "end" : 222.540000,
      "start" : 222.150000,
      "word" : "dommage"
    }, {
      "conf" : 1.000000,
      "end" : 222.840000,
      "start" : 222.540000,
      "word" : "puisque"
    }, {
      "conf" : 1.000000,
      "end" : 222.930000,
      "start" : 222.840000,
      "word" : "le"
    }, {
      "conf" : 1.000000,
      "end" : 223.230000,
      "start" : 222.930000,
      "word" : "film"
    }, {
      "conf" : 0.990680,
      "end" : 223.680000,
      "start" : 223.620000,
      "word" : "est"
    }, {
      "conf" : 0.962952,
      "end" : 223.950000,
      "start" : 223.680000,
      "word" : "suivi"
    }, {
      "conf" : 0.731721,
      "end" : 224.038975,
      "start" : 223.950000,
      "word" : "d'un"
    }, {
      "conf" : 1.000000,
      "end" : 224.580000,
      "start" : 224.038975,
      "word" : "documentaire"
    }, {
      "conf" : 1.000000,
      "end" : 224.970000,
      "start" : 224.580000,
      "word" : "inédit"
    }, {
      "conf" : 1.000000,
      "end" : 225.600000,
      "start" : 224.970000,
      "word" : "trintignant"
    }, {
      "conf" : 0.789101,
      "end" : 225.870000,
      "start" : 225.600000,
      "word" : "par"
    }, {
      "conf" : 1.000000,
      "end" : 226.470000,
      "start" : 225.870000,
      "word" : "trintignant"
    }, {
      "conf" : 0.830559,
      "end" : 226.920000,
      "start" : 226.800000,
      "word" : "de"
    }, {
      "conf" : 0.931230,
      "end" : 227.220000,
      "start" : 226.920000,
      "word" : "lucie"
    }, {
      "conf" : 0.888479,
      "end" : 227.550000,
      "start" : 227.220000,
      "word" : "carrier"
    }, {
      "conf" : 0.994683,
      "end" : 227.789985,
      "start" : 227.700000,
      "word" : "et"
    }, {
      "conf" : 0.796051,
      "end" : 228.000000,
      "start" : 227.789985,
      "word" : "yves"
    }, {
      "conf" : 1.000000,
      "end" : 228.180000,
      "start" : 228.000029,
      "word" : "je"
    }, {
      "conf" : 0.967949,
      "end" : 228.270000,
      "start" : 228.180000,
      "word" : "le"
    }, {
      "conf" : 0.997622,
      "end" : 228.570000,
      "start" : 228.270000,
      "word" : "remercie"
    }, {
      "conf" : 1.000000,
      "end" : 228.810000,
      "start" : 228.570000,
      "word" : "dorothée"
    }, {
      "conf" : 1.000000,
      "end" : 229.170000,
      "start" : 228.810000,
      "word" : "barba"
    }],
  "text" : "la mort ce film est bouleversant et très marquant schneider et trintignant un immense acteur une immense actrice ceux qui les aiment regarderont le train ce soir sur arte à vingt heures cinquante et une soirée complète dommage puisque le film est suivi d'un documentaire inédit trintignant par trintignant de lucie carrier et yves je le remercie dorothée barba"
},{
  "result" : [{
      "conf" : 0.726355,
      "end" : 231.090000,
      "start" : 230.220000,
      "word" : "france-inter"
    }],
  "text" : "france-inter"
},{
  "text" : ""
}]}