{ "waveDuration": 413,
 "transcriptionDuration": 102,
"parts": [{
  "result" : [{
      "conf" : 0.593387,
      "end" : 0.119712,
      "start" : 0.000000,
      "word" : "vous"
    }, {
      "conf" : 0.543439,
      "end" : 0.300000,
      "start" : 0.119712,
      "word" : "savez"
    }, {
      "conf" : 0.938824,
      "end" : 0.629924,
      "start" : 0.300022,
      "word" : "dit-elle"
    }, {
      "conf" : 1.000000,
      "end" : 0.870000,
      "start" : 0.629924,
      "word" : "avec"
    }, {
      "conf" : 1.000000,
      "end" : 1.110000,
      "start" : 0.870000,
      "word" : "nous"
    }, {
      "conf" : 0.977197,
      "end" : 1.380850,
      "start" : 1.230000,
      "word" : "et"
    }, {
      "conf" : 0.484750,
      "end" : 1.620000,
      "start" : 1.380850,
      "word" : "léo"
    }, {
      "conf" : 0.829007,
      "end" : 2.160000,
      "start" : 1.623393,
      "word" : "carmen"
    }, {
      "conf" : 0.988677,
      "end" : 2.280000,
      "start" : 2.190000,
      "word" : "est"
    }, {
      "conf" : 0.970479,
      "end" : 2.460000,
      "start" : 2.280000,
      "word" : "là"
    }, {
      "conf" : 1.000000,
      "end" : 2.670000,
      "start" : 2.520000,
      "word" : "pour"
    }, {
      "conf" : 1.000000,
      "end" : 2.760000,
      "start" : 2.670000,
      "word" : "nous"
    }, {
      "conf" : 1.000000,
      "end" : 3.120000,
      "start" : 2.760000,
      "word" : "parler"
    }, {
      "conf" : 1.000000,
      "end" : 3.900000,
      "start" : 3.120000,
      "word" : "cinéma"
    }, {
      "conf" : 1.000000,
      "end" : 4.498903,
      "start" : 4.080000,
      "word" : "aujourd'hui"
    }, {
      "conf" : 0.373072,
      "end" : 4.735701,
      "start" : 4.503020,
      "word" : "c'est"
    }, {
      "conf" : 1.000000,
      "end" : 5.211954,
      "start" : 4.743221,
      "word" : "absolument"
    }, {
      "conf" : 1.000000,
      "end" : 5.909553,
      "start" : 5.430000,
      "word" : "allons-y"
    }],
  "text" : "vous savez dit-elle avec nous et léo carmen est là pour nous parler cinéma aujourd'hui c'est absolument allons-y"
},{
  "result" : [{
      "conf" : 0.407482,
      "end" : 9.660899,
      "start" : 9.270952,
      "word" : "zoom"
    }, {
      "conf" : 0.590831,
      "end" : 10.383807,
      "start" : 10.095871,
      "word" : "sur"
    }, {
      "conf" : 0.368754,
      "end" : 10.710000,
      "start" : 10.383807,
      "word" : "ce"
    }, {
      "conf" : 0.809459,
      "end" : 11.920721,
      "start" : 11.159870,
      "word" : "store"
    }],
  "text" : "zoom sur ce store"
},{
  "result" : [{
      "conf" : 0.204949,
      "end" : 13.979253,
      "start" : 13.500000,
      "word" : "oh"
    }, {
      "conf" : 0.510075,
      "end" : 14.250000,
      "start" : 14.010000,
      "word" : "veux"
    }, {
      "conf" : 0.999948,
      "end" : 14.639342,
      "start" : 14.250152,
      "word" : "pas"
    }, {
      "conf" : 0.812152,
      "end" : 15.510000,
      "start" : 14.976411,
      "word" : "que"
    }, {
      "conf" : 0.625514,
      "end" : 15.780000,
      "start" : 15.570000,
      "word" : "v"
    }, {
      "conf" : 0.660206,
      "end" : 16.286799,
      "start" : 15.839868,
      "word" : "q"
    }, {
      "conf" : 0.461329,
      "end" : 16.451774,
      "start" : 16.354737,
      "word" : "s"
    }, {
      "conf" : 0.816659,
      "end" : 16.767927,
      "start" : 16.453784,
      "word" : "s"
    }, {
      "conf" : 0.807665,
      "end" : 17.429998,
      "start" : 16.829998,
      "word" : "e"
    }],
  "text" : "oh veux pas que v q s s e"
},{
  "result" : [{
      "conf" : 0.811790,
      "end" : 17.674865,
      "start" : 17.550374,
      "word" : "est-ce"
    }, {
      "conf" : 0.604602,
      "end" : 17.820000,
      "start" : 17.700000,
      "word" : "qu'il"
    }, {
      "conf" : 0.957529,
      "end" : 17.852776,
      "start" : 17.820287,
      "word" : "y"
    }, {
      "conf" : 0.960816,
      "end" : 17.910000,
      "start" : 17.852776,
      "word" : "a"
    }, {
      "conf" : 0.605308,
      "end" : 18.180000,
      "start" : 17.910784,
      "word" : "quelqu"
    }, {
      "conf" : 0.723606,
      "end" : 18.330000,
      "start" : 18.180000,
      "word" : "un"
    }, {
      "conf" : 0.987919,
      "end" : 18.480000,
      "start" : 18.330000,
      "word" : "pour"
    }, {
      "conf" : 0.980985,
      "end" : 18.810000,
      "start" : 18.480309,
      "word" : "écouter"
    }, {
      "conf" : 1.000000,
      "end" : 18.990000,
      "start" : 18.810000,
      "word" : "mon"
    }, {
      "conf" : 1.000000,
      "end" : 19.500000,
      "start" : 18.990000,
      "word" : "histoire"
    }, {
      "conf" : 0.995996,
      "end" : 19.680015,
      "start" : 19.500000,
      "word" : "celle"
    }, {
      "conf" : 0.994900,
      "end" : 19.830000,
      "start" : 19.680015,
      "word" : "d'une"
    }, {
      "conf" : 0.999992,
      "end" : 20.070000,
      "start" : 19.830033,
      "word" : "fille"
    }, {
      "conf" : 0.992382,
      "end" : 20.310000,
      "start" : 20.070002,
      "word" : "venue"
    }, {
      "conf" : 1.000000,
      "end" : 20.490000,
      "start" : 20.310000,
      "word" : "pour"
    }, {
      "conf" : 0.999862,
      "end" : 20.939647,
      "start" : 20.490000,
      "word" : "rester"
    }, {
      "conf" : 0.684400,
      "end" : 21.420000,
      "start" : 21.270000,
      "word" : "c'est"
    }, {
      "conf" : 0.968685,
      "end" : 21.509863,
      "start" : 21.425206,
      "word" : "le"
    }, {
      "conf" : 1.000000,
      "end" : 21.660000,
      "start" : 21.509863,
      "word" : "genre"
    }, {
      "conf" : 1.000000,
      "end" : 21.780000,
      "start" : 21.660000,
      "word" : "de"
    }, {
      "conf" : 0.974872,
      "end" : 21.990004,
      "start" : 21.780000,
      "word" : "fille"
    }, {
      "conf" : 0.996078,
      "end" : 22.110000,
      "start" : 21.990004,
      "word" : "que"
    }, {
      "conf" : 0.999357,
      "end" : 22.260000,
      "start" : 22.110000,
      "word" : "tu"
    }, {
      "conf" : 0.917750,
      "end" : 22.410000,
      "start" : 22.260000,
      "word" : "aimes"
    }, {
      "conf" : 0.999984,
      "end" : 22.620000,
      "start" : 22.410000,
      "word" : "avec"
    }, {
      "conf" : 1.000000,
      "end" : 22.770000,
      "start" : 22.620000,
      "word" : "trop"
    }, {
      "conf" : 0.991526,
      "end" : 23.370000,
      "start" : 22.770000,
      "word" : "d'espoir"
    }, {
      "conf" : 1.000000,
      "end" : 23.460000,
      "start" : 23.370000,
      "word" : "mais"
    }, {
      "conf" : 0.997505,
      "end" : 23.586337,
      "start" : 23.460000,
      "word" : "dont"
    }, {
      "conf" : 0.552709,
      "end" : 23.700000,
      "start" : 23.586337,
      "word" : "tu"
    }, {
      "conf" : 0.312538,
      "end" : 23.760000,
      "start" : 23.700000,
      "word" : "ne"
    }, {
      "conf" : 0.464542,
      "end" : 24.030000,
      "start" : 23.880000,
      "word" : "traites"
    }, {
      "conf" : 0.991875,
      "end" : 24.210000,
      "start" : 24.032054,
      "word" : "pas"
    }, {
      "conf" : 0.999993,
      "end" : 24.300333,
      "start" : 24.210344,
      "word" : "un"
    }, {
      "conf" : 0.961363,
      "end" : 24.570000,
      "start" : 24.300333,
      "word" : "jour"
    }, {
      "conf" : 0.827389,
      "end" : 24.839875,
      "start" : 24.570000,
      "word" : "passé"
    }, {
      "conf" : 0.972195,
      "end" : 24.870007,
      "start" : 24.839875,
      "word" : "à"
    }, {
      "conf" : 0.999206,
      "end" : 24.990000,
      "start" : 24.870007,
      "word" : "ses"
    }, {
      "conf" : 0.886550,
      "end" : 25.380000,
      "start" : 24.990000,
      "word" : "côtés"
    }],
  "text" : "est-ce qu'il y a quelqu un pour écouter mon histoire celle d'une fille venue pour rester c'est le genre de fille que tu aimes avec trop d'espoir mais dont tu ne traites pas un jour passé à ses côtés"
},{
  "result" : [{
      "conf" : 0.903974,
      "end" : 26.070000,
      "start" : 25.920000,
      "word" : "voilà"
    }, {
      "conf" : 1.000000,
      "end" : 26.190000,
      "start" : 26.070000,
      "word" : "ce"
    }, {
      "conf" : 1.000000,
      "end" : 26.280000,
      "start" : 26.190000,
      "word" : "que"
    }, {
      "conf" : 0.999522,
      "end" : 26.340000,
      "start" : 26.280000,
      "word" : "nous"
    }, {
      "conf" : 0.976003,
      "end" : 26.520000,
      "start" : 26.340000,
      "word" : "sommes"
    }, {
      "conf" : 0.953026,
      "end" : 26.670000,
      "start" : 26.520216,
      "word" : "cet"
    }, {
      "conf" : 0.994349,
      "end" : 26.850000,
      "start" : 26.670000,
      "word" : "homme"
    }, {
      "conf" : 0.995090,
      "end" : 27.120000,
      "start" : 26.850000,
      "word" : "seul"
    }, {
      "conf" : 0.999434,
      "end" : 27.300000,
      "start" : 27.120000,
      "word" : "assis"
    }, {
      "conf" : 1.000000,
      "end" : 27.450000,
      "start" : 27.300016,
      "word" : "sur"
    }, {
      "conf" : 1.000000,
      "end" : 27.540000,
      "start" : 27.450000,
      "word" : "une"
    }, {
      "conf" : 1.000000,
      "end" : 27.810000,
      "start" : 27.540000,
      "word" : "plage"
    }, {
      "conf" : 0.894145,
      "end" : 28.109623,
      "start" : 27.810000,
      "word" : "grise"
    }, {
      "conf" : 0.988757,
      "end" : 28.170000,
      "start" : 28.109764,
      "word" : "en"
    }, {
      "conf" : 1.000000,
      "end" : 28.499837,
      "start" : 28.170000,
      "word" : "regardant"
    }, {
      "conf" : 0.994592,
      "end" : 28.830000,
      "start" : 28.500000,
      "word" : "l'océan"
    }, {
      "conf" : 1.000000,
      "end" : 28.950000,
      "start" : 28.830000,
      "word" : "qui"
    }, {
      "conf" : 0.911852,
      "end" : 29.280000,
      "start" : 29.010020,
      "word" : "sépare"
    }, {
      "conf" : 0.915348,
      "end" : 29.369557,
      "start" : 29.280000,
      "word" : "de"
    }, {
      "conf" : 1.000000,
      "end" : 29.460000,
      "start" : 29.369557,
      "word" : "la"
    }, {
      "conf" : 1.000000,
      "end" : 29.700000,
      "start" : 29.460000,
      "word" : "femme"
    }, {
      "conf" : 0.964416,
      "end" : 29.879991,
      "start" : 29.700000,
      "word" : "qu'il"
    }, {
      "conf" : 0.965102,
      "end" : 30.120000,
      "start" : 29.879991,
      "word" : "aime"
    }, {
      "conf" : 0.658000,
      "end" : 30.690000,
      "start" : 30.480000,
      "word" : "joué"
    }, {
      "conf" : 0.997326,
      "end" : 30.810000,
      "start" : 30.690000,
      "word" : "par"
    }, {
      "conf" : 0.997857,
      "end" : 30.899982,
      "start" : 30.810000,
      "word" : "le"
    }, {
      "conf" : 1.000000,
      "end" : 31.110000,
      "start" : 30.899982,
      "word" : "trop"
    }, {
      "conf" : 0.983085,
      "end" : 31.380000,
      "start" : 31.110000,
      "word" : "rare"
    }, {
      "conf" : 0.997119,
      "end" : 31.620000,
      "start" : 31.380000,
      "word" : "jim"
    }, {
      "conf" : 0.457557,
      "end" : 32.151552,
      "start" : 31.710000,
      "word" : "fergus"
    }, {
      "conf" : 0.986102,
      "end" : 32.340000,
      "start" : 32.151552,
      "word" : "cet"
    }, {
      "conf" : 0.990987,
      "end" : 32.520000,
      "start" : 32.340000,
      "word" : "homme"
    }, {
      "conf" : 0.831750,
      "end" : 33.060000,
      "start" : 32.520000,
      "word" : "s'appelle"
    }, {
      "conf" : 0.810658,
      "end" : 33.810000,
      "start" : 33.150048,
      "word" : "jude"
    }],
  "text" : "voilà ce que nous sommes cet homme seul assis sur une plage grise en regardant l'océan qui sépare de la femme qu'il aime joué par le trop rare jim fergus cet homme s'appelle jude"
},{
  "result" : [{
      "conf" : 0.898946,
      "end" : 34.709996,
      "start" : 34.320000,
      "word" : "et"
    }, {
      "conf" : 0.997780,
      "end" : 34.829971,
      "start" : 34.710029,
      "word" : "ne"
    }, {
      "conf" : 0.999995,
      "end" : 34.980000,
      "start" : 34.829971,
      "word" : "soyez"
    }, {
      "conf" : 1.000000,
      "end" : 35.070000,
      "start" : 34.980000,
      "word" : "pas"
    }, {
      "conf" : 1.000000,
      "end" : 35.250000,
      "start" : 35.070000,
      "word" : "trop"
    }, {
      "conf" : 0.362300,
      "end" : 35.661086,
      "start" : 35.250000,
      "word" : "précédent"
    }, {
      "conf" : 0.908609,
      "end" : 36.000000,
      "start" : 35.748435,
      "word" : "enfin"
    }, {
      "conf" : 0.978956,
      "end" : 36.120000,
      "start" : 36.001289,
      "word" : "sa"
    }, {
      "conf" : 0.992596,
      "end" : 36.450000,
      "start" : 36.120000,
      "word" : "chanson"
    }, {
      "conf" : 0.754689,
      "end" : 36.603069,
      "start" : 36.450000,
      "word" : "alors"
    }, {
      "conf" : 0.567633,
      "end" : 36.722450,
      "start" : 36.603069,
      "word" : "est-ce"
    }, {
      "conf" : 0.542908,
      "end" : 36.840000,
      "start" : 36.764037,
      "word" : "en"
    }, {
      "conf" : 0.963407,
      "end" : 37.020000,
      "start" : 36.840000,
      "word" : "fin"
    }, {
      "conf" : 0.991806,
      "end" : 37.080000,
      "start" : 37.020000,
      "word" : "de"
    }, {
      "conf" : 0.973930,
      "end" : 37.290000,
      "start" : 37.080000,
      "word" : "film"
    }, {
      "conf" : 1.000000,
      "end" : 37.500000,
      "start" : 37.290000,
      "word" : "parce"
    }, {
      "conf" : 1.000000,
      "end" : 37.620000,
      "start" : 37.500000,
      "word" : "que"
    }, {
      "conf" : 0.751946,
      "end" : 37.710000,
      "start" : 37.620000,
      "word" : "là"
    }, {
      "conf" : 0.997648,
      "end" : 37.830000,
      "start" : 37.710000,
      "word" : "il"
    }, {
      "conf" : 0.996614,
      "end" : 37.890000,
      "start" : 37.830000,
      "word" : "a"
    }, {
      "conf" : 1.000000,
      "end" : 38.010000,
      "start" : 37.890000,
      "word" : "pas"
    }, {
      "conf" : 1.000000,
      "end" : 38.190000,
      "start" : 38.010000,
      "word" : "trop"
    }, {
      "conf" : 1.000000,
      "end" : 38.280000,
      "start" : 38.196544,
      "word" : "la"
    }, {
      "conf" : 0.588938,
      "end" : 38.460000,
      "start" : 38.280000,
      "word" : "foi"
    }, {
      "conf" : 1.000000,
      "end" : 38.520000,
      "start" : 38.460000,
      "word" : "de"
    }, {
      "conf" : 0.999790,
      "end" : 38.700000,
      "start" : 38.520000,
      "word" : "prendre"
    }, {
      "conf" : 1.000000,
      "end" : 38.820000,
      "start" : 38.700000,
      "word" : "une"
    }, {
      "conf" : 0.988332,
      "end" : 39.060000,
      "start" : 38.820000,
      "word" : "sad"
    }, {
      "conf" : 0.705261,
      "end" : 39.390000,
      "start" : 39.060000,
      "word" : "song"
    }, {
      "conf" : 0.828333,
      "end" : 39.570000,
      "start" : 39.420000,
      "word" : "et"
    }, {
      "conf" : 0.995918,
      "end" : 39.720000,
      "start" : 39.570007,
      "word" : "de"
    }, {
      "conf" : 0.986819,
      "end" : 39.840000,
      "start" : 39.720000,
      "word" : "mes"
    }, {
      "conf" : 0.698045,
      "end" : 40.049993,
      "start" : 39.840000,
      "word" : "kits"
    }, {
      "conf" : 0.697464,
      "end" : 40.500000,
      "start" : 40.050011,
      "word" : "bébé"
    }],
  "text" : "et ne soyez pas trop précédent enfin sa chanson alors est-ce en fin de film parce que là il a pas trop la foi de prendre une sad song et de mes kits bébé"
},{
  "result" : [{
      "conf" : 0.999283,
      "end" : 41.430000,
      "start" : 41.160000,
      "word" : "c'est"
    }, {
      "conf" : 0.999701,
      "end" : 41.610000,
      "start" : 41.430000,
      "word" : "par"
    }, {
      "conf" : 0.996574,
      "end" : 41.760637,
      "start" : 41.610000,
      "word" : "lui"
    }, {
      "conf" : 0.778303,
      "end" : 41.986227,
      "start" : 41.760637,
      "word" : "qu'on"
    }, {
      "conf" : 0.622906,
      "end" : 42.240000,
      "start" : 41.996569,
      "word" : "entre"
    }, {
      "conf" : 1.000000,
      "end" : 42.360000,
      "start" : 42.240000,
      "word" : "dans"
    }, {
      "conf" : 1.000000,
      "end" : 42.420000,
      "start" : 42.360000,
      "word" : "l"
    }, {
      "conf" : 1.000000,
      "end" : 42.750000,
      "start" : 42.420000,
      "word" : "histoire"
    }, {
      "conf" : 0.991433,
      "end" : 42.870000,
      "start" : 42.750000,
      "word" : "de"
    }, {
      "conf" : 0.999596,
      "end" : 43.140007,
      "start" : 42.870000,
      "word" : "cross"
    }, {
      "conf" : 0.999743,
      "end" : 43.260000,
      "start" : 43.170000,
      "word" : "the"
    }, {
      "conf" : 0.999743,
      "end" : 43.739989,
      "start" : 43.290000,
      "word" : "universe"
    }, {
      "conf" : 0.992223,
      "end" : 43.890000,
      "start" : 43.739989,
      "word" : "cette"
    }, {
      "conf" : 1.000000,
      "end" : 44.130000,
      "start" : 43.890000,
      "word" : "comédie"
    }, {
      "conf" : 0.995207,
      "end" : 44.490000,
      "start" : 44.130000,
      "word" : "musicale"
    }, {
      "conf" : 0.926188,
      "end" : 44.850000,
      "start" : 44.490000,
      "word" : "construite"
    }, {
      "conf" : 1.000000,
      "end" : 45.300000,
      "start" : 44.850000,
      "word" : "avec"
    }, {
      "conf" : 1.000000,
      "end" : 45.510000,
      "start" : 45.360000,
      "word" : "des"
    }, {
      "conf" : 0.998928,
      "end" : 45.930000,
      "start" : 45.510000,
      "word" : "reprises"
    }, {
      "conf" : 1.000000,
      "end" : 46.020000,
      "start" : 45.930000,
      "word" : "des"
    }, {
      "conf" : 1.000000,
      "end" : 46.470000,
      "start" : 46.020000,
      "word" : "beatles"
    }, {
      "conf" : 0.348468,
      "end" : 46.559443,
      "start" : 46.500366,
      "word" : "et"
    }, {
      "conf" : 0.497474,
      "end" : 46.950000,
      "start" : 46.559443,
      "word" : "réalisé"
    }, {
      "conf" : 1.000000,
      "end" : 47.010000,
      "start" : 46.950000,
      "word" : "en"
    }, {
      "conf" : 1.000000,
      "end" : 47.130000,
      "start" : 47.010000,
      "word" : "deux"
    }, {
      "conf" : 1.000000,
      "end" : 47.250000,
      "start" : 47.130000,
      "word" : "mille"
    }, {
      "conf" : 0.974409,
      "end" : 47.430000,
      "start" : 47.250000,
      "word" : "sept"
    }, {
      "conf" : 1.000000,
      "end" : 47.580000,
      "start" : 47.430769,
      "word" : "par"
    }, {
      "conf" : 0.999088,
      "end" : 47.790000,
      "start" : 47.580000,
      "word" : "julie"
    }, {
      "conf" : 0.714536,
      "end" : 48.270000,
      "start" : 47.790000,
      "word" : "taylor"
    }, {
      "conf" : 0.272606,
      "end" : 48.929766,
      "start" : 48.660000,
      "word" : "révélé"
    }, {
      "conf" : 1.000000,
      "end" : 48.960146,
      "start" : 48.929766,
      "word" : "au"
    }, {
      "conf" : 0.978200,
      "end" : 49.260000,
      "start" : 48.960146,
      "word" : "théâtre"
    }, {
      "conf" : 1.000000,
      "end" : 49.380000,
      "start" : 49.260000,
      "word" : "avec"
    }, {
      "conf" : 1.000000,
      "end" : 49.470000,
      "start" : 49.380000,
      "word" : "son"
    }, {
      "conf" : 0.989841,
      "end" : 49.920000,
      "start" : 49.470000,
      "word" : "adaptation"
    }, {
      "conf" : 0.991362,
      "end" : 50.370000,
      "start" : 49.920000,
      "word" : "musicale"
    }, {
      "conf" : 1.000000,
      "end" : 50.400000,
      "start" : 50.370000,
      "word" : "et"
    }, {
      "conf" : 0.994094,
      "end" : 50.700000,
      "start" : 50.400000,
      "word" : "scénique"
    }, {
      "conf" : 1.000000,
      "end" : 50.790000,
      "start" : 50.700000,
      "word" : "du"
    }, {
      "conf" : 1.000000,
      "end" : 51.000000,
      "start" : 50.790000,
      "word" : "roi"
    }, {
      "conf" : 0.993188,
      "end" : 51.210000,
      "start" : 51.000000,
      "word" : "lion"
    }, {
      "conf" : 0.920287,
      "end" : 51.869854,
      "start" : 51.780000,
      "word" : "on"
    }, {
      "conf" : 0.910697,
      "end" : 51.960000,
      "start" : 51.870000,
      "word" : "est"
    }, {
      "conf" : 1.000000,
      "end" : 52.080000,
      "start" : 51.962113,
      "word" : "dans"
    }, {
      "conf" : 1.000000,
      "end" : 52.170000,
      "start" : 52.080000,
      "word" : "les"
    }, {
      "conf" : 0.997571,
      "end" : 52.380000,
      "start" : 52.170000,
      "word" : "années"
    }, {
      "conf" : 0.974824,
      "end" : 52.830183,
      "start" : 52.380000,
      "word" : "soixante"
    }, {
      "conf" : 0.666236,
      "end" : 53.025414,
      "start" : 52.830183,
      "word" : "joe"
    }, {
      "conf" : 0.650174,
      "end" : 53.188022,
      "start" : 53.099791,
      "word" : "est"
    }, {
      "conf" : 0.988524,
      "end" : 53.550000,
      "start" : 53.188022,
      "word" : "anglais"
    }, {
      "conf" : 0.762492,
      "end" : 53.700000,
      "start" : 53.553113,
      "word" : "il"
    }, {
      "conf" : 0.762492,
      "end" : 53.940000,
      "start" : 53.700000,
      "word" : "habite"
    }, {
      "conf" : 1.000000,
      "end" : 54.480000,
      "start" : 53.940000,
      "word" : "liverpool"
    }, {
      "conf" : 0.956144,
      "end" : 54.660000,
      "start" : 54.540000,
      "word" : "et"
    }, {
      "conf" : 0.676487,
      "end" : 54.923610,
      "start" : 54.660000,
      "word" : "aime"
    }, {
      "conf" : 0.864187,
      "end" : 55.560026,
      "start" : 55.173688,
      "word" : "fréquenter"
    }, {
      "conf" : 0.996243,
      "end" : 55.650000,
      "start" : 55.560026,
      "word" : "les"
    }, {
      "conf" : 0.979654,
      "end" : 55.860000,
      "start" : 55.650000,
      "word" : "caves"
    }, {
      "conf" : 1.000000,
      "end" : 55.950000,
      "start" : 55.860000,
      "word" : "de"
    }, {
      "conf" : 0.852977,
      "end" : 56.249934,
      "start" : 55.950000,
      "word" : "rock"
    }, {
      "conf" : 0.931228,
      "end" : 56.460000,
      "start" : 56.280000,
      "word" : "clin"
    }, {
      "conf" : 1.000000,
      "end" : 56.640000,
      "start" : 56.460000,
      "word" : "d'oeil"
    }, {
      "conf" : 0.999946,
      "end" : 56.970000,
      "start" : 56.640004,
      "word" : "évident"
    }, {
      "conf" : 1.000000,
      "end" : 57.000000,
      "start" : 56.970000,
      "word" : "au"
    }, {
      "conf" : 1.000000,
      "end" : 57.240000,
      "start" : 57.000000,
      "word" : "début"
    }, {
      "conf" : 1.000000,
      "end" : 57.330000,
      "start" : 57.240000,
      "word" : "des"
    }, {
      "conf" : 0.355705,
      "end" : 57.539919,
      "start" : 57.330000,
      "word" : "femmes"
    }, {
      "conf" : 0.903571,
      "end" : 57.930000,
      "start" : 57.552583,
      "word" : "fort"
    }, {
      "conf" : 0.998314,
      "end" : 58.380000,
      "start" : 58.170000,
      "word" : "son"
    }, {
      "conf" : 0.999941,
      "end" : 58.650000,
      "start" : 58.380000,
      "word" : "rêve"
    }, {
      "conf" : 1.000000,
      "end" : 58.950000,
      "start" : 58.650000,
      "word" : "partir"
    }, {
      "conf" : 1.000000,
      "end" : 59.010000,
      "start" : 58.950000,
      "word" : "aux"
    }, {
      "conf" : 0.574127,
      "end" : 59.460000,
      "start" : 59.010000,
      "word" : "etats-unis"
    }, {
      "conf" : 1.000000,
      "end" : 59.580000,
      "start" : 59.460000,
      "word" : "pour"
    }, {
      "conf" : 1.000000,
      "end" : 59.880000,
      "start" : 59.580000,
      "word" : "retrouver"
    }, {
      "conf" : 1.000000,
      "end" : 60.030000,
      "start" : 59.880000,
      "word" : "son"
    }, {
      "conf" : 1.000000,
      "end" : 60.210000,
      "start" : 60.030000,
      "word" : "père"
    }, {
      "conf" : 0.946131,
      "end" : 60.330000,
      "start" : 60.210000,
      "word" : "qui"
    }, {
      "conf" : 0.846553,
      "end" : 60.390000,
      "start" : 60.330000,
      "word" : "n"
    }, {
      "conf" : 0.820941,
      "end" : 60.420000,
      "start" : 60.390000,
      "word" : "a"
    }, {
      "conf" : 1.000000,
      "end" : 60.660000,
      "start" : 60.420000,
      "word" : "jamais"
    }, {
      "conf" : 0.638599,
      "end" : 60.960000,
      "start" : 60.660000,
      "word" : "connu"
    }],
  "text" : "c'est par lui qu'on entre dans l histoire de cross the universe cette comédie musicale construite avec des reprises des beatles et réalisé en deux mille sept par julie taylor révélé au théâtre avec son adaptation musicale et scénique du roi lion on est dans les années soixante joe est anglais il habite liverpool et aime fréquenter les caves de rock clin d'oeil évident au début des femmes fort son rêve partir aux etats-unis pour retrouver son père qui n a jamais connu"
},{
  "result" : [{
      "conf" : 0.649546,
      "end" : 61.740000,
      "start" : 61.352567,
      "word" : "l'occasion"
    }, {
      "conf" : 1.000000,
      "end" : 61.860000,
      "start" : 61.740000,
      "word" : "se"
    }, {
      "conf" : 0.889948,
      "end" : 62.130000,
      "start" : 61.860000,
      "word" : "présente"
    }, {
      "conf" : 1.000000,
      "end" : 62.430000,
      "start" : 62.130000,
      "word" : "alors"
    }, {
      "conf" : 0.789355,
      "end" : 62.520000,
      "start" : 62.430000,
      "word" : "qu"
    }, {
      "conf" : 0.794851,
      "end" : 62.580000,
      "start" : 62.520000,
      "word" : "un"
    }, {
      "conf" : 1.000000,
      "end" : 62.700000,
      "start" : 62.580000,
      "word" : "des"
    }, {
      "conf" : 0.980700,
      "end" : 62.970000,
      "start" : 62.700000,
      "word" : "bateaux"
    }, {
      "conf" : 1.000000,
      "end" : 63.030000,
      "start" : 62.970000,
      "word" : "en"
    }, {
      "conf" : 0.999523,
      "end" : 63.480000,
      "start" : 63.030000,
      "word" : "construction"
    }, {
      "conf" : 1.000000,
      "end" : 63.600000,
      "start" : 63.480000,
      "word" : "sur"
    }, {
      "conf" : 0.930104,
      "end" : 63.869985,
      "start" : 63.600000,
      "word" : "lequel"
    }, {
      "conf" : 0.819392,
      "end" : 63.930000,
      "start" : 63.870000,
      "word" : "il"
    }, {
      "conf" : 0.797481,
      "end" : 64.318931,
      "start" : 63.930000,
      "word" : "travaille"
    }, {
      "conf" : 0.751259,
      "end" : 64.348923,
      "start" : 64.320000,
      "word" : "et"
    }, {
      "conf" : 0.960208,
      "end" : 64.470000,
      "start" : 64.348923,
      "word" : "va"
    }, {
      "conf" : 1.000000,
      "end" : 64.680000,
      "start" : 64.470000,
      "word" : "prendre"
    }, {
      "conf" : 1.000000,
      "end" : 64.770000,
      "start" : 64.680000,
      "word" : "le"
    }, {
      "conf" : 1.000000,
      "end" : 64.980000,
      "start" : 64.770000,
      "word" : "large"
    }, {
      "conf" : 1.000000,
      "end" : 65.130000,
      "start" : 64.980000,
      "word" : "pour"
    }, {
      "conf" : 1.000000,
      "end" : 65.580000,
      "start" : 65.130000,
      "word" : "l'amérique"
    }, {
      "conf" : 0.842894,
      "end" : 65.999868,
      "start" : 65.880000,
      "word" : "il"
    }, {
      "conf" : 0.726635,
      "end" : 66.120000,
      "start" : 65.999868,
      "word" : "dit"
    }, {
      "conf" : 1.000000,
      "end" : 66.158174,
      "start" : 66.128174,
      "word" : "au"
    }, {
      "conf" : 1.000000,
      "end" : 66.390000,
      "start" : 66.158174,
      "word" : "revoir"
    }, {
      "conf" : 0.989387,
      "end" : 66.420000,
      "start" : 66.390000,
      "word" : "à"
    }, {
      "conf" : 1.000000,
      "end" : 66.570000,
      "start" : 66.420000,
      "word" : "sa"
    }, {
      "conf" : 1.000000,
      "end" : 66.840000,
      "start" : 66.570000,
      "word" : "petite"
    }, {
      "conf" : 1.000000,
      "end" : 67.140000,
      "start" : 66.840000,
      "word" : "copine"
    }, {
      "conf" : 1.000000,
      "end" : 67.200132,
      "start" : 67.140000,
      "word" : "en"
    }, {
      "conf" : 0.920628,
      "end" : 67.319443,
      "start" : 67.200132,
      "word" : "lui"
    }, {
      "conf" : 1.000000,
      "end" : 67.710000,
      "start" : 67.319443,
      "word" : "chantant"
    }, {
      "conf" : 0.990599,
      "end" : 67.860000,
      "start" : 67.740000,
      "word" : "au"
    }, {
      "conf" : 1.000000,
      "end" : 68.040000,
      "start" : 67.860000,
      "word" : "creux"
    }, {
      "conf" : 1.000000,
      "end" : 68.100000,
      "start" : 68.040000,
      "word" : "de"
    }, {
      "conf" : 1.000000,
      "end" : 68.460000,
      "start" : 68.100000,
      "word" : "l'oreille"
    }],
  "text" : "l'occasion se présente alors qu un des bateaux en construction sur lequel il travaille et va prendre le large pour l'amérique il dit au revoir à sa petite copine en lui chantant au creux de l'oreille"
},{
  "result" : [{
      "conf" : 0.438069,
      "end" : 72.929626,
      "start" : 72.510000,
      "word" : "je"
    }],
  "text" : "je"
},{
  "result" : [{
      "conf" : 0.835893,
      "end" : 74.697795,
      "start" : 74.340000,
      "word" : "qui"
    }, {
      "conf" : 0.324202,
      "end" : 75.210000,
      "start" : 74.700000,
      "word" : "sait"
    }],
  "text" : "qui sait"
},{
  "result" : [{
      "conf" : 0.810396,
      "end" : 76.890000,
      "start" : 76.471274,
      "word" : "si"
    }, {
      "conf" : 0.979911,
      "end" : 79.260000,
      "start" : 78.690000,
      "word" : "si"
    }],
  "text" : "si si"
},{
  "result" : [{
      "conf" : 0.504824,
      "end" : 81.419158,
      "start" : 80.610000,
      "word" : "minimes"
    }],
  "text" : "minimes"
},{
  "result" : [{
      "conf" : 0.763877,
      "end" : 82.920000,
      "start" : 82.590000,
      "word" : "oui"
    }, {
      "conf" : 0.479363,
      "end" : 83.040000,
      "start" : 82.920000,
      "word" : "je"
    }, {
      "conf" : 0.448835,
      "end" : 83.940000,
      "start" : 83.370000,
      "word" : "suis"
    }, {
      "conf" : 0.973485,
      "end" : 87.688916,
      "start" : 87.278767,
      "word" : "hum"
    }, {
      "conf" : 0.962472,
      "end" : 88.113472,
      "start" : 87.692915,
      "word" : "hum"
    }, {
      "conf" : 0.985912,
      "end" : 88.517087,
      "start" : 88.158391,
      "word" : "hum"
    }, {
      "conf" : 0.971339,
      "end" : 88.629038,
      "start" : 88.520310,
      "word" : "hum"
    }, {
      "conf" : 0.898007,
      "end" : 89.814236,
      "start" : 89.222834,
      "word" : "ouais"
    }],
  "text" : "oui je suis hum hum hum hum ouais"
},{
  "result" : [{
      "conf" : 0.696614,
      "end" : 91.620000,
      "start" : 91.020000,
      "word" : "etc"
    }],
  "text" : "etc"
},{
  "result" : [{
      "conf" : 0.706121,
      "end" : 93.660000,
      "start" : 93.211619,
      "word" : "merci"
    }],
  "text" : "merci"
},{
  "result" : [{
      "conf" : 0.472675,
      "end" : 95.914863,
      "start" : 95.276697,
      "word" : "scène"
    }, {
      "conf" : 0.644567,
      "end" : 96.780000,
      "start" : 96.338972,
      "word" : "ma"
    }, {
      "conf" : 0.724548,
      "end" : 97.650000,
      "start" : 97.230000,
      "word" : "vie"
    }, {
      "conf" : 0.983416,
      "end" : 99.629963,
      "start" : 98.880000,
      "word" : "si"
    }, {
      "conf" : 0.909263,
      "end" : 99.990000,
      "start" : 99.720000,
      "word" : "par"
    }, {
      "conf" : 0.853859,
      "end" : 100.500000,
      "start" : 99.990352,
      "word" : "site"
    }],
  "text" : "scène ma vie si par site"
},{
  "result" : [{
      "conf" : 0.487947,
      "end" : 102.150139,
      "start" : 101.850000,
      "word" : "a"
    }, {
      "conf" : 0.290818,
      "end" : 102.390110,
      "start" : 102.210000,
      "word" : "plus"
    }],
  "text" : "a plus"
},{
  "result" : [{
      "conf" : 0.290564,
      "end" : 103.260000,
      "start" : 103.200000,
      "word" : "le"
    }, {
      "conf" : 0.971527,
      "end" : 103.500000,
      "start" : 103.289209,
      "word" : "voilà"
    }, {
      "conf" : 0.443909,
      "end" : 103.800000,
      "start" : 103.530000,
      "word" : "partis"
    }, {
      "conf" : 0.999815,
      "end" : 103.950000,
      "start" : 103.800000,
      "word" : "vers"
    }, {
      "conf" : 1.000000,
      "end" : 104.100000,
      "start" : 103.950000,
      "word" : "son"
    }, {
      "conf" : 1.000000,
      "end" : 104.580000,
      "start" : 104.100000,
      "word" : "destin"
    }, {
      "conf" : 1.000000,
      "end" : 104.700000,
      "start" : 104.580000,
      "word" : "qui"
    }, {
      "conf" : 0.533522,
      "end" : 104.792498,
      "start" : 104.700000,
      "word" : "va"
    }, {
      "conf" : 0.967477,
      "end" : 105.149802,
      "start" : 104.892158,
      "word" : "emmener"
    }, {
      "conf" : 0.986927,
      "end" : 105.300000,
      "start" : 105.150000,
      "word" : "non"
    }, {
      "conf" : 1.000000,
      "end" : 105.480000,
      "start" : 105.300000,
      "word" : "pas"
    }, {
      "conf" : 1.000000,
      "end" : 105.570000,
      "start" : 105.480000,
      "word" : "dans"
    }, {
      "conf" : 1.000000,
      "end" : 105.660000,
      "start" : 105.570000,
      "word" : "les"
    }, {
      "conf" : 1.000000,
      "end" : 105.810000,
      "start" : 105.660000,
      "word" : "bras"
    }, {
      "conf" : 0.997619,
      "end" : 105.930000,
      "start" : 105.810000,
      "word" : "d'un"
    }, {
      "conf" : 0.959725,
      "end" : 106.170000,
      "start" : 105.930000,
      "word" : "père"
    }, {
      "conf" : 0.962285,
      "end" : 106.290000,
      "start" : 106.170000,
      "word" : "mais"
    }, {
      "conf" : 0.998652,
      "end" : 106.440000,
      "start" : 106.290000,
      "word" : "dans"
    }, {
      "conf" : 0.828418,
      "end" : 106.680000,
      "start" : 106.440000,
      "word" : "ceux"
    }, {
      "conf" : 0.997645,
      "end" : 106.830000,
      "start" : 106.680000,
      "word" : "de"
    }, {
      "conf" : 0.679381,
      "end" : 107.400000,
      "start" : 106.830000,
      "word" : "lucy"
    }, {
      "conf" : 0.967701,
      "end" : 107.910000,
      "start" : 107.670000,
      "word" : "joué"
    }, {
      "conf" : 1.000000,
      "end" : 108.060000,
      "start" : 107.910000,
      "word" : "par"
    }, {
      "conf" : 1.000000,
      "end" : 108.300000,
      "start" : 108.060000,
      "word" : "evan"
    }, {
      "conf" : 1.000000,
      "end" : 108.600000,
      "start" : 108.300000,
      "word" : "rachel"
    }, {
      "conf" : 1.000000,
      "end" : 108.839971,
      "start" : 108.600000,
      "word" : "wood"
    }, {
      "conf" : 0.204479,
      "end" : 108.990000,
      "start" : 108.840000,
      "word" : "james"
    }, {
      "conf" : 0.662594,
      "end" : 109.470000,
      "start" : 109.021165,
      "word" : "américaine"
    }, {
      "conf" : 0.867221,
      "end" : 109.560000,
      "start" : 109.470000,
      "word" : "dans"
    }, {
      "conf" : 1.000000,
      "end" : 109.680000,
      "start" : 109.560000,
      "word" : "le"
    }, {
      "conf" : 1.000000,
      "end" : 109.950000,
      "start" : 109.680000,
      "word" : "premier"
    }, {
      "conf" : 1.000000,
      "end" : 110.250000,
      "start" : 109.950000,
      "word" : "amour"
    }, {
      "conf" : 0.996803,
      "end" : 110.460000,
      "start" : 110.250000,
      "word" : "vient"
    }, {
      "conf" : 1.000000,
      "end" : 110.550000,
      "start" : 110.460000,
      "word" : "de"
    }, {
      "conf" : 0.998626,
      "end" : 110.820000,
      "start" : 110.550000,
      "word" : "mourir"
    }, {
      "conf" : 1.000000,
      "end" : 110.850000,
      "start" : 110.820000,
      "word" : "au"
    }, {
      "conf" : 0.917077,
      "end" : 111.360000,
      "start" : 110.850000,
      "word" : "vietnam"
    }, {
      "conf" : 0.946843,
      "end" : 111.780000,
      "start" : 111.720000,
      "word" : "à"
    }, {
      "conf" : 1.000000,
      "end" : 112.050000,
      "start" : 111.780000,
      "word" : "travers"
    }, {
      "conf" : 0.591428,
      "end" : 112.200000,
      "start" : 112.050000,
      "word" : "leur"
    }, {
      "conf" : 0.588465,
      "end" : 112.590000,
      "start" : 112.200000,
      "word" : "rencontre"
    }, {
      "conf" : 0.419035,
      "end" : 112.709949,
      "start" : 112.590000,
      "word" : "puis"
    }, {
      "conf" : 0.364126,
      "end" : 113.088223,
      "start" : 112.892036,
      "word" : "mon"
    }, {
      "conf" : 0.420876,
      "end" : 113.490000,
      "start" : 113.088223,
      "word" : "naissance"
    }, {
      "conf" : 0.784177,
      "end" : 113.579692,
      "start" : 113.490000,
      "word" : "et"
    }, {
      "conf" : 0.975632,
      "end" : 113.700000,
      "start" : 113.579692,
      "word" : "tout"
    }, {
      "conf" : 1.000000,
      "end" : 113.790073,
      "start" : 113.700732,
      "word" : "un"
    }, {
      "conf" : 1.000000,
      "end" : 114.090000,
      "start" : 113.790073,
      "word" : "portrait"
    }, {
      "conf" : 1.000000,
      "end" : 114.150000,
      "start" : 114.090000,
      "word" : "de"
    }, {
      "conf" : 0.924892,
      "end" : 114.480000,
      "start" : 114.150000,
      "word" : "l'amérique"
    }, {
      "conf" : 0.993217,
      "end" : 114.570000,
      "start" : 114.480000,
      "word" : "de"
    }, {
      "conf" : 1.000000,
      "end" : 114.989956,
      "start" : 114.570051,
      "word" : "johnson"
    }, {
      "conf" : 1.000000,
      "end" : 115.080000,
      "start" : 115.020000,
      "word" : "en"
    }, {
      "conf" : 1.000000,
      "end" : 115.290000,
      "start" : 115.080000,
      "word" : "pleine"
    }, {
      "conf" : 1.000000,
      "end" : 115.530000,
      "start" : 115.290000,
      "word" : "guerre"
    }, {
      "conf" : 0.950189,
      "end" : 115.619993,
      "start" : 115.530000,
      "word" : "des"
    }, {
      "conf" : 0.970532,
      "end" : 116.100000,
      "start" : 115.619993,
      "word" : "générations"
    }, {
      "conf" : 0.999731,
      "end" : 116.220000,
      "start" : 116.100000,
      "word" : "que"
    }, {
      "conf" : 0.994584,
      "end" : 116.520000,
      "start" : 116.220000,
      "word" : "propose"
    }, {
      "conf" : 0.998289,
      "end" : 116.730000,
      "start" : 116.520000,
      "word" : "julie"
    }, {
      "conf" : 0.512843,
      "end" : 117.150000,
      "start" : 116.730000,
      "word" : "timor"
    }, {
      "conf" : 0.873116,
      "end" : 117.810000,
      "start" : 117.420000,
      "word" : "exploitant"
    }, {
      "conf" : 1.000000,
      "end" : 117.900000,
      "start" : 117.810000,
      "word" : "le"
    }, {
      "conf" : 1.000000,
      "end" : 118.259985,
      "start" : 117.900000,
      "word" : "lyrisme"
    }, {
      "conf" : 1.000000,
      "end" : 118.380000,
      "start" : 118.260015,
      "word" : "des"
    }, {
      "conf" : 1.000000,
      "end" : 118.829062,
      "start" : 118.380000,
      "word" : "beatles"
    }, {
      "conf" : 1.000000,
      "end" : 119.010000,
      "start" : 118.919062,
      "word" : "pour"
    }, {
      "conf" : 0.983539,
      "end" : 119.100000,
      "start" : 119.010000,
      "word" : "nous"
    }, {
      "conf" : 1.000000,
      "end" : 119.250000,
      "start" : 119.100000,
      "word" : "faire"
    }, {
      "conf" : 1.000000,
      "end" : 119.760000,
      "start" : 119.250000,
      "word" : "ressentir"
    }, {
      "conf" : 0.995149,
      "end" : 119.820000,
      "start" : 119.760762,
      "word" : "à"
    }, {
      "conf" : 1.000000,
      "end" : 119.910000,
      "start" : 119.820000,
      "word" : "la"
    }, {
      "conf" : 0.998280,
      "end" : 120.087803,
      "start" : 119.910000,
      "word" : "fois"
    }, {
      "conf" : 1.000000,
      "end" : 120.180000,
      "start" : 120.090000,
      "word" : "la"
    }, {
      "conf" : 1.000000,
      "end" : 120.540000,
      "start" : 120.180000,
      "word" : "liberté"
    }, {
      "conf" : 1.000000,
      "end" : 120.960000,
      "start" : 120.540000,
      "word" : "conquise"
    }, {
      "conf" : 1.000000,
      "end" : 121.050000,
      "start" : 120.960000,
      "word" : "de"
    }, {
      "conf" : 1.000000,
      "end" : 121.110000,
      "start" : 121.050000,
      "word" : "la"
    }, {
      "conf" : 1.000000,
      "end" : 121.410000,
      "start" : 121.110000,
      "word" : "jeunesse"
    }, {
      "conf" : 0.987812,
      "end" : 121.950000,
      "start" : 121.410000,
      "word" : "new-yorkaise"
    }, {
      "conf" : 0.948262,
      "end" : 122.280000,
      "start" : 122.190000,
      "word" : "et"
    }, {
      "conf" : 1.000000,
      "end" : 122.400000,
      "start" : 122.280000,
      "word" : "son"
    }, {
      "conf" : 1.000000,
      "end" : 122.670000,
      "start" : 122.400000,
      "word" : "combat"
    }, {
      "conf" : 1.000000,
      "end" : 122.790000,
      "start" : 122.670000,
      "word" : "pour"
    }, {
      "conf" : 1.000000,
      "end" : 122.910000,
      "start" : 122.790000,
      "word" : "la"
    }, {
      "conf" : 1.000000,
      "end" : 123.150000,
      "start" : 122.910000,
      "word" : "paix"
    }],
  "text" : "le voilà partis vers son destin qui va emmener non pas dans les bras d'un père mais dans ceux de lucy joué par evan rachel wood james américaine dans le premier amour vient de mourir au vietnam à travers leur rencontre puis mon naissance et tout un portrait de l'amérique de johnson en pleine guerre des générations que propose julie timor exploitant le lyrisme des beatles pour nous faire ressentir à la fois la liberté conquise de la jeunesse new-yorkaise et son combat pour la paix"
},{
  "result" : [{
      "conf" : 0.965577,
      "end" : 124.068765,
      "start" : 123.570000,
      "word" : "intéressant"
    }, {
      "conf" : 0.988314,
      "end" : 124.229912,
      "start" : 124.080103,
      "word" : "une"
    }, {
      "conf" : 0.757114,
      "end" : 124.530000,
      "start" : 124.229912,
      "word" : "colloque"
    }, {
      "conf" : 0.867956,
      "end" : 124.740000,
      "start" : 124.530000,
      "word" : "tenu"
    }, {
      "conf" : 1.000000,
      "end" : 124.890000,
      "start" : 124.740000,
      "word" : "par"
    }, {
      "conf" : 1.000000,
      "end" : 124.980000,
      "start" : 124.890000,
      "word" : "une"
    }, {
      "conf" : 1.000000,
      "end" : 125.340000,
      "start" : 124.980000,
      "word" : "chanteuse"
    }, {
      "conf" : 0.998125,
      "end" : 125.400000,
      "start" : 125.340000,
      "word" : "à"
    }, {
      "conf" : 1.000000,
      "end" : 125.460000,
      "start" : 125.400000,
      "word" : "la"
    }, {
      "conf" : 1.000000,
      "end" : 125.760000,
      "start" : 125.460000,
      "word" : "carrière"
    }, {
      "conf" : 1.000000,
      "end" : 126.150000,
      "start" : 125.760000,
      "word" : "naissante"
    }, {
      "conf" : 0.960517,
      "end" : 126.210000,
      "start" : 126.150000,
      "word" : "et"
    }, {
      "conf" : 0.989204,
      "end" : 126.300000,
      "start" : 126.210000,
      "word" : "aux"
    }, {
      "conf" : 0.877977,
      "end" : 126.480000,
      "start" : 126.300000,
      "word" : "faux"
    }, {
      "conf" : 0.873217,
      "end" : 126.660000,
      "start" : 126.480000,
      "word" : "airs"
    }, {
      "conf" : 1.000000,
      "end" : 126.780000,
      "start" : 126.660000,
      "word" : "de"
    }, {
      "conf" : 0.744718,
      "end" : 127.050000,
      "start" : 126.780000,
      "word" : "janis"
    }, {
      "conf" : 1.000000,
      "end" : 127.500000,
      "start" : 127.050000,
      "word" : "joplin"
    }, {
      "conf" : 0.998629,
      "end" : 128.160000,
      "start" : 127.921948,
      "word" : "jude"
    }, {
      "conf" : 0.999547,
      "end" : 128.220000,
      "start" : 128.160000,
      "word" : "et"
    }, {
      "conf" : 0.999535,
      "end" : 128.640000,
      "start" : 128.220000,
      "word" : "lucy"
    }, {
      "conf" : 1.000000,
      "end" : 128.880000,
      "start" : 128.670000,
      "word" : "doivent"
    }, {
      "conf" : 1.000000,
      "end" : 129.150000,
      "start" : 128.880000,
      "word" : "jongler"
    }, {
      "conf" : 1.000000,
      "end" : 129.330000,
      "start" : 129.150000,
      "word" : "entre"
    }, {
      "conf" : 0.873649,
      "end" : 129.600000,
      "start" : 129.330000,
      "word" : "petits"
    }, {
      "conf" : 0.873649,
      "end" : 129.870000,
      "start" : 129.600000,
      "word" : "boulots"
    }, {
      "conf" : 0.531448,
      "end" : 130.680000,
      "start" : 129.870000,
      "word" : "manifestation"
    }, {
      "conf" : 0.963572,
      "end" : 131.190000,
      "start" : 130.680000,
      "word" : "aspirations"
    }, {
      "conf" : 0.959741,
      "end" : 131.610000,
      "start" : 131.190000,
      "word" : "artistiques"
    }, {
      "conf" : 0.995057,
      "end" : 131.782939,
      "start" : 131.610000,
      "word" : "pour"
    }, {
      "conf" : 0.631328,
      "end" : 131.850000,
      "start" : 131.790000,
      "word" : "elle"
    }, {
      "conf" : 0.815722,
      "end" : 131.998667,
      "start" : 131.855449,
      "word" : "un"
    }, {
      "conf" : 0.978628,
      "end" : 132.450000,
      "start" : 132.024346,
      "word" : "engagement"
    }, {
      "conf" : 0.971014,
      "end" : 132.840000,
      "start" : 132.450000,
      "word" : "politique"
    }, {
      "conf" : 1.000000,
      "end" : 133.020000,
      "start" : 132.840000,
      "word" : "pour"
    }, {
      "conf" : 0.943454,
      "end" : 133.080000,
      "start" : 133.020000,
      "word" : "l"
    }, {
      "conf" : 0.957533,
      "end" : 133.320000,
      "start" : 133.080000,
      "word" : "autre"
    }, {
      "conf" : 1.000000,
      "end" : 133.770000,
      "start" : 133.560000,
      "word" : "avec"
    }, {
      "conf" : 1.000000,
      "end" : 133.890000,
      "start" : 133.770000,
      "word" : "ce"
    }, {
      "conf" : 1.000000,
      "end" : 134.190000,
      "start" : 133.890000,
      "word" : "fossé"
    }, {
      "conf" : 0.999986,
      "end" : 134.280000,
      "start" : 134.190000,
      "word" : "qui"
    }, {
      "conf" : 1.000000,
      "end" : 134.430000,
      "start" : 134.280000,
      "word" : "se"
    }, {
      "conf" : 0.999736,
      "end" : 134.730000,
      "start" : 134.430000,
      "word" : "creuse"
    }, {
      "conf" : 0.999062,
      "end" : 135.030000,
      "start" : 134.760000,
      "word" : "encore"
    }, {
      "conf" : 0.827045,
      "end" : 135.180000,
      "start" : 135.030000,
      "word" : "si"
    }, {
      "conf" : 0.813101,
      "end" : 135.690000,
      "start" : 135.183560,
      "word" : "actuelle"
    }, {
      "conf" : 0.999556,
      "end" : 136.140000,
      "start" : 135.930000,
      "word" : "comment"
    }, {
      "conf" : 0.960911,
      "end" : 136.530000,
      "start" : 136.140000,
      "word" : "conseiller"
    }, {
      "conf" : 0.996663,
      "end" : 136.650000,
      "start" : 136.530000,
      "word" : "ses"
    }, {
      "conf" : 1.000000,
      "end" : 136.980000,
      "start" : 136.650000,
      "word" : "ambitions"
    }, {
      "conf" : 0.996277,
      "end" : 137.430000,
      "start" : 136.980000,
      "word" : "personnelles"
    }, {
      "conf" : 0.774792,
      "end" : 137.460000,
      "start" : 137.430000,
      "word" : "et"
    }, {
      "conf" : 1.000000,
      "end" : 137.580000,
      "start" : 137.460000,
      "word" : "la"
    }, {
      "conf" : 0.999819,
      "end" : 137.820000,
      "start" : 137.580000,
      "word" : "cause"
    }, {
      "conf" : 0.999951,
      "end" : 137.940000,
      "start" : 137.820000,
      "word" : "que"
    }, {
      "conf" : 0.999050,
      "end" : 138.420000,
      "start" : 138.030000,
      "word" : "défend"
    }, {
      "conf" : 1.000000,
      "end" : 138.930000,
      "start" : 138.690000,
      "word" : "combien"
    }, {
      "conf" : 1.000000,
      "end" : 139.020000,
      "start" : 138.930000,
      "word" : "de"
    }, {
      "conf" : 1.000000,
      "end" : 139.200000,
      "start" : 139.020000,
      "word" : "temps"
    }, {
      "conf" : 1.000000,
      "end" : 139.470000,
      "start" : 139.200000,
      "word" : "peut-on"
    }, {
      "conf" : 1.000000,
      "end" : 139.710000,
      "start" : 139.470000,
      "word" : "vivre"
    }, {
      "conf" : 0.988951,
      "end" : 139.740000,
      "start" : 139.710000,
      "word" : "en"
    }, {
      "conf" : 1.000000,
      "end" : 139.860000,
      "start" : 139.740000,
      "word" : "se"
    }, {
      "conf" : 1.000000,
      "end" : 140.130000,
      "start" : 139.860000,
      "word" : "coupant"
    }, {
      "conf" : 1.000000,
      "end" : 140.250000,
      "start" : 140.130000,
      "word" : "des"
    }, {
      "conf" : 0.999922,
      "end" : 140.610000,
      "start" : 140.250000,
      "word" : "réalités"
    }, {
      "conf" : 1.000000,
      "end" : 140.730000,
      "start" : 140.610000,
      "word" : "du"
    }, {
      "conf" : 1.000000,
      "end" : 141.000000,
      "start" : 140.730000,
      "word" : "monde"
    }, {
      "conf" : 1.000000,
      "end" : 141.270000,
      "start" : 141.060000,
      "word" : "avant"
    }, {
      "conf" : 0.970589,
      "end" : 141.420000,
      "start" : 141.270000,
      "word" : "qu'elle"
    }, {
      "conf" : 0.999802,
      "end" : 141.540000,
      "start" : 141.420000,
      "word" : "nous"
    }, {
      "conf" : 0.960089,
      "end" : 142.049180,
      "start" : 141.540000,
      "word" : "rattrape"
    }, {
      "conf" : 0.999043,
      "end" : 142.560000,
      "start" : 142.380000,
      "word" : "lui"
    }, {
      "conf" : 0.999615,
      "end" : 142.710000,
      "start" : 142.560278,
      "word" : "est"
    }, {
      "conf" : 1.000000,
      "end" : 143.100000,
      "start" : 142.710000,
      "word" : "anglais"
    }, {
      "conf" : 0.974097,
      "end" : 143.190000,
      "start" : 143.100000,
      "word" : "et"
    }, {
      "conf" : 0.250744,
      "end" : 143.490000,
      "start" : 143.190000,
      "word" : "s'empare"
    }],
  "text" : "intéressant une colloque tenu par une chanteuse à la carrière naissante et aux faux airs de janis joplin jude et lucy doivent jongler entre petits boulots manifestation aspirations artistiques pour elle un engagement politique pour l autre avec ce fossé qui se creuse encore si actuelle comment conseiller ses ambitions personnelles et la cause que défend combien de temps peut-on vivre en se coupant des réalités du monde avant qu'elle nous rattrape lui est anglais et s'empare"
},{
  "result" : [{
      "conf" : 0.492634,
      "end" : 143.638462,
      "start" : 143.520000,
      "word" : "fier"
    }, {
      "conf" : 1.000000,
      "end" : 143.670000,
      "start" : 143.638462,
      "word" : "aux"
    }, {
      "conf" : 0.517145,
      "end" : 144.270000,
      "start" : 143.670000,
      "word" : "états-unis"
    }, {
      "conf" : 1.000000,
      "end" : 144.720000,
      "start" : 144.570000,
      "word" : "elle"
    }, {
      "conf" : 1.000000,
      "end" : 144.810000,
      "start" : 144.720000,
      "word" : "est"
    }, {
      "conf" : 0.999339,
      "end" : 145.230000,
      "start" : 144.810000,
      "word" : "américaine"
    }, {
      "conf" : 0.561181,
      "end" : 145.290000,
      "start" : 145.230000,
      "word" : "et"
    }, {
      "conf" : 1.000000,
      "end" : 145.380000,
      "start" : 145.302539,
      "word" : "ne"
    }, {
      "conf" : 0.795966,
      "end" : 145.650000,
      "start" : 145.380000,
      "word" : "comprend"
    }, {
      "conf" : 1.000000,
      "end" : 145.770000,
      "start" : 145.650000,
      "word" : "pas"
    }, {
      "conf" : 1.000000,
      "end" : 145.980000,
      "start" : 145.770000,
      "word" : "comment"
    }, {
      "conf" : 0.982437,
      "end" : 146.070000,
      "start" : 145.980000,
      "word" : "il"
    }, {
      "conf" : 0.982437,
      "end" : 146.190000,
      "start" : 146.070000,
      "word" : "peut"
    }, {
      "conf" : 0.949025,
      "end" : 146.220000,
      "start" : 146.190000,
      "word" : "à"
    }, {
      "conf" : 0.965971,
      "end" : 146.340000,
      "start" : 146.220000,
      "word" : "ce"
    }, {
      "conf" : 0.968473,
      "end" : 146.490000,
      "start" : 146.340000,
      "word" : "point"
    }, {
      "conf" : 0.491864,
      "end" : 146.730000,
      "start" : 146.490000,
      "word" : "passer"
    }, {
      "conf" : 0.987247,
      "end" : 146.760000,
      "start" : 146.730000,
      "word" : "à"
    }, {
      "conf" : 0.916619,
      "end" : 146.970000,
      "start" : 146.760000,
      "word" : "côté"
    }, {
      "conf" : 1.000000,
      "end" : 147.060000,
      "start" : 146.970000,
      "word" : "de"
    }, {
      "conf" : 0.517748,
      "end" : 147.150000,
      "start" : 147.060000,
      "word" : "son"
    }, {
      "conf" : 1.000000,
      "end" : 147.510000,
      "start" : 147.150000,
      "word" : "combat"
    }, {
      "conf" : 1.000000,
      "end" : 147.690000,
      "start" : 147.570000,
      "word" : "mais"
    }, {
      "conf" : 1.000000,
      "end" : 147.900000,
      "start" : 147.690000,
      "word" : "cette"
    }, {
      "conf" : 1.000000,
      "end" : 148.200029,
      "start" : 147.900000,
      "word" : "guerre"
    }, {
      "conf" : 0.906141,
      "end" : 148.290000,
      "start" : 148.200029,
      "word" : "la"
    }, {
      "conf" : 0.575071,
      "end" : 148.680000,
      "start" : 148.290000,
      "word" : "concerne"
    }, {
      "conf" : 1.000000,
      "end" : 149.100000,
      "start" : 148.680000,
      "word" : "davantage"
    }, {
      "conf" : 1.000000,
      "end" : 149.220000,
      "start" : 149.100000,
      "word" : "que"
    }, {
      "conf" : 0.999468,
      "end" : 149.460000,
      "start" : 149.220000,
      "word" : "lui"
    }, {
      "conf" : 0.466424,
      "end" : 149.970000,
      "start" : 149.790000,
      "word" : "s'il"
    }, {
      "conf" : 0.505844,
      "end" : 150.270513,
      "start" : 149.970117,
      "word" : "s'engage"
    }, {
      "conf" : 0.916730,
      "end" : 150.330000,
      "start" : 150.270513,
      "word" : "en"
    }, {
      "conf" : 0.982093,
      "end" : 150.810000,
      "start" : 150.330015,
      "word" : "résistance"
    }, {
      "conf" : 0.559514,
      "end" : 150.870029,
      "start" : 150.810000,
      "word" : "il"
    }, {
      "conf" : 0.579036,
      "end" : 151.049839,
      "start" : 150.870029,
      "word" : "pourrait"
    }, {
      "conf" : 1.000000,
      "end" : 151.140000,
      "start" : 151.049839,
      "word" : "être"
    }, {
      "conf" : 0.419794,
      "end" : 151.559297,
      "start" : 151.140000,
      "word" : "arrêté"
    }, {
      "conf" : 0.426511,
      "end" : 152.220000,
      "start" : 151.620000,
      "word" : "expulsé"
    }, {
      "conf" : 0.998769,
      "end" : 152.430000,
      "start" : 152.340000,
      "word" : "et"
    }, {
      "conf" : 1.000000,
      "end" : 152.550000,
      "start" : 152.430000,
      "word" : "ne"
    }, {
      "conf" : 0.996750,
      "end" : 152.640000,
      "start" : 152.550000,
      "word" : "plus"
    }, {
      "conf" : 1.000000,
      "end" : 152.850000,
      "start" : 152.640000,
      "word" : "jamais"
    }, {
      "conf" : 0.952970,
      "end" : 152.940000,
      "start" : 152.850000,
      "word" : "la"
    }, {
      "conf" : 0.952970,
      "end" : 153.210000,
      "start" : 152.940000,
      "word" : "voir"
    }],
  "text" : "fier aux états-unis elle est américaine et ne comprend pas comment il peut à ce point passer à côté de son combat mais cette guerre la concerne davantage que lui s'il s'engage en résistance il pourrait être arrêté expulsé et ne plus jamais la voir"
},{
  "result" : [{
      "conf" : 0.559511,
      "end" : 155.130791,
      "start" : 154.919766,
      "word" : "chez"
    }, {
      "conf" : 0.398981,
      "end" : 155.370000,
      "start" : 155.160000,
      "word" : "qui"
    }],
  "text" : "chez qui"
},{
  "result" : [{
      "conf" : 0.928512,
      "end" : 156.870000,
      "start" : 156.540000,
      "word" : "durant"
    }, {
      "conf" : 0.609828,
      "end" : 156.960000,
      "start" : 156.870000,
      "word" : "ces"
    }, {
      "conf" : 0.727473,
      "end" : 157.589824,
      "start" : 156.990000,
      "word" : "égratignures"
    }],
  "text" : "durant ces égratignures"
},{
  "result" : [{
      "conf" : 0.612799,
      "end" : 161.340000,
      "start" : 161.099985,
      "word" : "star"
    }, {
      "conf" : 0.560234,
      "end" : 162.411211,
      "start" : 162.089868,
      "word" : "light"
    }],
  "text" : "star light"
},{
  "result" : [{
      "conf" : 0.343921,
      "end" : 164.628442,
      "start" : 164.454814,
      "word" : "ouais"
    }],
  "text" : "ouais"
},{
  "result" : [{
      "conf" : 0.919123,
      "end" : 166.541938,
      "start" : 166.333931,
      "word" : "oui"
    }],
  "text" : "oui"
},{
  "result" : [{
      "conf" : 0.271605,
      "end" : 172.799912,
      "start" : 172.560000,
      "word" : "six"
    }],
  "text" : "six"
},{
  "result" : [{
      "conf" : 0.276895,
      "end" : 175.079795,
      "start" : 174.750000,
      "word" : "si"
    }],
  "text" : "si"
},{
  "result" : [{
      "conf" : 0.998174,
      "end" : 181.619985,
      "start" : 181.530000,
      "word" : "on"
    }, {
      "conf" : 0.989046,
      "end" : 181.769868,
      "start" : 181.619985,
      "word" : "veut"
    }, {
      "conf" : 0.999999,
      "end" : 182.010000,
      "start" : 181.769868,
      "word" : "tous"
    }, {
      "conf" : 0.997983,
      "end" : 182.250000,
      "start" : 182.010000,
      "word" : "changer"
    }, {
      "conf" : 1.000000,
      "end" : 182.340000,
      "start" : 182.250000,
      "word" : "le"
    }, {
      "conf" : 1.000000,
      "end" : 182.580000,
      "start" : 182.340000,
      "word" : "monde"
    }, {
      "conf" : 0.974660,
      "end" : 182.940000,
      "start" : 182.850000,
      "word" : "et"
    }, {
      "conf" : 1.000000,
      "end" : 183.209648,
      "start" : 182.940000,
      "word" : "peut-être"
    }, {
      "conf" : 1.000000,
      "end" : 183.319570,
      "start" : 183.210352,
      "word" : "que"
    }, {
      "conf" : 0.648248,
      "end" : 183.450000,
      "start" : 183.330000,
      "word" : "l'une"
    }, {
      "conf" : 1.000000,
      "end" : 183.540000,
      "start" : 183.450000,
      "word" : "des"
    }, {
      "conf" : 0.882140,
      "end" : 183.930000,
      "start" : 183.540000,
      "word" : "solutions"
    }, {
      "conf" : 0.882629,
      "end" : 183.990000,
      "start" : 183.930000,
      "word" : "à"
    }, {
      "conf" : 0.898200,
      "end" : 184.170000,
      "start" : 183.990688,
      "word" : "ça"
    }, {
      "conf" : 0.668312,
      "end" : 184.313584,
      "start" : 184.170000,
      "word" : "c'est"
    }, {
      "conf" : 0.998276,
      "end" : 184.410000,
      "start" : 184.319414,
      "word" : "la"
    }, {
      "conf" : 0.999500,
      "end" : 184.710000,
      "start" : 184.410000,
      "word" : "musique"
    }, {
      "conf" : 0.624382,
      "end" : 184.830000,
      "start" : 184.710015,
      "word" : "du"
    }, {
      "conf" : 0.522365,
      "end" : 185.280000,
      "start" : 184.950000,
      "word" : "designer"
    }, {
      "conf" : 0.809701,
      "end" : 185.490000,
      "start" : 185.280000,
      "word" : "rock"
    }, {
      "conf" : 0.997272,
      "end" : 185.580000,
      "start" : 185.490000,
      "word" : "les"
    }, {
      "conf" : 1.000000,
      "end" : 185.700000,
      "start" : 185.580000,
      "word" : "plus"
    }, {
      "conf" : 0.558979,
      "end" : 186.247017,
      "start" : 185.700000,
      "word" : "enthousiasmante"
    }, {
      "conf" : 0.998204,
      "end" : 186.329941,
      "start" : 186.247017,
      "word" : "de"
    }, {
      "conf" : 1.000000,
      "end" : 186.390000,
      "start" : 186.330000,
      "word" : "l"
    }, {
      "conf" : 0.999551,
      "end" : 186.869604,
      "start" : 186.390000,
      "word" : "histoire"
    }, {
      "conf" : 0.698549,
      "end" : 186.930000,
      "start" : 186.870000,
      "word" : "c"
    }, {
      "conf" : 0.735093,
      "end" : 186.989180,
      "start" : 186.932212,
      "word" : "est"
    }, {
      "conf" : 1.000000,
      "end" : 187.080000,
      "start" : 186.989180,
      "word" : "la"
    }, {
      "conf" : 1.000000,
      "end" : 187.560000,
      "start" : 187.080000,
      "word" : "peinture"
    }, {
      "conf" : 0.605647,
      "end" : 187.677935,
      "start" : 187.620937,
      "word" : "et"
    }, {
      "conf" : 1.000000,
      "end" : 187.770000,
      "start" : 187.677935,
      "word" : "le"
    }, {
      "conf" : 0.995500,
      "end" : 188.130000,
      "start" : 187.770000,
      "word" : "théâtre"
    }, {
      "conf" : 1.000000,
      "end" : 188.430000,
      "start" : 188.160000,
      "word" : "bref"
    }, {
      "conf" : 0.983393,
      "end" : 188.610000,
      "start" : 188.430000,
      "word" : "c'est"
    }, {
      "conf" : 1.000000,
      "end" : 188.910000,
      "start" : 188.610000,
      "word" : "l'art"
    }, {
      "conf" : 1.000000,
      "end" : 189.060000,
      "start" : 188.910000,
      "word" : "sous"
    }, {
      "conf" : 1.000000,
      "end" : 189.210000,
      "start" : 189.060000,
      "word" : "toutes"
    }, {
      "conf" : 1.000000,
      "end" : 189.360000,
      "start" : 189.210000,
      "word" : "ses"
    }, {
      "conf" : 1.000000,
      "end" : 189.600015,
      "start" : 189.360000,
      "word" : "formes"
    }, {
      "conf" : 0.996008,
      "end" : 189.660000,
      "start" : 189.600015,
      "word" : "et"
    }, {
      "conf" : 0.991429,
      "end" : 189.750000,
      "start" : 189.660000,
      "word" : "ses"
    }, {
      "conf" : 0.981246,
      "end" : 190.290000,
      "start" : 189.750000,
      "word" : "expressions"
    }, {
      "conf" : 0.968016,
      "end" : 190.680000,
      "start" : 190.620000,
      "word" : "et"
    }, {
      "conf" : 0.502029,
      "end" : 190.787065,
      "start" : 190.680000,
      "word" : "c'est"
    }, {
      "conf" : 0.923668,
      "end" : 190.980000,
      "start" : 190.787065,
      "word" : "cette"
    }, {
      "conf" : 0.999690,
      "end" : 191.249985,
      "start" : 191.040000,
      "word" : "ode"
    }, {
      "conf" : 1.000000,
      "end" : 191.310000,
      "start" : 191.249985,
      "word" : "à"
    }, {
      "conf" : 1.000000,
      "end" : 191.400000,
      "start" : 191.310000,
      "word" : "la"
    }, {
      "conf" : 1.000000,
      "end" : 191.760425,
      "start" : 191.400000,
      "word" : "poésie"
    }, {
      "conf" : 0.825094,
      "end" : 191.850000,
      "start" : 191.760425,
      "word" : "qui"
    }, {
      "conf" : 0.568805,
      "end" : 192.150000,
      "start" : 191.850000,
      "word" : "exprime"
    }, {
      "conf" : 1.000000,
      "end" : 192.240000,
      "start" : 192.150000,
      "word" : "le"
    }, {
      "conf" : 0.953453,
      "end" : 192.480000,
      "start" : 192.240000,
      "word" : "film"
    }, {
      "conf" : 1.000000,
      "end" : 192.600000,
      "start" : 192.480000,
      "word" : "tout"
    }, {
      "conf" : 1.000000,
      "end" : 192.690000,
      "start" : 192.600000,
      "word" : "au"
    }, {
      "conf" : 1.000000,
      "end" : 192.780000,
      "start" : 192.690000,
      "word" : "long"
    }, {
      "conf" : 1.000000,
      "end" : 192.870000,
      "start" : 192.780000,
      "word" : "de"
    }, {
      "conf" : 0.960889,
      "end" : 192.960000,
      "start" : 192.870000,
      "word" : "ces"
    }, {
      "conf" : 1.000000,
      "end" : 193.110000,
      "start" : 192.960000,
      "word" : "deux"
    }, {
      "conf" : 1.000000,
      "end" : 193.260000,
      "start" : 193.110000,
      "word" : "heures"
    }, {
      "conf" : 1.000000,
      "end" : 193.350000,
      "start" : 193.260000,
      "word" : "de"
    }, {
      "conf" : 0.955377,
      "end" : 193.708696,
      "start" : 193.350000,
      "word" : "voyage"
    }, {
      "conf" : 0.626358,
      "end" : 193.798081,
      "start" : 193.719639,
      "word" : "une"
    }, {
      "conf" : 0.994698,
      "end" : 194.160000,
      "start" : 193.798081,
      "word" : "liberté"
    }, {
      "conf" : 0.902846,
      "end" : 194.550000,
      "start" : 194.160000,
      "word" : "créative"
    }, {
      "conf" : 0.566775,
      "end" : 195.180000,
      "start" : 194.550000,
      "word" : "surprenante"
    }, {
      "conf" : 1.000000,
      "end" : 195.540000,
      "start" : 195.450000,
      "word" : "les"
    }, {
      "conf" : 1.000000,
      "end" : 195.720000,
      "start" : 195.540000,
      "word" : "tubes"
    }, {
      "conf" : 1.000000,
      "end" : 196.110000,
      "start" : 195.720000,
      "word" : "s'enchaînent"
    }, {
      "conf" : 0.999008,
      "end" : 196.140000,
      "start" : 196.110000,
      "word" : "à"
    }, {
      "conf" : 0.995185,
      "end" : 196.319941,
      "start" : 196.140000,
      "word" : "toute"
    }, {
      "conf" : 1.000000,
      "end" : 196.650000,
      "start" : 196.319941,
      "word" : "allure"
    }, {
      "conf" : 1.000000,
      "end" : 196.860029,
      "start" : 196.650000,
      "word" : "autant"
    }, {
      "conf" : 0.997535,
      "end" : 196.949956,
      "start" : 196.860029,
      "word" : "que"
    }, {
      "conf" : 1.000000,
      "end" : 197.010000,
      "start" : 196.949956,
      "word" : "les"
    }, {
      "conf" : 1.000000,
      "end" : 197.220000,
      "start" : 197.010000,
      "word" : "idées"
    }, {
      "conf" : 0.902179,
      "end" : 197.640000,
      "start" : 197.220000,
      "word" : "visuelles"
    }, {
      "conf" : 0.813110,
      "end" : 197.699985,
      "start" : 197.640000,
      "word" : "en"
    }, {
      "conf" : 0.693898,
      "end" : 198.000000,
      "start" : 197.699985,
      "word" : "perpétue"
    }],
  "text" : "on veut tous changer le monde et peut-être que l'une des solutions à ça c'est la musique du designer rock les plus enthousiasmante de l histoire c est la peinture et le théâtre bref c'est l'art sous toutes ses formes et ses expressions et c'est cette ode à la poésie qui exprime le film tout au long de ces deux heures de voyage une liberté créative surprenante les tubes s'enchaînent à toute allure autant que les idées visuelles en perpétue"
},{
  "result" : [{
      "conf" : 0.922709,
      "end" : 198.179648,
      "start" : 198.099873,
      "word" : "le"
    }, {
      "conf" : 1.000000,
      "end" : 198.630000,
      "start" : 198.179648,
      "word" : "renouvellement"
    }, {
      "conf" : 0.999847,
      "end" : 198.720000,
      "start" : 198.630000,
      "word" : "de"
    }, {
      "conf" : 0.947024,
      "end" : 198.960015,
      "start" : 198.720000,
      "word" : "formes"
    }, {
      "conf" : 0.996968,
      "end" : 199.019971,
      "start" : 198.960015,
      "word" : "et"
    }, {
      "conf" : 0.999719,
      "end" : 199.110000,
      "start" : 199.019971,
      "word" : "de"
    }, {
      "conf" : 0.924210,
      "end" : 199.470000,
      "start" : 199.110000,
      "word" : "styles"
    }, {
      "conf" : 1.000000,
      "end" : 199.800000,
      "start" : 199.740000,
      "word" : "on"
    }, {
      "conf" : 0.830479,
      "end" : 199.920000,
      "start" : 199.800000,
      "word" : "peut"
    }, {
      "conf" : 0.999102,
      "end" : 200.134687,
      "start" : 199.920000,
      "word" : "passer"
    }, {
      "conf" : 0.541167,
      "end" : 200.279604,
      "start" : 200.134687,
      "word" : "d'un"
    }, {
      "conf" : 0.993633,
      "end" : 200.730015,
      "start" : 200.280000,
      "word" : "enrôlement"
    }, {
      "conf" : 0.993999,
      "end" : 200.789985,
      "start" : 200.730015,
      "word" : "de"
    }, {
      "conf" : 0.996810,
      "end" : 201.180000,
      "start" : 200.789985,
      "word" : "soldats"
    }, {
      "conf" : 0.537066,
      "end" : 201.270000,
      "start" : 201.180000,
      "word" : "aux"
    }, {
      "conf" : 0.285202,
      "end" : 201.600000,
      "start" : 201.270000,
      "word" : "soldats"
    }, {
      "conf" : 0.334173,
      "end" : 201.810000,
      "start" : 201.601538,
      "word" : "iront"
    }, {
      "conf" : 0.871827,
      "end" : 202.198535,
      "start" : 201.826816,
      "word" : "dessus"
    }, {
      "conf" : 1.000000,
      "end" : 202.590000,
      "start" : 202.410000,
      "word" : "par"
    }, {
      "conf" : 0.976247,
      "end" : 202.649956,
      "start" : 202.590000,
      "word" : "un"
    }, {
      "conf" : 0.982053,
      "end" : 202.859590,
      "start" : 202.649956,
      "word" : "oncle"
    }, {
      "conf" : 0.720918,
      "end" : 203.040000,
      "start" : 202.860000,
      "word" : "sam"
    }, {
      "conf" : 0.601938,
      "end" : 203.099956,
      "start" : 203.040000,
      "word" : "en"
    }, {
      "conf" : 0.464241,
      "end" : 203.580000,
      "start" : 203.099956,
      "word" : "marionnettes"
    }, {
      "conf" : 0.952170,
      "end" : 203.970000,
      "start" : 203.869966,
      "word" : "un"
    }, {
      "conf" : 0.997508,
      "end" : 204.270000,
      "start" : 203.971406,
      "word" : "voyage"
    }, {
      "conf" : 1.000000,
      "end" : 204.330000,
      "start" : 204.270000,
      "word" : "en"
    }, {
      "conf" : 1.000000,
      "end" : 204.570000,
      "start" : 204.330000,
      "word" : "bus"
    }, {
      "conf" : 0.699027,
      "end" : 205.050000,
      "start" : 204.570000,
      "word" : "magique"
    }, {
      "conf" : 0.663575,
      "end" : 205.410000,
      "start" : 205.110000,
      "word" : "conduit"
    }, {
      "conf" : 0.996299,
      "end" : 205.650000,
      "start" : 205.410000,
      "word" : "par"
    }, {
      "conf" : 0.665154,
      "end" : 206.160000,
      "start" : 205.680000,
      "word" : "bono"
    }, {
      "conf" : 0.591617,
      "end" : 206.430000,
      "start" : 206.250615,
      "word" : "ouais"
    }, {
      "conf" : 0.997298,
      "end" : 207.030000,
      "start" : 206.820000,
      "word" : "sans"
    }, {
      "conf" : 1.000000,
      "end" : 207.330000,
      "start" : 207.030000,
      "word" : "jamais"
    }, {
      "conf" : 0.534375,
      "end" : 207.590830,
      "start" : 207.330000,
      "word" : "perdre"
    }, {
      "conf" : 0.983983,
      "end" : 207.720000,
      "start" : 207.590830,
      "word" : "de"
    }, {
      "conf" : 0.819053,
      "end" : 207.870000,
      "start" : 207.720000,
      "word" : "vue"
    }, {
      "conf" : 0.997298,
      "end" : 207.990000,
      "start" : 207.870000,
      "word" : "la"
    }, {
      "conf" : 1.000000,
      "end" : 208.470000,
      "start" : 207.990000,
      "word" : "romance"
    }, {
      "conf" : 0.766885,
      "end" : 208.800000,
      "start" : 208.560000,
      "word" : "celle"
    }, {
      "conf" : 1.000000,
      "end" : 208.949897,
      "start" : 208.800000,
      "word" : "qui"
    }, {
      "conf" : 0.596577,
      "end" : 209.040000,
      "start" : 208.950000,
      "word" : "lie"
    }, {
      "conf" : 1.000000,
      "end" : 209.220000,
      "start" : 209.040059,
      "word" : "toutes"
    }, {
      "conf" : 1.000000,
      "end" : 209.310000,
      "start" : 209.220000,
      "word" : "les"
    }, {
      "conf" : 1.000000,
      "end" : 209.580000,
      "start" : 209.310000,
      "word" : "chansons"
    }, {
      "conf" : 1.000000,
      "end" : 209.670000,
      "start" : 209.580000,
      "word" : "des"
    }, {
      "conf" : 1.000000,
      "end" : 210.119956,
      "start" : 209.670000,
      "word" : "beatles"
    }, {
      "conf" : 0.753454,
      "end" : 210.809751,
      "start" : 210.510000,
      "word" : "crazy"
    }, {
      "conf" : 0.992365,
      "end" : 211.230000,
      "start" : 210.809751,
      "word" : "universe"
    }, {
      "conf" : 0.923023,
      "end" : 211.350000,
      "start" : 211.230015,
      "word" : "donne"
    }, {
      "conf" : 1.000000,
      "end" : 211.500000,
      "start" : 211.350000,
      "word" : "envie"
    }, {
      "conf" : 1.000000,
      "end" : 211.560000,
      "start" : 211.500000,
      "word" : "de"
    }, {
      "conf" : 1.000000,
      "end" : 211.935381,
      "start" : 211.560000,
      "word" : "chanter"
    }, {
      "conf" : 1.000000,
      "end" : 212.040000,
      "start" : 211.950000,
      "word" : "de"
    }, {
      "conf" : 0.988239,
      "end" : 212.430000,
      "start" : 212.040000,
      "word" : "créer"
    }, {
      "conf" : 0.979737,
      "end" : 212.550000,
      "start" : 212.435801,
      "word" : "de"
    }, {
      "conf" : 0.997695,
      "end" : 213.150000,
      "start" : 212.550000,
      "word" : "s'émerveiller"
    }, {
      "conf" : 1.000000,
      "end" : 213.570000,
      "start" : 213.420000,
      "word" : "mais"
    }, {
      "conf" : 1.000000,
      "end" : 213.870000,
      "start" : 213.600000,
      "word" : "aussi"
    }, {
      "conf" : 0.994040,
      "end" : 214.075195,
      "start" : 213.870000,
      "word" : "parce"
    }, {
      "conf" : 0.774431,
      "end" : 214.170000,
      "start" : 214.080000,
      "word" : "qu'il"
    }, {
      "conf" : 0.984726,
      "end" : 214.440000,
      "start" : 214.175127,
      "word" : "défend"
    }, {
      "conf" : 1.000000,
      "end" : 214.620000,
      "start" : 214.440000,
      "word" : "avec"
    }, {
      "conf" : 0.998864,
      "end" : 214.919927,
      "start" : 214.620000,
      "word" : "force"
    }, {
      "conf" : 0.780011,
      "end" : 215.369985,
      "start" : 214.920103,
      "word" : "mantra"
    }, {
      "conf" : 0.982230,
      "end" : 215.492065,
      "start" : 215.370000,
      "word" : "ce"
    }, {
      "conf" : 0.787271,
      "end" : 215.550000,
      "start" : 215.492065,
      "word" : "n"
    }, {
      "conf" : 0.787271,
      "end" : 215.610000,
      "start" : 215.550000,
      "word" : "est"
    }, {
      "conf" : 1.000000,
      "end" : 215.730000,
      "start" : 215.610000,
      "word" : "pas"
    }, {
      "conf" : 0.986169,
      "end" : 215.820000,
      "start" : 215.730000,
      "word" : "ce"
    }, {
      "conf" : 1.000000,
      "end" : 215.880000,
      "start" : 215.820000,
      "word" : "que"
    }, {
      "conf" : 1.000000,
      "end" : 216.030000,
      "start" : 215.880000,
      "word" : "tu"
    }, {
      "conf" : 0.946163,
      "end" : 216.299868,
      "start" : 216.030000,
      "word" : "fais"
    }, {
      "conf" : 1.000000,
      "end" : 216.420000,
      "start" : 216.300132,
      "word" : "qui"
    }, {
      "conf" : 0.494277,
      "end" : 216.740288,
      "start" : 216.420000,
      "word" : "définissent"
    }, {
      "conf" : 0.910405,
      "end" : 216.808579,
      "start" : 216.740288,
      "word" : "ce"
    }, {
      "conf" : 1.000000,
      "end" : 216.870000,
      "start" : 216.808579,
      "word" : "que"
    }, {
      "conf" : 0.999969,
      "end" : 217.020000,
      "start" : 216.870000,
      "word" : "tu"
    }, {
      "conf" : 0.976801,
      "end" : 217.170000,
      "start" : 217.020000,
      "word" : "es"
    }, {
      "conf" : 0.969105,
      "end" : 217.530000,
      "start" : 217.440000,
      "word" : "mais"
    }, {
      "conf" : 0.977853,
      "end" : 217.620000,
      "start" : 217.530000,
      "word" : "ce"
    }, {
      "conf" : 0.999134,
      "end" : 217.680000,
      "start" : 217.620000,
      "word" : "que"
    }, {
      "conf" : 1.000000,
      "end" : 217.860000,
      "start" : 217.680000,
      "word" : "tu"
    }, {
      "conf" : 0.965270,
      "end" : 218.070000,
      "start" : 217.890000,
      "word" : "es"
    }],
  "text" : "le renouvellement de formes et de styles on peut passer d'un enrôlement de soldats aux soldats iront dessus par un oncle sam en marionnettes un voyage en bus magique conduit par bono ouais sans jamais perdre de vue la romance celle qui lie toutes les chansons des beatles crazy universe donne envie de chanter de créer de s'émerveiller mais aussi parce qu'il défend avec force mantra ce n est pas ce que tu fais qui définissent ce que tu es mais ce que tu es"
},{
  "result" : [{
      "conf" : 0.969233,
      "end" : 218.250000,
      "start" : 218.160000,
      "word" : "qui"
    }, {
      "conf" : 0.579836,
      "end" : 218.550000,
      "start" : 218.250000,
      "word" : "définit"
    }, {
      "conf" : 0.747036,
      "end" : 218.636499,
      "start" : 218.556328,
      "word" : "ce"
    }, {
      "conf" : 1.000000,
      "end" : 218.730000,
      "start" : 218.636499,
      "word" : "que"
    }, {
      "conf" : 1.000000,
      "end" : 218.850000,
      "start" : 218.730000,
      "word" : "tu"
    }, {
      "conf" : 0.948976,
      "end" : 219.120000,
      "start" : 218.850000,
      "word" : "fais"
    }, {
      "conf" : 0.801518,
      "end" : 219.660000,
      "start" : 219.390000,
      "word" : "peut-être"
    }, {
      "conf" : 0.400926,
      "end" : 219.750000,
      "start" : 219.720000,
      "word" : "à"
    }, {
      "conf" : 0.972061,
      "end" : 219.870000,
      "start" : 219.750161,
      "word" : "se"
    }, {
      "conf" : 0.929251,
      "end" : 220.140000,
      "start" : 219.870000,
      "word" : "poser"
    }, {
      "conf" : 1.000000,
      "end" : 220.290000,
      "start" : 220.140000,
      "word" : "avant"
    }, {
      "conf" : 1.000000,
      "end" : 220.410000,
      "start" : 220.290000,
      "word" : "tout"
    }, {
      "conf" : 1.000000,
      "end" : 220.530000,
      "start" : 220.410000,
      "word" : "la"
    }, {
      "conf" : 1.000000,
      "end" : 220.830000,
      "start" : 220.530000,
      "word" : "question"
    }, {
      "conf" : 1.000000,
      "end" : 220.950000,
      "start" : 220.830000,
      "word" : "de"
    }, {
      "conf" : 1.000000,
      "end" : 221.130000,
      "start" : 220.950000,
      "word" : "qui"
    }, {
      "conf" : 0.999690,
      "end" : 221.249971,
      "start" : 221.130000,
      "word" : "on"
    }, {
      "conf" : 0.989866,
      "end" : 221.460000,
      "start" : 221.250000,
      "word" : "est"
    }, {
      "conf" : 1.000000,
      "end" : 221.790000,
      "start" : 221.550000,
      "word" : "on"
    }, {
      "conf" : 0.998537,
      "end" : 222.360000,
      "start" : 221.850000,
      "word" : "fera"
    }, {
      "conf" : 1.000000,
      "end" : 222.720000,
      "start" : 222.450000,
      "word" : "bien"
    }, {
      "conf" : 0.999683,
      "end" : 222.960000,
      "start" : 222.720000,
      "word" : "mieux"
    }, {
      "conf" : 0.991908,
      "end" : 223.500000,
      "start" : 223.410000,
      "word" : "et"
    }, {
      "conf" : 1.000000,
      "end" : 223.590000,
      "start" : 223.500000,
      "word" : "du"
    }, {
      "conf" : 0.944088,
      "end" : 223.740000,
      "start" : 223.590000,
      "word" : "coup"
    }, {
      "conf" : 1.000000,
      "end" : 224.040000,
      "start" : 223.800000,
      "word" : "esprit"
    }, {
      "conf" : 1.000000,
      "end" : 224.100000,
      "start" : 224.040000,
      "word" : "de"
    }, {
      "conf" : 1.000000,
      "end" : 224.490000,
      "start" : 224.100000,
      "word" : "contradiction"
    }, {
      "conf" : 0.997472,
      "end" : 224.730000,
      "start" : 224.490000,
      "word" : "oblige"
    }, {
      "conf" : 1.000000,
      "end" : 225.059927,
      "start" : 224.730000,
      "word" : "aujourd'hui"
    }, {
      "conf" : 1.000000,
      "end" : 225.150000,
      "start" : 225.060000,
      "word" : "je"
    }, {
      "conf" : 1.000000,
      "end" : 225.540000,
      "start" : 225.150000,
      "word" : "terminerai"
    }, {
      "conf" : 1.000000,
      "end" : 225.570000,
      "start" : 225.540000,
      "word" : "en"
    }, {
      "conf" : 1.000000,
      "end" : 225.720000,
      "start" : 225.570000,
      "word" : "me"
    }, {
      "conf" : 1.000000,
      "end" : 225.960000,
      "start" : 225.720000,
      "word" : "prenant"
    }, {
      "conf" : 1.000000,
      "end" : 226.110000,
      "start" : 225.960000,
      "word" : "pour"
    }, {
      "conf" : 0.761762,
      "end" : 226.199883,
      "start" : 226.110000,
      "word" : "ce"
    }, {
      "conf" : 1.000000,
      "end" : 226.260000,
      "start" : 226.199883,
      "word" : "que"
    }, {
      "conf" : 1.000000,
      "end" : 226.350000,
      "start" : 226.260000,
      "word" : "je"
    }, {
      "conf" : 1.000000,
      "end" : 226.440000,
      "start" : 226.350000,
      "word" : "ne"
    }, {
      "conf" : 1.000000,
      "end" : 226.530000,
      "start" : 226.440000,
      "word" : "suis"
    }, {
      "conf" : 0.998288,
      "end" : 226.709326,
      "start" : 226.530000,
      "word" : "pas"
    }, {
      "conf" : 0.493927,
      "end" : 226.860000,
      "start" : 226.829194,
      "word" : "à"
    }, {
      "conf" : 0.612035,
      "end" : 227.010000,
      "start" : 226.860073,
      "word" : "dire"
    }, {
      "conf" : 1.000000,
      "end" : 227.070000,
      "start" : 227.010059,
      "word" : "un"
    }, {
      "conf" : 0.974023,
      "end" : 227.490000,
      "start" : 227.070000,
      "word" : "chroniqueur"
    }, {
      "conf" : 0.838845,
      "end" : 227.790000,
      "start" : 227.490000,
      "word" : "musique"
    }, {
      "conf" : 0.999148,
      "end" : 227.880000,
      "start" : 227.790000,
      "word" : "de"
    }, {
      "conf" : 0.893449,
      "end" : 227.970000,
      "start" : 227.880000,
      "word" : "la"
    }, {
      "conf" : 0.893449,
      "end" : 228.300000,
      "start" : 227.970000,
      "word" : "mission"
    }],
  "text" : "qui définit ce que tu fais peut-être à se poser avant tout la question de qui on est on fera bien mieux et du coup esprit de contradiction oblige aujourd'hui je terminerai en me prenant pour ce que je ne suis pas à dire un chroniqueur musique de la mission"
},{
  "result" : [{
      "conf" : 0.502338,
      "end" : 229.200000,
      "start" : 228.960000,
      "word" : "nous"
    }, {
      "conf" : 1.000000,
      "end" : 229.500000,
      "start" : 229.290000,
      "word" : "vous"
    }, {
      "conf" : 0.573724,
      "end" : 229.800000,
      "start" : 229.500000,
      "word" : "laissons"
    }, {
      "conf" : 1.000000,
      "end" : 229.950000,
      "start" : 229.800000,
      "word" : "avec"
    }, {
      "conf" : 1.000000,
      "end" : 230.070000,
      "start" : 229.950000,
      "word" : "une"
    }, {
      "conf" : 1.000000,
      "end" : 230.160000,
      "start" : 230.070000,
      "word" : "des"
    }, {
      "conf" : 1.000000,
      "end" : 230.280000,
      "start" : 230.160000,
      "word" : "plus"
    }, {
      "conf" : 0.512527,
      "end" : 230.430000,
      "start" : 230.280000,
      "word" : "belle"
    }, {
      "conf" : 0.721879,
      "end" : 230.730000,
      "start" : 230.430000,
      "word" : "reprise"
    }, {
      "conf" : 1.000000,
      "end" : 230.820000,
      "start" : 230.730000,
      "word" : "du"
    }, {
      "conf" : 1.000000,
      "end" : 231.120000,
      "start" : 230.820000,
      "word" : "film"
    }, {
      "conf" : 0.196348,
      "end" : 231.360000,
      "start" : 231.180000,
      "word" : "let"
    }, {
      "conf" : 0.662799,
      "end" : 231.750000,
      "start" : 231.539531,
      "word" : "b"
    }, {
      "conf" : 0.520894,
      "end" : 231.960000,
      "start" : 231.840000,
      "word" : "and"
    }, {
      "conf" : 1.000000,
      "end" : 232.440000,
      "start" : 231.960000,
      "word" : "gospel"
    }],
  "text" : "nous vous laissons avec une des plus belle reprise du film let b and gospel"
},{
  "result" : [{
      "conf" : 0.485678,
      "end" : 233.844214,
      "start" : 233.610000,
      "word" : "oui"
    }, {
      "conf" : 0.624113,
      "end" : 234.629150,
      "start" : 234.150000,
      "word" : "pas"
    }, {
      "conf" : 0.560976,
      "end" : 235.446035,
      "start" : 234.990190,
      "word" : "ça"
    }, {
      "conf" : 0.643445,
      "end" : 236.706460,
      "start" : 236.049434,
      "word" : "ça"
    }],
  "text" : "oui pas ça ça"
},{
  "result" : [{
      "conf" : 0.416978,
      "end" : 239.152866,
      "start" : 238.696333,
      "word" : "nan"
    }, {
      "conf" : 0.969213,
      "end" : 240.086777,
      "start" : 239.219854,
      "word" : "mais"
    }, {
      "conf" : 0.891735,
      "end" : 240.359531,
      "start" : 240.090000,
      "word" : "oui"
    }, {
      "conf" : 0.626535,
      "end" : 240.779722,
      "start" : 240.363662,
      "word" : "quand"
    }, {
      "conf" : 0.440704,
      "end" : 242.070000,
      "start" : 240.965244,
      "word" : "mai"
    }],
  "text" : "nan mais oui quand mai"
},{
  "result" : [{
      "conf" : 0.420207,
      "end" : 243.539751,
      "start" : 243.150000,
      "word" : "spy"
    }, {
      "conf" : 0.774594,
      "end" : 244.050000,
      "start" : 243.547852,
      "word" : "qui"
    }],
  "text" : "spy qui"
},{
  "result" : [{
      "conf" : 0.614903,
      "end" : 247.680000,
      "start" : 247.380000,
      "word" : "la"
    }, {
      "conf" : 0.182221,
      "end" : 249.630000,
      "start" : 247.884609,
      "word" : "bi"
    }],
  "text" : "la bi"
},{
  "result" : [{
      "conf" : 0.524658,
      "end" : 253.769941,
      "start" : 252.895459,
      "word" : "ma"
    }, {
      "conf" : 0.243689,
      "end" : 254.910000,
      "start" : 254.580000,
      "word" : "team"
    }],
  "text" : "ma team"
},{
  "result" : [{
      "conf" : 0.552464,
      "end" : 256.568408,
      "start" : 256.050000,
      "word" : "chii"
    }, {
      "conf" : 0.640446,
      "end" : 257.280000,
      "start" : 256.568408,
      "word" : "stanley"
    }],
  "text" : "chii stanley"
},{
  "result" : [{
      "conf" : 0.432071,
      "end" : 259.707803,
      "start" : 259.409883,
      "word" : "fin"
    }, {
      "conf" : 0.287259,
      "end" : 260.160000,
      "start" : 259.710000,
      "word" : "l'ami"
    }],
  "text" : "fin l'ami"
},{
  "result" : [{
      "conf" : 0.469607,
      "end" : 260.880000,
      "start" : 260.190000,
      "word" : "i"
    }, {
      "conf" : 0.278745,
      "end" : 261.989795,
      "start" : 261.570000,
      "word" : "spy"
    }, {
      "conf" : 0.526542,
      "end" : 262.560000,
      "start" : 262.009717,
      "word" : "qui"
    }],
  "text" : "i spy qui"
},{
  "result" : [{
      "conf" : 0.583708,
      "end" : 266.280000,
      "start" : 265.980000,
      "word" : "la"
    }, {
      "conf" : 0.488686,
      "end" : 267.529570,
      "start" : 266.280000,
      "word" : "libye"
    }],
  "text" : "la libye"
},{
  "result" : [{
      "conf" : 0.347790,
      "end" : 270.241172,
      "start" : 269.850000,
      "word" : "les"
    }, {
      "conf" : 0.306279,
      "end" : 271.170000,
      "start" : 270.483926,
      "word" : "by"
    }],
  "text" : "les by"
},{
  "result" : [{
      "conf" : 0.358922,
      "end" : 272.550000,
      "start" : 272.190000,
      "word" : "les"
    }],
  "text" : "les"
},{
  "result" : [{
      "conf" : 0.619443,
      "end" : 280.695938,
      "start" : 280.290000,
      "word" : "oui"
    }],
  "text" : "oui"
},{
  "result" : [{
      "conf" : 0.536268,
      "end" : 284.964580,
      "start" : 284.520059,
      "word" : "les"
    }, {
      "conf" : 0.630431,
      "end" : 286.500000,
      "start" : 284.976533,
      "word" : "pays"
    }],
  "text" : "les pays"
},{
  "result" : [{
      "conf" : 0.767298,
      "end" : 290.249619,
      "start" : 290.040000,
      "word" : "m"
    }, {
      "conf" : 0.277329,
      "end" : 290.730000,
      "start" : 290.250000,
      "word" : "wilders"
    }],
  "text" : "m wilders"
},{
  "result" : [{
      "conf" : 0.999257,
      "end" : 295.050000,
      "start" : 294.420000,
      "word" : "les"
    }, {
      "conf" : 0.766366,
      "end" : 296.348994,
      "start" : 295.890000,
      "word" : "sports"
    }],
  "text" : "les sports"
},{
  "result" : [{
      "conf" : 0.951445,
      "end" : 300.720000,
      "start" : 299.130000,
      "word" : "nairobi"
    }],
  "text" : "nairobi"
},{
  "result" : [{
      "conf" : 0.658563,
      "end" : 304.098721,
      "start" : 302.940000,
      "word" : "l'arabie"
    }],
  "text" : "l'arabie"
},{
  "result" : [{
      "conf" : 0.453693,
      "end" : 306.149590,
      "start" : 304.800000,
      "word" : "et"
    }],
  "text" : "et"
},{
  "text" : ""
},{
  "result" : [{
      "conf" : 0.863761,
      "end" : 316.917158,
      "start" : 316.230000,
      "word" : "si"
    }],
  "text" : "si"
},{
  "text" : ""
},{
  "text" : ""
},{
  "result" : [{
      "conf" : 0.270582,
      "end" : 332.340000,
      "start" : 331.649854,
      "word" : "oui"
    }],
  "text" : "oui"
},{
  "text" : ""
},{
  "text" : ""
},{
  "text" : ""
},{
  "text" : ""
},{
  "text" : ""
},{
  "text" : ""
},{
  "result" : [{
      "conf" : 0.241666,
      "end" : 365.520000,
      "start" : 365.041260,
      "word" : "esclave"
    }],
  "text" : "esclave"
},{
  "result" : [{
      "conf" : 0.396920,
      "end" : 367.927529,
      "start" : 367.470000,
      "word" : "davis"
    }, {
      "conf" : 0.595443,
      "end" : 368.370000,
      "start" : 367.927529,
      "word" : "stella"
    }],
  "text" : "davis stella"
},{
  "result" : [{
      "conf" : 0.772153,
      "end" : 374.148252,
      "start" : 373.872246,
      "word" : "tiens"
    }],
  "text" : "tiens"
},{
  "result" : [{
      "conf" : 0.545063,
      "end" : 377.219912,
      "start" : 376.980000,
      "word" : "la"
    }, {
      "conf" : 0.376378,
      "end" : 378.389619,
      "start" : 377.220000,
      "word" : "libye"
    }],
  "text" : "la libye"
},{
  "text" : ""
},{
  "result" : [{
      "conf" : 0.297472,
      "end" : 386.940000,
      "start" : 386.640000,
      "word" : "euh"
    }],
  "text" : "euh"
},{
  "text" : ""
},{
  "text" : ""
},{
  "result" : [{
      "conf" : 0.785288,
      "end" : 401.669385,
      "start" : 401.548945,
      "word" : "ouais"
    }, {
      "conf" : 0.892641,
      "end" : 401.883809,
      "start" : 401.760000,
      "word" : "c'est"
    }, {
      "conf" : 0.792371,
      "end" : 401.968154,
      "start" : 401.883809,
      "word" : "est"
    }, {
      "conf" : 1.000000,
      "end" : 402.150000,
      "start" : 401.968154,
      "word" : "une"
    }, {
      "conf" : 1.000000,
      "end" : 402.900000,
      "start" : 402.180000,
      "word" : "reprise"
    }, {
      "conf" : 0.999714,
      "end" : 403.140000,
      "start" : 402.960000,
      "word" : "de"
    }, {
      "conf" : 0.526636,
      "end" : 403.230000,
      "start" : 403.140000,
      "word" : "l"
    }, {
      "conf" : 0.382250,
      "end" : 403.769883,
      "start" : 403.230000,
      "word" : "étudiant"
    }, {
      "conf" : 1.000000,
      "end" : 404.280000,
      "start" : 403.769883,
      "word" : "gospel"
    }, {
      "conf" : 1.000000,
      "end" : 404.400000,
      "start" : 404.280000,
      "word" : "dans"
    }, {
      "conf" : 1.000000,
      "end" : 404.520000,
      "start" : 404.400000,
      "word" : "le"
    }, {
      "conf" : 1.000000,
      "end" : 404.730000,
      "start" : 404.520000,
      "word" : "film"
    }, {
      "conf" : 0.886882,
      "end" : 405.180000,
      "start" : 404.760000,
      "word" : "ecraser"
    }, {
      "conf" : 0.997745,
      "end" : 405.779971,
      "start" : 405.180000,
      "word" : "universe"
    }, {
      "conf" : 0.964981,
      "end" : 406.140000,
      "start" : 405.840000,
      "word" : "sorti"
    }, {
      "conf" : 0.999780,
      "end" : 406.200000,
      "start" : 406.140029,
      "word" : "en"
    }, {
      "conf" : 1.000000,
      "end" : 406.320000,
      "start" : 406.200000,
      "word" : "deux"
    }, {
      "conf" : 1.000000,
      "end" : 406.440000,
      "start" : 406.320000,
      "word" : "mille"
    }, {
      "conf" : 0.995222,
      "end" : 406.650000,
      "start" : 406.440000,
      "word" : "sept"
    }, {
      "conf" : 0.832464,
      "end" : 406.980000,
      "start" : 406.692568,
      "word" : "réalisé"
    }, {
      "conf" : 1.000000,
      "end" : 407.100000,
      "start" : 406.980000,
      "word" : "par"
    }, {
      "conf" : 0.961849,
      "end" : 407.280000,
      "start" : 407.100000,
      "word" : "julie"
    }, {
      "conf" : 0.601563,
      "end" : 407.760000,
      "start" : 407.280234,
      "word" : "timor"
    }, {
      "conf" : 1.000000,
      "end" : 408.090000,
      "start" : 407.910000,
      "word" : "que"
    }, {
      "conf" : 1.000000,
      "end" : 408.389971,
      "start" : 408.090000,
      "word" : "vous"
    }, {
      "conf" : 1.000000,
      "end" : 408.660000,
      "start" : 408.390029,
      "word" : "venez"
    }, {
      "conf" : 1.000000,
      "end" : 408.780000,
      "start" : 408.660000,
      "word" : "de"
    }, {
      "conf" : 0.971329,
      "end" : 408.900000,
      "start" : 408.780000,
      "word" : "nous"
    }, {
      "conf" : 0.964462,
      "end" : 409.440000,
      "start" : 408.900117,
      "word" : "conseiller"
    }, {
      "conf" : 0.991921,
      "end" : 409.560000,
      "start" : 409.440000,
      "word" : "dans"
    }, {
      "conf" : 1.000000,
      "end" : 409.710000,
      "start" : 409.560000,
      "word" : "cette"
    }, {
      "conf" : 1.000000,
      "end" : 409.860000,
      "start" : 409.710000,
      "word" : "très"
    }, {
      "conf" : 1.000000,
      "end" : 410.100000,
      "start" : 409.860000,
      "word" : "jolie"
    }, {
      "conf" : 0.984787,
      "end" : 410.520000,
      "start" : 410.100000,
      "word" : "chronique"
    }, {
      "conf" : 1.000000,
      "end" : 410.880000,
      "start" : 410.520000,
      "word" : "merci"
    }, {
      "conf" : 1.000000,
      "end" : 411.270000,
      "start" : 410.880000,
      "word" : "beaucoup"
    }],
  "text" : "ouais c'est est une reprise de l étudiant gospel dans le film ecraser universe sorti en deux mille sept réalisé par julie timor que vous venez de nous conseiller dans cette très jolie chronique merci beaucoup"
},{
  "result" : [{
      "conf" : 1.000000,
      "end" : 412.470000,
      "start" : 412.260000,
      "word" : "pour"
    }, {
      "conf" : 1.000000,
      "end" : 412.650000,
      "start" : 412.470000,
      "word" : "ce"
    }, {
      "conf" : 1.000000,
      "end" : 413.160000,
      "start" : 412.650000,
      "word" : "choix"
    }],
  "text" : "pour ce choix"
}]}