{ "waveDuration": 194,
 "transcriptionDuration": 46,
"parts": [{
  "result" : [{
      "conf" : 1.000000,
      "end" : 0.990052,
      "start" : 0.000000,
      "word" : "alors"
    }, {
      "conf" : 0.911286,
      "end" : 1.290000,
      "start" : 0.990052,
      "word" : "euh"
    }, {
      "conf" : 1.000000,
      "end" : 1.710000,
      "start" : 1.290223,
      "word" : "ici"
    }, {
      "conf" : 1.000000,
      "end" : 1.830000,
      "start" : 1.710000,
      "word" : "la"
    }, {
      "conf" : 1.000000,
      "end" : 2.190000,
      "start" : 1.830000,
      "word" : "semaine"
    }, {
      "conf" : 1.000000,
      "end" : 2.340000,
      "start" : 2.190000,
      "word" : "de"
    }, {
      "conf" : 1.000000,
      "end" : 2.970000,
      "start" : 2.340000,
      "word" : "labeur"
    }, {
      "conf" : 0.996024,
      "end" : 3.690000,
      "start" : 3.510000,
      "word" : "se"
    }, {
      "conf" : 0.991602,
      "end" : 4.110000,
      "start" : 3.690000,
      "word" : "termine"
    }, {
      "conf" : 1.000000,
      "end" : 4.260000,
      "start" : 4.140000,
      "word" : "en"
    }, {
      "conf" : 0.710495,
      "end" : 4.650000,
      "start" : 4.260000,
      "word" : "chanson"
    }],
  "text" : "alors euh ici la semaine de labeur se termine en chanson"
},{
  "result" : [{
      "conf" : 1.000000,
      "end" : 6.090000,
      "start" : 5.636008,
      "word" : "oui"
    }, {
      "conf" : 0.981213,
      "end" : 6.330000,
      "start" : 6.120000,
      "word" : "dur"
    }, {
      "conf" : 1.000000,
      "end" : 6.690000,
      "start" : 6.330000,
      "word" : "labeur"
    }, {
      "conf" : 1.000000,
      "end" : 7.230000,
      "start" : 6.960000,
      "word" : "voici"
    }, {
      "conf" : 0.801987,
      "end" : 7.440675,
      "start" : 7.230000,
      "word" : "l'homme"
    }, {
      "conf" : 1.000000,
      "end" : 8.520000,
      "start" : 8.010000,
      "word" : "empoigne"
    }, {
      "conf" : 1.000000,
      "end" : 8.730000,
      "start" : 8.520000,
      "word" : "sa"
    }, {
      "conf" : 1.000000,
      "end" : 9.330000,
      "start" : 8.730000,
      "word" : "guitare"
    }, {
      "conf" : 1.000000,
      "end" : 9.480000,
      "start" : 9.330000,
      "word" : "pour"
    }, {
      "conf" : 1.000000,
      "end" : 9.690000,
      "start" : 9.480000,
      "word" : "faire"
    }, {
      "conf" : 0.905000,
      "end" : 9.930027,
      "start" : 9.690000,
      "word" : "toutes"
    }, {
      "conf" : 0.920700,
      "end" : 10.020000,
      "start" : 9.930027,
      "word" : "les"
    }, {
      "conf" : 0.922277,
      "end" : 10.320000,
      "start" : 10.050000,
      "word" : "guerres"
    }, {
      "conf" : 1.000000,
      "end" : 10.440000,
      "start" : 10.320000,
      "word" : "de"
    }, {
      "conf" : 1.000000,
      "end" : 10.530000,
      "start" : 10.440000,
      "word" : "la"
    }, {
      "conf" : 1.000000,
      "end" : 10.800000,
      "start" : 10.530000,
      "word" : "vie"
    }, {
      "conf" : 0.983692,
      "end" : 11.100000,
      "start" : 11.010000,
      "word" : "et"
    }, {
      "conf" : 0.999118,
      "end" : 11.490000,
      "start" : 11.100000,
      "word" : "l'amour"
    }, {
      "conf" : 1.000000,
      "end" : 11.910000,
      "start" : 11.490000,
      "word" : "aussi"
    }],
  "text" : "oui dur labeur voici l'homme empoigne sa guitare pour faire toutes les guerres de la vie et l'amour aussi"
},{
  "result" : [{
      "conf" : 0.817904,
      "end" : 13.144821,
      "start" : 12.868682,
      "word" : "frédéric"
    }, {
      "conf" : 0.227860,
      "end" : 13.500000,
      "start" : 13.144821,
      "word" : "promets"
    }],
  "text" : "frédéric promets"
},{
  "result" : [{
      "conf" : 0.463232,
      "end" : 14.550000,
      "start" : 14.460000,
      "word" : "et"
    }, {
      "conf" : 1.000000,
      "end" : 14.730000,
      "start" : 14.550000,
      "word" : "bien"
    }, {
      "conf" : 1.000000,
      "end" : 15.300000,
      "start" : 14.730000,
      "word" : "justement"
    }, {
      "conf" : 0.547912,
      "end" : 15.660000,
      "start" : 15.390000,
      "word" : "j'ai"
    }, {
      "conf" : 0.916304,
      "end" : 15.750000,
      "start" : 15.660000,
      "word" : "un"
    }, {
      "conf" : 0.994261,
      "end" : 16.470000,
      "start" : 15.752353,
      "word" : "message"
    }, {
      "conf" : 1.000000,
      "end" : 16.740000,
      "start" : 16.560000,
      "word" : "pour"
    }, {
      "conf" : 1.000000,
      "end" : 16.860000,
      "start" : 16.740000,
      "word" : "le"
    }, {
      "conf" : 1.000000,
      "end" : 17.190000,
      "start" : 16.860000,
      "word" : "peuple"
    }, {
      "conf" : 1.000000,
      "end" : 17.790000,
      "start" : 17.280000,
      "word" : "ukrainien"
    }],
  "text" : "et bien justement j'ai un message pour le peuple ukrainien"
},{
  "result" : [{
      "conf" : 0.772979,
      "end" : 18.931459,
      "start" : 18.483210,
      "word" : "aïe"
    }, {
      "conf" : 0.386042,
      "end" : 19.248755,
      "start" : 19.052272,
      "word" : "ça"
    }, {
      "conf" : 0.362084,
      "end" : 22.050000,
      "start" : 21.570000,
      "word" : "rase"
    }, {
      "conf" : 0.696365,
      "end" : 23.250000,
      "start" : 22.678132,
      "word" : "poutine"
    }, {
      "conf" : 0.989162,
      "end" : 23.699537,
      "start" : 23.280000,
      "word" : "vas-y"
    }, {
      "conf" : 0.881183,
      "end" : 24.089172,
      "start" : 23.699537,
      "word" : "vas-y"
    }, {
      "conf" : 1.000000,
      "end" : 24.990000,
      "start" : 24.120000,
      "word" : "raspoutine"
    }, {
      "conf" : 0.439074,
      "end" : 25.560000,
      "start" : 25.140000,
      "word" : "rajoute"
    }, {
      "conf" : 0.994363,
      "end" : 26.160000,
      "start" : 25.590000,
      "word" : "kremlin"
    }, {
      "conf" : 0.842809,
      "end" : 26.580000,
      "start" : 26.280000,
      "word" : "et"
    }, {
      "conf" : 0.581147,
      "end" : 26.730000,
      "start" : 26.640000,
      "word" : "qu"
    }, {
      "conf" : 0.979331,
      "end" : 26.910967,
      "start" : 26.730152,
      "word" : "on"
    }, {
      "conf" : 0.957034,
      "end" : 27.030000,
      "start" : 26.910967,
      "word" : "en"
    }, {
      "conf" : 0.999756,
      "end" : 27.840000,
      "start" : 27.030773,
      "word" : "termine"
    }],
  "text" : "aïe ça rase poutine vas-y vas-y raspoutine rajoute kremlin et qu on en termine"
},{
  "result" : [{
      "conf" : 0.971215,
      "end" : 30.007643,
      "start" : 29.190000,
      "word" : "raspoutine"
    }, {
      "conf" : 1.000000,
      "end" : 31.740000,
      "start" : 30.863075,
      "word" : "raspoutine"
    }],
  "text" : "raspoutine raspoutine"
},{
  "result" : [{
      "conf" : 0.999996,
      "end" : 33.600000,
      "start" : 33.454991,
      "word" : "la"
    }, {
      "conf" : 0.999996,
      "end" : 34.769875,
      "start" : 33.600000,
      "word" : "chevrotine"
    }, {
      "conf" : 0.485940,
      "end" : 35.404241,
      "start" : 35.156393,
      "word" : "et"
    }, {
      "conf" : 0.392982,
      "end" : 36.000000,
      "start" : 35.404241,
      "word" : "étouffe"
    }, {
      "conf" : 0.972946,
      "end" : 36.540000,
      "start" : 36.000000,
      "word" : "le"
    }, {
      "conf" : 0.408705,
      "end" : 37.020000,
      "start" : 36.900000,
      "word" : "au"
    }, {
      "conf" : 0.801810,
      "end" : 37.234259,
      "start" : 37.026324,
      "word" : "bac"
    }, {
      "conf" : 0.811305,
      "end" : 37.723396,
      "start" : 37.234259,
      "word" : "œstrogènes"
    }, {
      "conf" : 0.167719,
      "end" : 38.159700,
      "start" : 37.723396,
      "word" : "innove"
    }, {
      "conf" : 0.610484,
      "end" : 38.279681,
      "start" : 38.159700,
      "word" : "en"
    }, {
      "conf" : 0.599080,
      "end" : 38.580000,
      "start" : 38.280000,
      "word" : "terre"
    }, {
      "conf" : 0.995414,
      "end" : 38.880000,
      "start" : 38.580000,
      "word" : "le"
    }, {
      "conf" : 0.996587,
      "end" : 39.840000,
      "start" : 39.022097,
      "word" : "avec"
    }, {
      "conf" : 1.000000,
      "end" : 40.380000,
      "start" : 40.200000,
      "word" : "les"
    }, {
      "conf" : 1.000000,
      "end" : 40.620000,
      "start" : 40.380000,
      "word" : "frères"
    }, {
      "conf" : 1.000000,
      "end" : 41.489136,
      "start" : 40.650000,
      "word" : "bogdanov"
    }, {
      "conf" : 0.901584,
      "end" : 42.270000,
      "start" : 41.910000,
      "word" : "des"
    }, {
      "conf" : 0.952503,
      "end" : 42.840000,
      "start" : 42.300000,
      "word" : "branches"
    }, {
      "conf" : 0.968223,
      "end" : 43.260000,
      "start" : 42.840000,
      "word" : "le"
    }, {
      "conf" : 0.488402,
      "end" : 44.182141,
      "start" : 43.500000,
      "word" : "poutine"
    }, {
      "conf" : 0.759191,
      "end" : 44.340000,
      "start" : 44.203971,
      "word" : "ou"
    }, {
      "conf" : 1.000000,
      "end" : 44.490000,
      "start" : 44.340000,
      "word" : "les"
    }, {
      "conf" : 0.558055,
      "end" : 44.970000,
      "start" : 44.490000,
      "word" : "cases"
    }, {
      "conf" : 0.963388,
      "end" : 45.324441,
      "start" : 44.973083,
      "word" : "comme"
    }, {
      "conf" : 0.576005,
      "end" : 45.720000,
      "start" : 45.330000,
      "word" : "d"
    }, {
      "conf" : 0.894445,
      "end" : 46.350000,
      "start" : 45.871135,
      "word" : "h"
    }, {
      "conf" : 0.779129,
      "end" : 46.770000,
      "start" : 46.350000,
      "word" : "l"
    }, {
      "conf" : 0.738454,
      "end" : 47.280000,
      "start" : 47.160000,
      "word" : "et"
    }, {
      "conf" : 0.677967,
      "end" : 47.700117,
      "start" : 47.340000,
      "word" : "ariel"
    }, {
      "conf" : 0.563086,
      "end" : 48.150000,
      "start" : 47.700183,
      "word" : "tomba"
    }],
  "text" : "la chevrotine et étouffe le au bac œstrogènes innove en terre le avec les frères bogdanov des branches le poutine ou les cases comme d h l et ariel tomba"
},{
  "result" : [{
      "conf" : 0.934194,
      "end" : 49.169971,
      "start" : 48.720092,
      "word" : "si"
    }, {
      "conf" : 0.291278,
      "end" : 50.310000,
      "start" : 49.410000,
      "word" : "l'assassin"
    }, {
      "conf" : 0.677169,
      "end" : 51.420000,
      "start" : 50.831327,
      "word" : "immédiate"
    }],
  "text" : "si l'assassin immédiate"
},{
  "result" : [{
      "conf" : 0.597523,
      "end" : 52.740000,
      "start" : 52.320000,
      "word" : "laura"
    }, {
      "conf" : 0.507862,
      "end" : 52.917667,
      "start" : 52.827667,
      "word" : "a"
    }, {
      "conf" : 0.988739,
      "end" : 53.280004,
      "start" : 52.920209,
      "word" : "faire"
    }, {
      "conf" : 0.513846,
      "end" : 53.400000,
      "start" : 53.280004,
      "word" : "à"
    }, {
      "conf" : 0.481411,
      "end" : 53.550000,
      "start" : 53.400000,
      "word" : "los"
    }, {
      "conf" : 1.000000,
      "end" : 54.210000,
      "start" : 53.550000,
      "word" : "drian"
    }],
  "text" : "laura a faire à los drian"
},{
  "result" : [{
      "conf" : 0.987471,
      "end" : 56.667671,
      "start" : 56.010000,
      "word" : "craignant"
    }, {
      "conf" : 0.799005,
      "end" : 57.269985,
      "start" : 56.730000,
      "word" : "pense"
    }, {
      "conf" : 1.000000,
      "end" : 57.360000,
      "start" : 57.269985,
      "word" : "un"
    }, {
      "conf" : 1.000000,
      "end" : 57.660000,
      "start" : 57.360000,
      "word" : "peu"
    }, {
      "conf" : 0.982800,
      "end" : 57.809993,
      "start" : 57.660000,
      "word" : "à"
    }, {
      "conf" : 1.000000,
      "end" : 57.960000,
      "start" : 57.810004,
      "word" : "la"
    }, {
      "conf" : 1.000000,
      "end" : 58.320161,
      "start" : 57.960000,
      "word" : "france"
    }, {
      "conf" : 0.950438,
      "end" : 58.410293,
      "start" : 58.320590,
      "word" : "à"
    }, {
      "conf" : 1.000000,
      "end" : 58.590000,
      "start" : 58.410439,
      "word" : "nos"
    }, {
      "conf" : 0.979141,
      "end" : 59.250000,
      "start" : 58.590000,
      "word" : "factures"
    }, {
      "conf" : 1.000000,
      "end" : 59.460000,
      "start" : 59.250000,
      "word" : "de"
    }, {
      "conf" : 1.000000,
      "end" : 59.790000,
      "start" : 59.460000,
      "word" : "gaz"
    }, {
      "conf" : 0.999676,
      "end" : 60.030000,
      "start" : 59.790000,
      "word" : "et"
    }, {
      "conf" : 0.960028,
      "end" : 61.170000,
      "start" : 60.090000,
      "word" : "d'essence"
    }],
  "text" : "craignant pense un peu à la france à nos factures de gaz et d'essence"
},{
  "result" : [{
      "conf" : 0.986657,
      "end" : 63.062622,
      "start" : 62.645610,
      "word" : "sa"
    }, {
      "conf" : 0.999476,
      "end" : 63.920039,
      "start" : 63.092212,
      "word" : "sainteté"
    }, {
      "conf" : 0.391783,
      "end" : 64.349063,
      "start" : 63.960842,
      "word" : "basique"
    }, {
      "conf" : 0.285591,
      "end" : 64.763774,
      "start" : 64.349063,
      "word" : "basique"
    }, {
      "conf" : 1.000000,
      "end" : 65.640000,
      "start" : 64.800000,
      "word" : "raspoutine"
    }, {
      "conf" : 0.743699,
      "end" : 66.060000,
      "start" : 65.760000,
      "word" : "vise"
    }, {
      "conf" : 1.000000,
      "end" : 66.210000,
      "start" : 66.060000,
      "word" : "le"
    }, {
      "conf" : 1.000000,
      "end" : 66.809421,
      "start" : 66.210000,
      "word" : "kremlin"
    }, {
      "conf" : 0.283665,
      "end" : 67.260000,
      "start" : 66.870000,
      "word" : "cole"
    }, {
      "conf" : 0.996285,
      "end" : 67.500000,
      "start" : 67.260132,
      "word" : "lui"
    }, {
      "conf" : 1.000000,
      "end" : 67.680000,
      "start" : 67.530000,
      "word" : "une"
    }, {
      "conf" : 0.974583,
      "end" : 68.520000,
      "start" : 67.680000,
      "word" : "praline"
    }],
  "text" : "sa sainteté basique basique raspoutine vise le kremlin cole lui une praline"
},{
  "result" : [{
      "conf" : 0.406096,
      "end" : 69.450015,
      "start" : 69.360000,
      "word" : "ce"
    }, {
      "conf" : 0.958508,
      "end" : 70.017385,
      "start" : 69.809912,
      "word" : "sera"
    }, {
      "conf" : 0.286203,
      "end" : 70.554316,
      "start" : 70.202710,
      "word" : "t"
    }],
  "text" : "ce sera t"
},{
  "result" : [{
      "conf" : 0.278336,
      "end" : 71.069817,
      "start" : 70.710000,
      "word" : "vas-y"
    }, {
      "conf" : 0.324077,
      "end" : 71.520000,
      "start" : 71.120969,
      "word" : "bâti"
    }, {
      "conf" : 1.000000,
      "end" : 72.420000,
      "start" : 71.522629,
      "word" : "raspoutine"
    }],
  "text" : "vas-y bâti raspoutine"
},{
  "result" : [{
      "conf" : 0.371684,
      "end" : 73.560000,
      "start" : 73.080000,
      "word" : "mika"
    }, {
      "conf" : 0.523002,
      "end" : 74.070000,
      "start" : 73.680000,
      "word" : "a"
    }, {
      "conf" : 1.000000,
      "end" : 74.220000,
      "start" : 74.070000,
      "word" : "la"
    }, {
      "conf" : 1.000000,
      "end" : 75.359832,
      "start" : 74.220000,
      "word" : "carabine"
    }, {
      "conf" : 0.342764,
      "end" : 76.440000,
      "start" : 75.974868,
      "word" : "a"
    }, {
      "conf" : 0.442057,
      "end" : 76.923098,
      "start" : 76.440000,
      "word" : "abouti"
    }, {
      "conf" : 0.535336,
      "end" : 77.340000,
      "start" : 76.923098,
      "word" : "in"
    }, {
      "conf" : 0.552791,
      "end" : 77.880000,
      "start" : 77.430000,
      "word" : "time"
    }],
  "text" : "mika a la carabine a abouti in time"
},{
  "result" : [{
      "conf" : 0.570643,
      "end" : 80.190652,
      "start" : 79.653347,
      "word" : "abouti"
    }],
  "text" : "abouti"
},{
  "result" : [{
      "conf" : 0.815811,
      "end" : 81.929905,
      "start" : 81.396526,
      "word" : "rendre"
    }, {
      "conf" : 0.810772,
      "end" : 82.440000,
      "start" : 81.990037,
      "word" : "stone"
    }, {
      "conf" : 0.893120,
      "end" : 82.620000,
      "start" : 82.470000,
      "word" : "que"
    }, {
      "conf" : 0.890777,
      "end" : 83.070784,
      "start" : 82.620000,
      "word" : "staline"
    }, {
      "conf" : 0.700617,
      "end" : 83.160344,
      "start" : 83.070784,
      "word" : "est"
    }, {
      "conf" : 0.998210,
      "end" : 83.490000,
      "start" : 83.219626,
      "word" : "moins"
    }, {
      "conf" : 0.865979,
      "end" : 83.839131,
      "start" : 83.490044,
      "word" : "costaud"
    }, {
      "conf" : 0.577161,
      "end" : 83.910000,
      "start" : 83.850000,
      "word" : "que"
    }, {
      "conf" : 0.903225,
      "end" : 84.390081,
      "start" : 83.911025,
      "word" : "stallone"
    }],
  "text" : "rendre stone que staline est moins costaud que stallone"
},{
  "result" : [{
      "conf" : 0.377403,
      "end" : 87.750000,
      "start" : 87.510000,
      "word" : "vis"
    }, {
      "conf" : 0.383886,
      "end" : 88.049048,
      "start" : 87.750000,
      "word" : "tôle"
    }, {
      "conf" : 0.499989,
      "end" : 88.499993,
      "start" : 88.050037,
      "word" : "apos"
    }, {
      "conf" : 0.991640,
      "end" : 89.370000,
      "start" : 89.208318,
      "word" : "une"
    }, {
      "conf" : 0.996244,
      "end" : 89.789934,
      "start" : 89.370000,
      "word" : "chanson"
    }, {
      "conf" : 0.776617,
      "end" : 89.850000,
      "start" : 89.790000,
      "word" : "de"
    }, {
      "conf" : 1.000000,
      "end" : 90.360000,
      "start" : 89.873298,
      "word" : "pascal"
    }, {
      "conf" : 1.000000,
      "end" : 91.080000,
      "start" : 90.360000,
      "word" : "obispo"
    }],
  "text" : "vis tôle apos une chanson de pascal obispo"
},{
  "result" : [{
      "conf" : 0.997628,
      "end" : 92.550000,
      "start" : 91.740000,
      "word" : "russie"
    }],
  "text" : "russie"
},{
  "result" : [{
      "conf" : 0.609089,
      "end" : 94.260000,
      "start" : 93.570527,
      "word" : "russie"
    }],
  "text" : "russie"
},{
  "result" : [{
      "conf" : 0.653000,
      "end" : 97.530000,
      "start" : 97.110688,
      "word" : "y'a"
    }, {
      "conf" : 0.997077,
      "end" : 97.680000,
      "start" : 97.553811,
      "word" : "des"
    }, {
      "conf" : 0.881806,
      "end" : 97.920000,
      "start" : 97.680000,
      "word" : "soirs"
    }, {
      "conf" : 1.000000,
      "end" : 98.490000,
      "start" : 98.280000,
      "word" : "comme"
    }, {
      "conf" : 1.000000,
      "end" : 99.120000,
      "start" : 98.490000,
      "word" : "ça"
    }, {
      "conf" : 0.999913,
      "end" : 99.300000,
      "start" : 99.120000,
      "word" : "où"
    }, {
      "conf" : 1.000000,
      "end" : 100.440000,
      "start" : 99.300000,
      "word" : "tout"
    }, {
      "conf" : 1.000000,
      "end" : 101.280000,
      "start" : 100.680000,
      "word" : "s'écroule"
    }, {
      "conf" : 1.000000,
      "end" : 101.880000,
      "start" : 101.280000,
      "word" : "autour"
    }, {
      "conf" : 1.000000,
      "end" : 102.060000,
      "start" : 101.940000,
      "word" : "de"
    }, {
      "conf" : 1.000000,
      "end" : 102.869978,
      "start" : 102.060000,
      "word" : "vous"
    }, {
      "conf" : 0.999862,
      "end" : 103.740000,
      "start" : 103.140000,
      "word" : "si"
    }, {
      "conf" : 0.454676,
      "end" : 104.280000,
      "start" : 103.830000,
      "word" : "t'étais"
    }, {
      "conf" : 0.872508,
      "end" : 104.730000,
      "start" : 104.318013,
      "word" : "une"
    }, {
      "conf" : 0.857248,
      "end" : 105.270000,
      "start" : 104.790000,
      "word" : "survie"
    }, {
      "conf" : 0.717771,
      "end" : 105.480000,
      "start" : 105.360000,
      "word" : "à"
    }, {
      "conf" : 0.744058,
      "end" : 106.110000,
      "start" : 105.540000,
      "word" : "hobbies"
    }, {
      "conf" : 0.491140,
      "end" : 106.470000,
      "start" : 106.206577,
      "word" : "ou"
    }, {
      "conf" : 0.325962,
      "end" : 106.890000,
      "start" : 106.470000,
      "word" : "celle"
    }, {
      "conf" : 0.998017,
      "end" : 107.398066,
      "start" : 106.902444,
      "word" : "qui"
    }, {
      "conf" : 0.706804,
      "end" : 107.757349,
      "start" : 107.400000,
      "word" : "laisse"
    }, {
      "conf" : 0.889868,
      "end" : 108.111980,
      "start" : 107.817700,
      "word" : "comme"
    }, {
      "conf" : 0.738089,
      "end" : 108.205781,
      "start" : 108.116345,
      "word" : "un"
    }, {
      "conf" : 0.644441,
      "end" : 108.570000,
      "start" : 108.210000,
      "word" : "pot"
    }],
  "text" : "y'a des soirs comme ça où tout s'écroule autour de vous si t'étais une survie à hobbies ou celle qui laisse comme un pot"
},{
  "result" : [{
      "conf" : 0.286967,
      "end" : 110.399919,
      "start" : 109.680000,
      "word" : "dans"
    }, {
      "conf" : 0.990563,
      "end" : 111.119004,
      "start" : 110.430256,
      "word" : "ayari"
    }, {
      "conf" : 0.923341,
      "end" : 111.479919,
      "start" : 111.120586,
      "word" : "la"
    }, {
      "conf" : 0.938092,
      "end" : 111.810000,
      "start" : 111.510000,
      "word" : "six"
    }, {
      "conf" : 0.928345,
      "end" : 112.133657,
      "start" : 111.810000,
      "word" : "mille"
    }, {
      "conf" : 1.000000,
      "end" : 113.040000,
      "start" : 112.146321,
      "word" : "wagner"
    }, {
      "conf" : 0.466323,
      "end" : 113.250000,
      "start" : 113.160000,
      "word" : "à"
    }, {
      "conf" : 1.000000,
      "end" : 113.640000,
      "start" : 113.340000,
      "word" : "une"
    }, {
      "conf" : 0.710040,
      "end" : 113.940923,
      "start" : 113.640000,
      "word" : "bande"
    }, {
      "conf" : 0.838439,
      "end" : 114.091003,
      "start" : 113.942512,
      "word" : "de"
    }, {
      "conf" : 0.561065,
      "end" : 114.479465,
      "start" : 114.091348,
      "word" : "mer"
    }],
  "text" : "dans ayari la six mille wagner à une bande de mer"
},{
  "result" : [{
      "conf" : 0.544091,
      "end" : 118.080000,
      "start" : 117.900000,
      "word" : "the"
    }, {
      "conf" : 0.468214,
      "end" : 118.500015,
      "start" : 118.350000,
      "word" : "bad"
    }, {
      "conf" : 0.455176,
      "end" : 118.711699,
      "start" : 118.500015,
      "word" : "seeds"
    }, {
      "conf" : 0.468762,
      "end" : 119.130000,
      "start" : 118.711699,
      "word" : "patrie"
    }, {
      "conf" : 0.999141,
      "end" : 120.000000,
      "start" : 119.137126,
      "word" : "raspoutine"
    }, {
      "conf" : 0.542075,
      "end" : 120.840000,
      "start" : 120.210000,
      "word" : "empoisonne"
    }, {
      "conf" : 0.693459,
      "end" : 121.169978,
      "start" : 120.840000,
      "word" : "le"
    }, {
      "conf" : 0.624176,
      "end" : 121.800000,
      "start" : 121.689961,
      "word" : "la"
    }, {
      "conf" : 0.552486,
      "end" : 122.335518,
      "start" : 121.801055,
      "word" : "chlorophylle"
    }, {
      "conf" : 0.651251,
      "end" : 122.910000,
      "start" : 122.335518,
      "word" : "jean"
    }],
  "text" : "the bad seeds patrie raspoutine empoisonne le la chlorophylle jean"
},{
  "result" : [{
      "conf" : 0.864358,
      "end" : 123.780000,
      "start" : 123.660000,
      "word" : "ce"
    }, {
      "conf" : 0.993840,
      "end" : 124.319985,
      "start" : 124.110015,
      "word" : "sera"
    }, {
      "conf" : 0.992823,
      "end" : 125.400322,
      "start" : 124.980000,
      "word" : "facile"
    }, {
      "conf" : 0.306386,
      "end" : 125.789033,
      "start" : 125.400322,
      "word" : "basé"
    }, {
      "conf" : 0.999804,
      "end" : 126.569985,
      "start" : 125.791201,
      "word" : "raspoutine"
    }, {
      "conf" : 0.209629,
      "end" : 127.260000,
      "start" : 127.041621,
      "word" : "dans"
    }, {
      "conf" : 0.915979,
      "end" : 127.494858,
      "start" : 127.290000,
      "word" : "le"
    }, {
      "conf" : 0.949972,
      "end" : 127.830000,
      "start" : 127.494858,
      "word" : "le"
    }, {
      "conf" : 0.307700,
      "end" : 128.154243,
      "start" : 127.890000,
      "word" : "tel"
    }, {
      "conf" : 0.339655,
      "end" : 128.520000,
      "start" : 128.154243,
      "word" : "nourri"
    }, {
      "conf" : 0.993006,
      "end" : 129.378237,
      "start" : 128.520000,
      "word" : "margarine"
    }],
  "text" : "ce sera facile basé raspoutine dans le le tel nourri margarine"
},{
  "result" : [{
      "conf" : 0.746871,
      "end" : 131.414810,
      "start" : 130.910303,
      "word" : "oh"
    }, {
      "conf" : 0.996481,
      "end" : 131.670000,
      "start" : 131.432563,
      "word" : "lui"
    }, {
      "conf" : 1.000000,
      "end" : 132.030000,
      "start" : 131.731143,
      "word" : "une"
    }, {
      "conf" : 0.999647,
      "end" : 132.720000,
      "start" : 132.030000,
      "word" : "raclée"
    }, {
      "conf" : 1.000000,
      "end" : 133.080000,
      "start" : 132.750000,
      "word" : "une"
    }, {
      "conf" : 1.000000,
      "end" : 133.380000,
      "start" : 133.080000,
      "word" : "grosse"
    }, {
      "conf" : 0.631906,
      "end" : 133.919883,
      "start" : 133.380000,
      "word" : "claque"
    }, {
      "conf" : 1.000000,
      "end" : 134.250000,
      "start" : 133.920073,
      "word" : "sans"
    }, {
      "conf" : 0.992497,
      "end" : 134.819985,
      "start" : 134.250000,
      "word" : "oublier"
    }, {
      "conf" : 0.761653,
      "end" : 135.120000,
      "start" : 134.820000,
      "word" : "ses"
    }, {
      "conf" : 0.426630,
      "end" : 135.384009,
      "start" : 135.120000,
      "word" : "copains"
    }, {
      "conf" : 0.597254,
      "end" : 135.480000,
      "start" : 135.384009,
      "word" : "dans"
    }, {
      "conf" : 0.998735,
      "end" : 135.600000,
      "start" : 135.480015,
      "word" : "les"
    }, {
      "conf" : 0.999939,
      "end" : 136.138901,
      "start" : 135.600000,
      "word" : "oligarques"
    }, {
      "conf" : 0.941024,
      "end" : 136.530000,
      "start" : 136.171128,
      "word" : "j'oubliais"
    }, {
      "conf" : 0.487419,
      "end" : 136.769165,
      "start" : 136.530000,
      "word" : "le"
    }, {
      "conf" : 1.000000,
      "end" : 136.940771,
      "start" : 136.789614,
      "word" : "la"
    }, {
      "conf" : 0.999619,
      "end" : 137.280000,
      "start" : 136.950000,
      "word" : "mélodie"
    }],
  "text" : "oh lui une raclée une grosse claque sans oublier ses copains dans les oligarques j'oubliais le la mélodie"
},{
  "result" : [{
      "conf" : 0.502482,
      "end" : 139.920029,
      "start" : 139.560000,
      "word" : "ariane"
    }, {
      "conf" : 0.501500,
      "end" : 140.400000,
      "start" : 139.920029,
      "word" : "aria"
    }, {
      "conf" : 0.999004,
      "end" : 140.880000,
      "start" : 140.730000,
      "word" : "tu"
    }, {
      "conf" : 0.976004,
      "end" : 141.061743,
      "start" : 140.880000,
      "word" : "peux"
    }, {
      "conf" : 0.702206,
      "end" : 141.210000,
      "start" : 141.061743,
      "word" : "aller"
    }, {
      "conf" : 0.967371,
      "end" : 141.686016,
      "start" : 141.218452,
      "word" : "flinguer"
    }, {
      "conf" : 1.000000,
      "end" : 142.230000,
      "start" : 141.780103,
      "word" : "patrick"
    }, {
      "conf" : 1.000000,
      "end" : 142.920000,
      "start" : 142.230000,
      "word" : "sébastien"
    }, {
      "conf" : 0.985007,
      "end" : 143.370000,
      "start" : 143.220000,
      "word" : "et"
    }, {
      "conf" : 0.901215,
      "end" : 143.490000,
      "start" : 143.370161,
      "word" : "on"
    }, {
      "conf" : 1.000000,
      "end" : 143.700000,
      "start" : 143.490000,
      "word" : "fait"
    }, {
      "conf" : 1.000000,
      "end" : 144.060000,
      "start" : 143.730000,
      "word" : "tourner"
    }, {
      "conf" : 1.000000,
      "end" : 144.210000,
      "start" : 144.060000,
      "word" : "les"
    }, {
      "conf" : 0.957163,
      "end" : 144.449839,
      "start" : 144.210000,
      "word" : "stocks"
    }, {
      "conf" : 0.319082,
      "end" : 144.870000,
      "start" : 144.449839,
      "word" : "ghetto"
    }],
  "text" : "ariane aria tu peux aller flinguer patrick sébastien et on fait tourner les stocks ghetto"
},{
  "result" : [{
      "conf" : 0.981696,
      "end" : 146.400000,
      "start" : 146.070000,
      "word" : "comme"
    }, {
      "conf" : 0.991604,
      "end" : 146.580000,
      "start" : 146.430000,
      "word" : "des"
    }, {
      "conf" : 0.913872,
      "end" : 147.052881,
      "start" : 146.580000,
      "word" : "petites"
    }, {
      "conf" : 0.528082,
      "end" : 147.598271,
      "start" : 147.061099,
      "word" : "roquettes"
    }],
  "text" : "comme des petites roquettes"
},{
  "result" : [{
      "conf" : 0.952523,
      "end" : 149.250000,
      "start" : 149.040000,
      "word" : "peu"
    }, {
      "conf" : 0.999979,
      "end" : 149.695781,
      "start" : 149.250000,
      "word" : "importe"
    }, {
      "conf" : 0.499607,
      "end" : 149.999941,
      "start" : 149.700000,
      "word" : "s'il"
    }, {
      "conf" : 0.345569,
      "end" : 150.488145,
      "start" : 149.999941,
      "word" : "désignait"
    }, {
      "conf" : 0.230947,
      "end" : 150.707988,
      "start" : 150.488145,
      "word" : "niet"
    }],
  "text" : "peu importe s'il désignait niet"
},{
  "result" : [{
      "conf" : 0.796586,
      "end" : 152.010161,
      "start" : 151.680000,
      "word" : "samedi"
    }, {
      "conf" : 1.000000,
      "end" : 152.640029,
      "start" : 152.490000,
      "word" : "on"
    }, {
      "conf" : 1.000000,
      "end" : 152.820000,
      "start" : 152.640029,
      "word" : "va"
    }, {
      "conf" : 0.999834,
      "end" : 152.940000,
      "start" : 152.820000,
      "word" : "vous"
    }, {
      "conf" : 1.000000,
      "end" : 153.210000,
      "start" : 152.940000,
      "word" : "faire"
    }, {
      "conf" : 0.999529,
      "end" : 153.420000,
      "start" : 153.210000,
      "word" : "votre"
    }, {
      "conf" : 0.995435,
      "end" : 153.689795,
      "start" : 153.420000,
      "word" : "fête"
    }, {
      "conf" : 1.000000,
      "end" : 154.080000,
      "start" : 153.750000,
      "word" : "patrick"
    }, {
      "conf" : 1.000000,
      "end" : 154.440000,
      "start" : 154.080000,
      "word" : "sébastien"
    }, {
      "conf" : 0.843793,
      "end" : 154.583877,
      "start" : 154.440117,
      "word" : "c'est"
    }, {
      "conf" : 1.000000,
      "end" : 154.800000,
      "start" : 154.583877,
      "word" : "beaucoup"
    }, {
      "conf" : 1.000000,
      "end" : 154.950015,
      "start" : 154.800000,
      "word" : "plus"
    }, {
      "conf" : 0.997907,
      "end" : 155.130000,
      "start" : 154.950015,
      "word" : "simple"
    }, {
      "conf" : 0.999368,
      "end" : 155.400000,
      "start" : 155.130000,
      "word" : "finalement"
    }],
  "text" : "samedi on va vous faire votre fête patrick sébastien c'est beaucoup plus simple finalement"
},{
  "result" : [{
      "conf" : 0.313343,
      "end" : 156.629326,
      "start" : 156.449414,
      "word" : "ça"
    }, {
      "conf" : 0.406232,
      "end" : 157.680000,
      "start" : 157.499941,
      "word" : "s'est"
    }, {
      "conf" : 0.522578,
      "end" : 158.124741,
      "start" : 157.705767,
      "word" : "passé"
    }, {
      "conf" : 0.998961,
      "end" : 158.970000,
      "start" : 158.130000,
      "word" : "raspoutine"
    }, {
      "conf" : 0.185163,
      "end" : 159.420000,
      "start" : 159.240000,
      "word" : "par"
    }, {
      "conf" : 0.998993,
      "end" : 159.600000,
      "start" : 159.451392,
      "word" : "le"
    }, {
      "conf" : 1.000000,
      "end" : 160.200000,
      "start" : 159.600029,
      "word" : "kremlin"
    }, {
      "conf" : 1.000000,
      "end" : 161.880000,
      "start" : 160.680000,
      "word" : "l'hémoglobine"
    }],
  "text" : "ça s'est passé raspoutine par le kremlin l'hémoglobine"
},{
  "result" : [{
      "conf" : 0.550650,
      "end" : 163.950000,
      "start" : 163.251899,
      "word" : "raspoutine"
    }, {
      "conf" : 0.866209,
      "end" : 164.130000,
      "start" : 164.010000,
      "word" : "si"
    }, {
      "conf" : 0.931343,
      "end" : 164.280000,
      "start" : 164.130000,
      "word" : "le"
    }, {
      "conf" : 0.808167,
      "end" : 164.845122,
      "start" : 164.340000,
      "word" : "fbi"
    }, {
      "conf" : 0.984982,
      "end" : 165.060000,
      "start" : 164.910000,
      "word" : "de"
    }, {
      "conf" : 0.962669,
      "end" : 165.810000,
      "start" : 165.060337,
      "word" : "cuisine"
    }, {
      "conf" : 0.463496,
      "end" : 166.615854,
      "start" : 166.260000,
      "word" : "bonne"
    }, {
      "conf" : 0.564176,
      "end" : 166.739575,
      "start" : 166.615854,
      "word" : "et"
    }, {
      "conf" : 0.755797,
      "end" : 167.035562,
      "start" : 166.830000,
      "word" : "un"
    }, {
      "conf" : 0.470127,
      "end" : 167.490000,
      "start" : 167.068066,
      "word" : "guetta"
    }, {
      "conf" : 0.531312,
      "end" : 168.119561,
      "start" : 167.517612,
      "word" : "souffler"
    }, {
      "conf" : 0.954884,
      "end" : 168.300000,
      "start" : 168.120000,
      "word" : "la"
    }, {
      "conf" : 0.449382,
      "end" : 168.600000,
      "start" : 168.360000,
      "word" : "con"
    }],
  "text" : "raspoutine si le fbi de cuisine bonne et un guetta souffler la con"
},{
  "result" : [{
      "conf" : 0.580657,
      "end" : 170.909971,
      "start" : 170.736094,
      "word" : "c'est"
    }, {
      "conf" : 0.933440,
      "end" : 171.210000,
      "start" : 170.940000,
      "word" : "bon"
    }],
  "text" : "c'est bon"
},{
  "result" : [{
      "conf" : 1.000000,
      "end" : 176.460000,
      "start" : 176.040000,
      "word" : "merci"
    }],
  "text" : "merci"
},{
  "result" : [{
      "conf" : 0.962197,
      "end" : 177.843105,
      "start" : 177.660000,
      "word" : "vous"
    }, {
      "conf" : 0.332807,
      "end" : 178.698647,
      "start" : 178.466279,
      "word" : "jouez"
    }, {
      "conf" : 0.906248,
      "end" : 178.890000,
      "start" : 178.806445,
      "word" : "ce"
    }, {
      "conf" : 0.856363,
      "end" : 179.219795,
      "start" : 178.890000,
      "word" : "week-end"
    }, {
      "conf" : 0.818013,
      "end" : 179.849663,
      "start" : 179.220454,
      "word" : "frédéric"
    }, {
      "conf" : 0.476685,
      "end" : 180.493652,
      "start" : 179.970000,
      "word" : "euh"
    }, {
      "conf" : 0.239563,
      "end" : 180.780000,
      "start" : 180.570000,
      "word" : "b"
    }, {
      "conf" : 0.999250,
      "end" : 181.410000,
      "start" : 180.840000,
      "word" : "dimanche"
    }, {
      "conf" : 0.995471,
      "end" : 181.740000,
      "start" : 181.470000,
      "word" : "à"
    }, {
      "conf" : 0.983057,
      "end" : 182.100000,
      "start" : 181.740000,
      "word" : "lille"
    }, {
      "conf" : 1.000000,
      "end" : 182.430000,
      "start" : 182.160000,
      "word" : "avec"
    }, {
      "conf" : 0.852410,
      "end" : 182.700000,
      "start" : 182.430000,
      "word" : "france"
    }, {
      "conf" : 0.852410,
      "end" : 183.120000,
      "start" : 182.700000,
      "word" : "inter"
    }, {
      "conf" : 0.341211,
      "end" : 183.690000,
      "start" : 183.390000,
      "word" : "tournée"
    }, {
      "conf" : 0.488589,
      "end" : 183.878921,
      "start" : 183.690000,
      "word" : "france"
    }, {
      "conf" : 0.511357,
      "end" : 184.320000,
      "start" : 183.878921,
      "word" : "france-inter"
    }, {
      "conf" : 0.988056,
      "end" : 184.679458,
      "start" : 184.440000,
      "word" : "avec"
    }, {
      "conf" : 0.980973,
      "end" : 184.770000,
      "start" : 184.680000,
      "word" : "les"
    }, {
      "conf" : 0.985584,
      "end" : 184.920000,
      "start" : 184.770000,
      "word" : "petits"
    }, {
      "conf" : 0.978625,
      "end" : 185.279956,
      "start" : 184.920000,
      "word" : "rigolos"
    }, {
      "conf" : 0.604487,
      "end" : 185.489868,
      "start" : 185.280000,
      "word" : "de"
    }, {
      "conf" : 0.985342,
      "end" : 185.820000,
      "start" : 185.580000,
      "word" : "très"
    }, {
      "conf" : 0.986568,
      "end" : 186.059941,
      "start" : 185.820000,
      "word" : "bien"
    }, {
      "conf" : 0.325181,
      "end" : 186.235430,
      "start" : 186.060000,
      "word" : "cela"
    }, {
      "conf" : 0.239421,
      "end" : 186.527578,
      "start" : 186.240000,
      "word" : "signale"
    }, {
      "conf" : 0.859939,
      "end" : 186.660000,
      "start" : 186.527578,
      "word" : "dans"
    }, {
      "conf" : 0.931440,
      "end" : 187.230000,
      "start" : 187.080000,
      "word" : "toute"
    }, {
      "conf" : 0.915904,
      "end" : 187.380000,
      "start" : 187.230000,
      "word" : "sa"
    }, {
      "conf" : 0.928606,
      "end" : 187.710000,
      "start" : 187.380000,
      "word" : "clique"
    }, {
      "conf" : 0.817015,
      "end" : 188.722207,
      "start" : 187.800000,
      "word" : "exactement"
    }, {
      "conf" : 1.000000,
      "end" : 189.329883,
      "start" : 188.820000,
      "word" : "merci"
    }, {
      "conf" : 0.650952,
      "end" : 189.809546,
      "start" : 189.360000,
      "word" : "frédéric"
    }, {
      "conf" : 1.000000,
      "end" : 190.290322,
      "start" : 189.990000,
      "word" : "merci"
    }, {
      "conf" : 0.339982,
      "end" : 190.470000,
      "start" : 190.290322,
      "word" : "beaucoup"
    }],
  "text" : "vous jouez ce week-end frédéric euh b dimanche à lille avec france inter tournée france france-inter avec les petits rigolos de très bien cela signale dans toute sa clique exactement merci frédéric merci beaucoup"
},{
  "result" : [{
      "conf" : 0.530159,
      "end" : 192.840000,
      "start" : 191.970000,
      "word" : "france-inter"
    }],
  "text" : "france-inter"
},{
  "text" : ""
}]}