{ "waveDuration": 329,
 "transcriptionDuration": 70,
"parts": [{
  "result" : [{
      "conf" : 1.000000,
      "end" : 0.540000,
      "start" : 0.000000,
      "word" : "bonjour"
    }, {
      "conf" : 0.425904,
      "end" : 0.704044,
      "start" : 0.540000,
      "word" : "alain"
    }, {
      "conf" : 0.430320,
      "end" : 0.840496,
      "start" : 0.704044,
      "word" : "neuf"
    }, {
      "conf" : 0.393777,
      "end" : 0.990034,
      "start" : 0.840496,
      "word" : "anneaux"
    }, {
      "conf" : 0.374561,
      "end" : 1.320000,
      "start" : 0.990034,
      "word" : "coe"
    }, {
      "conf" : 1.000000,
      "end" : 1.740000,
      "start" : 1.410000,
      "word" : "bonjour"
    }, {
      "conf" : 1.000000,
      "end" : 2.220000,
      "start" : 1.740000,
      "word" : "mathilde"
    }, {
      "conf" : 0.652110,
      "end" : 2.400000,
      "start" : 2.250000,
      "word" : "on"
    }, {
      "conf" : 0.524648,
      "end" : 2.580000,
      "start" : 2.400574,
      "word" : "les"
    }, {
      "conf" : 0.409469,
      "end" : 2.700000,
      "start" : 2.580000,
      "word" : "met"
    }, {
      "conf" : 1.000000,
      "end" : 2.970000,
      "start" : 2.700000,
      "word" : "tous"
    }, {
      "conf" : 1.000000,
      "end" : 3.960000,
      "start" : 2.970000,
      "word" : "immensément"
    }, {
      "conf" : 1.000000,
      "end" : 4.080000,
      "start" : 3.960000,
      "word" : "le"
    }, {
      "conf" : 0.999873,
      "end" : 4.500000,
      "start" : 4.080000,
      "word" : "chanteur"
    }, {
      "conf" : 0.703389,
      "end" : 4.920000,
      "start" : 4.500177,
      "word" : "arnaud"
    }, {
      "conf" : 1.000000,
      "end" : 5.070000,
      "start" : 4.920000,
      "word" : "nous"
    }, {
      "conf" : 0.992813,
      "end" : 5.160000,
      "start" : 5.070000,
      "word" : "a"
    }, {
      "conf" : 0.977530,
      "end" : 5.490000,
      "start" : 5.160000,
      "word" : "laissé"
    }, {
      "conf" : 1.000000,
      "end" : 5.700000,
      "start" : 5.550000,
      "word" : "un"
    }, {
      "conf" : 0.999430,
      "end" : 6.150000,
      "start" : 5.730000,
      "word" : "dernier"
    }, {
      "conf" : 0.995306,
      "end" : 6.510000,
      "start" : 6.150000,
      "word" : "disque"
    }, {
      "conf" : 1.000000,
      "end" : 6.660000,
      "start" : 6.510000,
      "word" : "avant"
    }, {
      "conf" : 1.000000,
      "end" : 6.810000,
      "start" : 6.660000,
      "word" : "sa"
    }, {
      "conf" : 1.000000,
      "end" : 7.020000,
      "start" : 6.810000,
      "word" : "mort"
    }, {
      "conf" : 1.000000,
      "end" : 7.110000,
      "start" : 7.020000,
      "word" : "il"
    }, {
      "conf" : 0.995018,
      "end" : 7.170000,
      "start" : 7.110000,
      "word" : "y"
    }, {
      "conf" : 0.995018,
      "end" : 7.200000,
      "start" : 7.170000,
      "word" : "a"
    }, {
      "conf" : 0.996298,
      "end" : 7.320000,
      "start" : 7.200000,
      "word" : "deux"
    }, {
      "conf" : 0.992319,
      "end" : 7.590000,
      "start" : 7.320000,
      "word" : "mois"
    }],
  "text" : "bonjour alain neuf anneaux coe bonjour mathilde on les met tous immensément le chanteur arnaud nous a laissé un dernier disque avant sa mort il y a deux mois"
},{
  "text" : ""
},{
  "result" : [{
      "conf" : 0.664341,
      "end" : 16.079941,
      "start" : 15.870000,
      "word" : "le"
    }, {
      "conf" : 0.638762,
      "end" : 16.440000,
      "start" : 16.079941,
      "word" : "vent"
    }],
  "text" : "le vent"
},{
  "result" : [{
      "conf" : 0.470419,
      "end" : 23.306177,
      "start" : 23.007713,
      "word" : "bon"
    }],
  "text" : "bon"
},{
  "result" : [{
      "conf" : 0.441849,
      "end" : 25.170000,
      "start" : 24.840000,
      "word" : "avec"
    }],
  "text" : "avec"
},{
  "result" : [{
      "conf" : 1.000000,
      "end" : 31.440000,
      "start" : 31.260000,
      "word" : "la"
    }, {
      "conf" : 1.000000,
      "end" : 32.010000,
      "start" : 31.440000,
      "word" : "vérité"
    }, {
      "conf" : 1.000000,
      "end" : 32.310000,
      "start" : 32.100000,
      "word" : "comme"
    }, {
      "conf" : 1.000000,
      "end" : 32.490000,
      "start" : 32.310000,
      "word" : "une"
    }, {
      "conf" : 1.000000,
      "end" : 32.940000,
      "start" : 32.490000,
      "word" : "dernière"
    }, {
      "conf" : 1.000000,
      "end" : 33.300000,
      "start" : 32.940000,
      "word" : "danse"
    }, {
      "conf" : 1.000000,
      "end" : 33.570000,
      "start" : 33.300000,
      "word" : "avec"
    }, {
      "conf" : 0.896826,
      "end" : 34.080000,
      "start" : 33.630000,
      "word" : "arnaud"
    }, {
      "conf" : 0.856443,
      "end" : 34.770000,
      "start" : 34.440000,
      "word" : "durant"
    }, {
      "conf" : 0.505698,
      "end" : 34.980000,
      "start" : 34.770000,
      "word" : "ces"
    }, {
      "conf" : 1.000000,
      "end" : 35.460000,
      "start" : 34.980000,
      "word" : "cinquante"
    }, {
      "conf" : 1.000000,
      "end" : 35.550000,
      "start" : 35.460000,
      "word" : "ans"
    }, {
      "conf" : 1.000000,
      "end" : 35.610000,
      "start" : 35.550000,
      "word" : "de"
    }, {
      "conf" : 1.000000,
      "end" : 36.210000,
      "start" : 35.610000,
      "word" : "carrière"
    }, {
      "conf" : 0.953400,
      "end" : 37.080000,
      "start" : 36.540000,
      "word" : "arnaud"
    }, {
      "conf" : 0.629435,
      "end" : 37.710000,
      "start" : 37.230000,
      "word" : "natif"
    }, {
      "conf" : 0.969474,
      "end" : 38.310000,
      "start" : 37.710150,
      "word" : "d'ostende"
    }, {
      "conf" : 0.743270,
      "end" : 38.730000,
      "start" : 38.640000,
      "word" : "à"
    }, {
      "conf" : 0.761329,
      "end" : 39.270000,
      "start" : 38.730289,
      "word" : "naviguer"
    }, {
      "conf" : 1.000000,
      "end" : 39.600000,
      "start" : 39.300000,
      "word" : "entre"
    }, {
      "conf" : 1.000000,
      "end" : 39.720000,
      "start" : 39.600000,
      "word" : "le"
    }, {
      "conf" : 1.000000,
      "end" : 40.020000,
      "start" : 39.720000,
      "word" : "rock"
    }, {
      "conf" : 1.000000,
      "end" : 40.230000,
      "start" : 40.020000,
      "word" : "le"
    }, {
      "conf" : 1.000000,
      "end" : 40.530000,
      "start" : 40.230000,
      "word" : "blues"
    }, {
      "conf" : 0.891191,
      "end" : 40.589586,
      "start" : 40.530000,
      "word" : "et"
    }, {
      "conf" : 1.000000,
      "end" : 40.710000,
      "start" : 40.589586,
      "word" : "la"
    }, {
      "conf" : 1.000000,
      "end" : 41.070000,
      "start" : 40.710000,
      "word" : "variété"
    }, {
      "conf" : 1.000000,
      "end" : 41.640000,
      "start" : 41.070000,
      "word" : "française"
    }, {
      "conf" : 1.000000,
      "end" : 42.510000,
      "start" : 41.970000,
      "word" : "jonglant"
    }, {
      "conf" : 1.000000,
      "end" : 42.870000,
      "start" : 42.540000,
      "word" : "entre"
    }, {
      "conf" : 1.000000,
      "end" : 43.380000,
      "start" : 42.870000,
      "word" : "l'anglais"
    }, {
      "conf" : 1.000000,
      "end" : 43.710000,
      "start" : 43.560000,
      "word" : "le"
    }, {
      "conf" : 1.000000,
      "end" : 44.190000,
      "start" : 43.710000,
      "word" : "français"
    }, {
      "conf" : 0.999838,
      "end" : 44.280000,
      "start" : 44.190000,
      "word" : "et"
    }, {
      "conf" : 1.000000,
      "end" : 44.400000,
      "start" : 44.280000,
      "word" : "le"
    }, {
      "conf" : 0.996948,
      "end" : 44.850000,
      "start" : 44.400000,
      "word" : "flamand"
    }, {
      "conf" : 0.992505,
      "end" : 45.420000,
      "start" : 45.150000,
      "word" : "c'était"
    }, {
      "conf" : 1.000000,
      "end" : 45.540000,
      "start" : 45.420000,
      "word" : "un"
    }, {
      "conf" : 1.000000,
      "end" : 46.110000,
      "start" : 45.540000,
      "word" : "véritable"
    }, {
      "conf" : 0.994491,
      "end" : 46.560000,
      "start" : 46.110000,
      "word" : "poète"
    }, {
      "conf" : 1.000000,
      "end" : 46.890000,
      "start" : 46.770000,
      "word" : "qui"
    }, {
      "conf" : 0.939943,
      "end" : 47.070000,
      "start" : 46.890000,
      "word" : "avait"
    }, {
      "conf" : 1.000000,
      "end" : 47.190000,
      "start" : 47.070088,
      "word" : "une"
    }, {
      "conf" : 1.000000,
      "end" : 47.520000,
      "start" : 47.190000,
      "word" : "façon"
    }, {
      "conf" : 1.000000,
      "end" : 47.700000,
      "start" : 47.520000,
      "word" : "bien"
    }, {
      "conf" : 0.982305,
      "end" : 47.820000,
      "start" : 47.700000,
      "word" : "à"
    }, {
      "conf" : 0.999958,
      "end" : 48.030088,
      "start" : 47.820000,
      "word" : "lui"
    }, {
      "conf" : 0.991447,
      "end" : 48.149956,
      "start" : 48.030088,
      "word" : "de"
    }, {
      "conf" : 0.996646,
      "end" : 48.690000,
      "start" : 48.149956,
      "word" : "raconter"
    }],
  "text" : "la vérité comme une dernière danse avec arnaud durant ces cinquante ans de carrière arnaud natif d'ostende à naviguer entre le rock le blues et la variété française jonglant entre l'anglais le français et le flamand c'était un véritable poète qui avait une façon bien à lui de raconter"
},{
  "result" : [{
      "conf" : 0.911885,
      "end" : 49.080000,
      "start" : 48.990000,
      "word" : "et"
    }, {
      "conf" : 1.000000,
      "end" : 49.230000,
      "start" : 49.080000,
      "word" : "de"
    }, {
      "conf" : 1.000000,
      "end" : 49.440000,
      "start" : 49.230000,
      "word" : "se"
    }, {
      "conf" : 1.000000,
      "end" : 50.040000,
      "start" : 49.440000,
      "word" : "raconter"
    }, {
      "conf" : 0.967312,
      "end" : 50.430000,
      "start" : 50.250000,
      "word" : "les"
    }, {
      "conf" : 1.000000,
      "end" : 50.940000,
      "start" : 50.430000,
      "word" : "histoires"
    }, {
      "conf" : 1.000000,
      "end" : 51.390000,
      "start" : 51.210000,
      "word" : "avant"
    }, {
      "conf" : 1.000000,
      "end" : 51.540000,
      "start" : 51.390000,
      "word" : "sa"
    }, {
      "conf" : 1.000000,
      "end" : 52.140000,
      "start" : 51.540000,
      "word" : "disparition"
    }, {
      "conf" : 0.968480,
      "end" : 52.500000,
      "start" : 52.350000,
      "word" : "il"
    }, {
      "conf" : 0.968480,
      "end" : 52.650000,
      "start" : 52.500000,
      "word" : "avait"
    }, {
      "conf" : 0.994812,
      "end" : 53.070000,
      "start" : 52.650000,
      "word" : "tenu"
    }, {
      "conf" : 1.000000,
      "end" : 53.220000,
      "start" : 53.130000,
      "word" : "à"
    }, {
      "conf" : 0.925519,
      "end" : 53.580000,
      "start" : 53.220000,
      "word" : "rentrer"
    }, {
      "conf" : 1.000000,
      "end" : 53.670000,
      "start" : 53.580000,
      "word" : "en"
    }, {
      "conf" : 1.000000,
      "end" : 54.060000,
      "start" : 53.670000,
      "word" : "studio"
    }, {
      "conf" : 1.000000,
      "end" : 54.210000,
      "start" : 54.060000,
      "word" : "pour"
    }, {
      "conf" : 1.000000,
      "end" : 54.780000,
      "start" : 54.210000,
      "word" : "enregistrer"
    }, {
      "conf" : 1.000000,
      "end" : 55.110000,
      "start" : 55.020000,
      "word" : "un"
    }, {
      "conf" : 0.994276,
      "end" : 55.410000,
      "start" : 55.110000,
      "word" : "dernier"
    }, {
      "conf" : 0.994276,
      "end" : 55.860000,
      "start" : 55.410000,
      "word" : "album"
    }, {
      "conf" : 0.959915,
      "end" : 56.310000,
      "start" : 56.130000,
      "word" : "ces"
    }, {
      "conf" : 0.991981,
      "end" : 56.670000,
      "start" : 56.310000,
      "word" : "derniers"
    }, {
      "conf" : 1.000000,
      "end" : 56.940000,
      "start" : 56.670000,
      "word" : "mois"
    }, {
      "conf" : 0.979430,
      "end" : 57.120000,
      "start" : 57.000000,
      "word" : "à"
    }, {
      "conf" : 1.000000,
      "end" : 57.630000,
      "start" : 57.120000,
      "word" : "bruxelles"
    }, {
      "conf" : 0.991162,
      "end" : 57.810000,
      "start" : 57.720000,
      "word" : "et"
    }, {
      "conf" : 0.940134,
      "end" : 58.110000,
      "start" : 57.810000,
      "word" : "arnaud"
    }, {
      "conf" : 0.702175,
      "end" : 58.200000,
      "start" : 58.110000,
      "word" : "en"
    }, {
      "conf" : 0.999657,
      "end" : 58.290000,
      "start" : 58.200000,
      "word" : "a"
    }, {
      "conf" : 1.000000,
      "end" : 58.560000,
      "start" : 58.290000,
      "word" : "aussi"
    }, {
      "conf" : 0.993705,
      "end" : 58.980000,
      "start" : 58.560000,
      "word" : "profité"
    }, {
      "conf" : 1.000000,
      "end" : 59.130000,
      "start" : 58.980000,
      "word" : "pour"
    }, {
      "conf" : 0.998217,
      "end" : 59.760000,
      "start" : 59.130000,
      "word" : "enregistrer"
    }, {
      "conf" : 1.000000,
      "end" : 59.970000,
      "start" : 59.820000,
      "word" : "un"
    }, {
      "conf" : 1.000000,
      "end" : 60.480000,
      "start" : 59.970000,
      "word" : "duo"
    }, {
      "conf" : 1.000000,
      "end" : 60.840000,
      "start" : 60.540000,
      "word" : "avec"
    }, {
      "conf" : 1.000000,
      "end" : 61.170000,
      "start" : 60.840000,
      "word" : "mireille"
    }, {
      "conf" : 0.987214,
      "end" : 61.679883,
      "start" : 61.170000,
      "word" : "mathieu"
    }, {
      "conf" : 1.000000,
      "end" : 62.040000,
      "start" : 61.710000,
      "word" : "mireille"
    }, {
      "conf" : 0.997975,
      "end" : 62.370000,
      "start" : 62.040000,
      "word" : "mathieu"
    }, {
      "conf" : 0.999440,
      "end" : 62.549751,
      "start" : 62.400000,
      "word" : "qui"
    }, {
      "conf" : 0.991391,
      "end" : 62.610000,
      "start" : 62.550000,
      "word" : "a"
    }, {
      "conf" : 0.999558,
      "end" : 63.180000,
      "start" : 62.610000,
      "word" : "déclaré"
    }, {
      "conf" : 1.000000,
      "end" : 63.750000,
      "start" : 63.480000,
      "word" : "son"
    }, {
      "conf" : 0.998335,
      "end" : 64.230000,
      "start" : 63.750000,
      "word" : "désir"
    }, {
      "conf" : 1.000000,
      "end" : 64.650000,
      "start" : 64.230000,
      "word" : "presque"
    }, {
      "conf" : 0.968264,
      "end" : 65.610000,
      "start" : 64.650000,
      "word" : "testamentaire"
    }, {
      "conf" : 0.759670,
      "end" : 65.944695,
      "start" : 65.670000,
      "word" : "était"
    }, {
      "conf" : 0.621369,
      "end" : 66.540000,
      "start" : 65.944695,
      "word" : "d'enregistrer"
    }, {
      "conf" : 0.943322,
      "end" : 66.600000,
      "start" : 66.540000,
      "word" : "un"
    }, {
      "conf" : 1.000000,
      "end" : 66.870000,
      "start" : 66.601699,
      "word" : "duo"
    }, {
      "conf" : 1.000000,
      "end" : 67.080000,
      "start" : 66.870000,
      "word" : "avec"
    }, {
      "conf" : 1.000000,
      "end" : 67.380000,
      "start" : 67.080000,
      "word" : "moi"
    }, {
      "conf" : 1.000000,
      "end" : 67.860000,
      "start" : 67.710000,
      "word" : "il"
    }, {
      "conf" : 0.999274,
      "end" : 67.920000,
      "start" : 67.860000,
      "word" : "a"
    }, {
      "conf" : 0.990787,
      "end" : 68.400000,
      "start" : 67.920000,
      "word" : "enregistré"
    }, {
      "conf" : 0.715248,
      "end" : 68.550000,
      "start" : 68.400000,
      "word" : "sa"
    }, {
      "conf" : 0.686815,
      "end" : 68.730000,
      "start" : 68.550000,
      "word" : "voix"
    }, {
      "conf" : 0.999585,
      "end" : 68.880000,
      "start" : 68.730000,
      "word" : "avec"
    }],
  "text" : "et de se raconter les histoires avant sa disparition il avait tenu à rentrer en studio pour enregistrer un dernier album ces derniers mois à bruxelles et arnaud en a aussi profité pour enregistrer un duo avec mireille mathieu mireille mathieu qui a déclaré son désir presque testamentaire était d'enregistrer un duo avec moi il a enregistré sa voix avec"
},{
  "result" : [{
      "conf" : 1.000000,
      "end" : 69.210000,
      "start" : 68.910000,
      "word" : "beaucoup"
    }, {
      "conf" : 1.000000,
      "end" : 69.270000,
      "start" : 69.210000,
      "word" : "de"
    }, {
      "conf" : 1.000000,
      "end" : 69.750000,
      "start" : 69.270000,
      "word" : "courage"
    }, {
      "conf" : 0.661409,
      "end" : 70.620000,
      "start" : 70.140000,
      "word" : "malade"
    }, {
      "conf" : 0.834271,
      "end" : 71.280000,
      "start" : 70.920000,
      "word" : "arnaud"
    }, {
      "conf" : 1.000000,
      "end" : 71.430000,
      "start" : 71.280000,
      "word" : "est"
    }, {
      "conf" : 0.727090,
      "end" : 71.610000,
      "start" : 71.430000,
      "word" : "allé"
    }, {
      "conf" : 0.994814,
      "end" : 72.000000,
      "start" : 71.610000,
      "word" : "jusqu'à"
    }, {
      "conf" : 1.000000,
      "end" : 72.150000,
      "start" : 72.000000,
      "word" : "se"
    }, {
      "conf" : 1.000000,
      "end" : 72.540000,
      "start" : 72.150000,
      "word" : "produire"
    }, {
      "conf" : 1.000000,
      "end" : 72.720000,
      "start" : 72.540000,
      "word" : "sur"
    }, {
      "conf" : 1.000000,
      "end" : 72.960000,
      "start" : 72.720000,
      "word" : "scène"
    }, {
      "conf" : 1.000000,
      "end" : 73.230000,
      "start" : 72.960000,
      "word" : "avec"
    }, {
      "conf" : 1.000000,
      "end" : 73.350000,
      "start" : 73.230000,
      "word" : "une"
    }, {
      "conf" : 1.000000,
      "end" : 73.920000,
      "start" : 73.350000,
      "word" : "perfusion"
    }, {
      "conf" : 1.000000,
      "end" : 74.400000,
      "start" : 74.250000,
      "word" : "sa"
    }, {
      "conf" : 0.999626,
      "end" : 74.790000,
      "start" : 74.400000,
      "word" : "carrière"
    }, {
      "conf" : 0.998366,
      "end" : 74.850000,
      "start" : 74.790000,
      "word" : "a"
    }, {
      "conf" : 0.998159,
      "end" : 75.180000,
      "start" : 74.850000,
      "word" : "démarré"
    }, {
      "conf" : 1.000000,
      "end" : 75.270000,
      "start" : 75.180000,
      "word" : "dans"
    }, {
      "conf" : 1.000000,
      "end" : 75.390000,
      "start" : 75.270000,
      "word" : "les"
    }, {
      "conf" : 1.000000,
      "end" : 75.540000,
      "start" : 75.390000,
      "word" : "années"
    }, {
      "conf" : 0.993692,
      "end" : 75.930000,
      "start" : 75.540000,
      "word" : "quatre-vingts"
    }, {
      "conf" : 1.000000,
      "end" : 76.140000,
      "start" : 75.930000,
      "word" : "avec"
    }, {
      "conf" : 1.000000,
      "end" : 76.290000,
      "start" : 76.140000,
      "word" : "son"
    }, {
      "conf" : 1.000000,
      "end" : 76.530000,
      "start" : 76.290000,
      "word" : "groupe"
    }, {
      "conf" : 0.876407,
      "end" : 77.220000,
      "start" : 76.530000,
      "word" : "thématique"
    }, {
      "conf" : 1.000000,
      "end" : 77.670000,
      "start" : 77.520000,
      "word" : "qui"
    }, {
      "conf" : 1.000000,
      "end" : 77.730000,
      "start" : 77.670000,
      "word" : "a"
    }, {
      "conf" : 1.000000,
      "end" : 78.054302,
      "start" : 77.730000,
      "word" : "marqué"
    }, {
      "conf" : 0.809988,
      "end" : 78.390000,
      "start" : 78.060000,
      "word" : "l'histoire"
    }, {
      "conf" : 1.000000,
      "end" : 78.480000,
      "start" : 78.390000,
      "word" : "du"
    }, {
      "conf" : 0.998011,
      "end" : 78.840000,
      "start" : 78.480000,
      "word" : "rock"
    }, {
      "conf" : 0.709052,
      "end" : 79.139209,
      "start" : 79.050000,
      "word" : "et"
    }, {
      "conf" : 1.000000,
      "end" : 79.380000,
      "start" : 79.139209,
      "word" : "avec"
    }, {
      "conf" : 1.000000,
      "end" : 79.590000,
      "start" : 79.380000,
      "word" : "son"
    }, {
      "conf" : 0.998059,
      "end" : 79.890000,
      "start" : 79.590000,
      "word" : "hymne"
    }, {
      "conf" : 0.999423,
      "end" : 80.100000,
      "start" : 79.980000,
      "word" : "à"
    }, {
      "conf" : 1.000000,
      "end" : 80.549619,
      "start" : 80.100000,
      "word" : "l'europe"
    }, {
      "conf" : 1.000000,
      "end" : 80.969919,
      "start" : 80.580000,
      "word" : "putain"
    }, {
      "conf" : 1.000000,
      "end" : 81.420000,
      "start" : 81.000000,
      "word" : "putain"
    }, {
      "conf" : 0.513501,
      "end" : 81.899604,
      "start" : 81.630000,
      "word" : "qu'il"
    }, {
      "conf" : 0.627668,
      "end" : 82.110000,
      "start" : 81.899604,
      "word" : "avait"
    }, {
      "conf" : 0.629009,
      "end" : 82.710000,
      "start" : 82.110000,
      "word" : "interprété"
    }, {
      "conf" : 1.000000,
      "end" : 82.890000,
      "start" : 82.740000,
      "word" : "en"
    }, {
      "conf" : 0.998623,
      "end" : 83.340000,
      "start" : 82.890000,
      "word" : "concert"
    }, {
      "conf" : 1.000000,
      "end" : 83.550000,
      "start" : 83.400000,
      "word" : "en"
    }, {
      "conf" : 1.000000,
      "end" : 84.060000,
      "start" : 83.550000,
      "word" : "février"
    }, {
      "conf" : 1.000000,
      "end" : 84.840000,
      "start" : 84.360000,
      "word" : "dernier"
    }, {
      "conf" : 1.000000,
      "end" : 85.350000,
      "start" : 85.110000,
      "word" : "avec"
    }, {
      "conf" : 1.000000,
      "end" : 85.500000,
      "start" : 85.350000,
      "word" : "son"
    }, {
      "conf" : 1.000000,
      "end" : 86.190000,
      "start" : 85.500000,
      "word" : "compatriote"
    }, {
      "conf" : 0.970890,
      "end" : 86.771777,
      "start" : 86.250000,
      "word" : "stromae"
    }],
  "text" : "beaucoup de courage malade arnaud est allé jusqu'à se produire sur scène avec une perfusion sa carrière a démarré dans les années quatre-vingts avec son groupe thématique qui a marqué l'histoire du rock et avec son hymne à l'europe putain putain qu'il avait interprété en concert en février dernier avec son compatriote stromae"
},{
  "result" : [{
      "conf" : 0.894001,
      "end" : 88.470000,
      "start" : 88.080000,
      "word" : "si"
    }],
  "text" : "si"
},{
  "text" : ""
},{
  "text" : ""
},{
  "text" : ""
},{
  "text" : ""
},{
  "text" : ""
},{
  "text" : ""
},{
  "text" : ""
},{
  "text" : ""
},{
  "text" : ""
},{
  "result" : [{
      "conf" : 0.926007,
      "end" : 139.530000,
      "start" : 138.720000,
      "word" : "arnaud"
    }, {
      "conf" : 0.939302,
      "end" : 139.860000,
      "start" : 139.590000,
      "word" : "aura"
    }, {
      "conf" : 0.922411,
      "end" : 140.250000,
      "start" : 139.860000,
      "word" : "chanté"
    }, {
      "conf" : 1.000000,
      "end" : 140.610000,
      "start" : 140.250000,
      "word" : "presque"
    }, {
      "conf" : 0.494664,
      "end" : 140.988940,
      "start" : 140.610000,
      "word" : "jusqu'au"
    }, {
      "conf" : 0.505336,
      "end" : 141.086631,
      "start" : 140.988940,
      "word" : "au"
    }, {
      "conf" : 1.000000,
      "end" : 141.420000,
      "start" : 141.086631,
      "word" : "bout"
    }, {
      "conf" : 1.000000,
      "end" : 141.600000,
      "start" : 141.450000,
      "word" : "la"
    }, {
      "conf" : 1.000000,
      "end" : 141.960000,
      "start" : 141.600000,
      "word" : "musique"
    }, {
      "conf" : 0.994887,
      "end" : 142.170000,
      "start" : 141.960000,
      "word" : "était"
    }, {
      "conf" : 1.000000,
      "end" : 142.410000,
      "start" : 142.199868,
      "word" : "toute"
    }, {
      "conf" : 1.000000,
      "end" : 142.560000,
      "start" : 142.410000,
      "word" : "sa"
    }, {
      "conf" : 1.000000,
      "end" : 142.890000,
      "start" : 142.560000,
      "word" : "vie"
    }, {
      "conf" : 0.990329,
      "end" : 143.340000,
      "start" : 143.130000,
      "word" : "ses"
    }, {
      "conf" : 1.000000,
      "end" : 143.760000,
      "start" : 143.340000,
      "word" : "cendres"
    }, {
      "conf" : 1.000000,
      "end" : 143.880000,
      "start" : 143.760000,
      "word" : "ont"
    }, {
      "conf" : 1.000000,
      "end" : 144.180000,
      "start" : 143.880000,
      "word" : "été"
    }, {
      "conf" : 0.998287,
      "end" : 144.750000,
      "start" : 144.180000,
      "word" : "dispersées"
    }, {
      "conf" : 1.000000,
      "end" : 145.050000,
      "start" : 144.750000,
      "word" : "selon"
    }, {
      "conf" : 1.000000,
      "end" : 145.230000,
      "start" : 145.050000,
      "word" : "son"
    }, {
      "conf" : 1.000000,
      "end" : 145.619985,
      "start" : 145.230000,
      "word" : "souhait"
    }, {
      "conf" : 0.843603,
      "end" : 145.830000,
      "start" : 145.710000,
      "word" : "au"
    }, {
      "conf" : 0.843603,
      "end" : 146.220000,
      "start" : 145.830000,
      "word" : "dessus"
    }, {
      "conf" : 1.000000,
      "end" : 146.310000,
      "start" : 146.220000,
      "word" : "de"
    }, {
      "conf" : 0.960671,
      "end" : 146.520000,
      "start" : 146.310000,
      "word" : "cette"
    }, {
      "conf" : 0.955090,
      "end" : 146.700000,
      "start" : 146.520000,
      "word" : "mer"
    }, {
      "conf" : 1.000000,
      "end" : 146.820000,
      "start" : 146.700000,
      "word" : "du"
    }, {
      "conf" : 1.000000,
      "end" : 147.090000,
      "start" : 146.820000,
      "word" : "nord"
    }, {
      "conf" : 0.858405,
      "end" : 147.600000,
      "start" : 147.390000,
      "word" : "qu'il"
    }, {
      "conf" : 0.876136,
      "end" : 148.110000,
      "start" : 147.600000,
      "word" : "affectionnait"
    }, {
      "conf" : 0.869323,
      "end" : 148.380000,
      "start" : 148.110000,
      "word" : "tant"
    }, {
      "conf" : 1.000000,
      "end" : 148.710000,
      "start" : 148.530000,
      "word" : "non"
    }, {
      "conf" : 1.000000,
      "end" : 148.920000,
      "start" : 148.710000,
      "word" : "loin"
    }, {
      "conf" : 0.993824,
      "end" : 149.490000,
      "start" : 148.920000,
      "word" : "d'ostende"
    }, {
      "conf" : 0.654959,
      "end" : 149.940000,
      "start" : 149.850000,
      "word" : "est"
    }, {
      "conf" : 1.000000,
      "end" : 150.090000,
      "start" : 149.940000,
      "word" : "dans"
    }, {
      "conf" : 1.000000,
      "end" : 150.240000,
      "start" : 150.090000,
      "word" : "sa"
    }, {
      "conf" : 1.000000,
      "end" : 150.570000,
      "start" : 150.240000,
      "word" : "dernière"
    }, {
      "conf" : 1.000000,
      "end" : 151.110000,
      "start" : 150.570000,
      "word" : "interview"
    }, {
      "conf" : 0.986651,
      "end" : 151.560000,
      "start" : 151.110234,
      "word" : "extraite"
    }, {
      "conf" : 0.968884,
      "end" : 151.710000,
      "start" : 151.560000,
      "word" : "d'un"
    }, {
      "conf" : 1.000000,
      "end" : 152.340000,
      "start" : 151.739985,
      "word" : "documentaire"
    }, {
      "conf" : 1.000000,
      "end" : 152.880000,
      "start" : 152.340000,
      "word" : "intitulé"
    }, {
      "conf" : 0.993390,
      "end" : 153.270000,
      "start" : 153.120000,
      "word" : "dans"
    }, {
      "conf" : 1.000000,
      "end" : 153.420000,
      "start" : 153.270000,
      "word" : "les"
    }, {
      "conf" : 1.000000,
      "end" : 153.630000,
      "start" : 153.420000,
      "word" : "yeux"
    }, {
      "conf" : 0.994788,
      "end" : 154.080000,
      "start" : 153.630000,
      "word" : "d'arnaud"
    }, {
      "conf" : 0.926905,
      "end" : 154.500000,
      "start" : 154.350000,
      "word" : "il"
    }, {
      "conf" : 0.916586,
      "end" : 154.680000,
      "start" : 154.500000,
      "word" : "avait"
    }, {
      "conf" : 0.832456,
      "end" : 155.190000,
      "start" : 154.680000,
      "word" : "confié"
    }, {
      "conf" : 1.000000,
      "end" : 156.060000,
      "start" : 155.520000,
      "word" : "maintenant"
    }, {
      "conf" : 1.000000,
      "end" : 156.180000,
      "start" : 156.060000,
      "word" : "que"
    }, {
      "conf" : 1.000000,
      "end" : 156.300000,
      "start" : 156.180000,
      "word" : "je"
    }, {
      "conf" : 1.000000,
      "end" : 156.510000,
      "start" : 156.300000,
      "word" : "suis"
    }, {
      "conf" : 0.640144,
      "end" : 156.600000,
      "start" : 156.510000,
      "word" : "à"
    }, {
      "conf" : 1.000000,
      "end" : 156.690000,
      "start" : 156.600000,
      "word" : "la"
    }, {
      "conf" : 1.000000,
      "end" : 156.870000,
      "start" : 156.690000,
      "word" : "fin"
    }, {
      "conf" : 1.000000,
      "end" : 156.990000,
      "start" : 156.870000,
      "word" : "de"
    }, {
      "conf" : 1.000000,
      "end" : 157.140000,
      "start" : 156.990000,
      "word" : "ma"
    }, {
      "conf" : 1.000000,
      "end" : 157.440000,
      "start" : 157.140000,
      "word" : "vie"
    }, {
      "conf" : 1.000000,
      "end" : 157.830000,
      "start" : 157.650000,
      "word" : "je"
    }, {
      "conf" : 0.748235,
      "end" : 157.980000,
      "start" : 157.830000,
      "word" : "vois"
    }, {
      "conf" : 0.794821,
      "end" : 158.220000,
      "start" : 157.980000,
      "word" : "plein"
    }, {
      "conf" : 1.000000,
      "end" : 158.610000,
      "start" : 158.220000,
      "word" : "d'images"
    }, {
      "conf" : 1.000000,
      "end" : 158.700000,
      "start" : 158.610000,
      "word" : "du"
    }, {
      "conf" : 0.526722,
      "end" : 158.880000,
      "start" : 158.700000,
      "word" : "pape"
    }],
  "text" : "arnaud aura chanté presque jusqu'au au bout la musique était toute sa vie ses cendres ont été dispersées selon son souhait au dessus de cette mer du nord qu'il affectionnait tant non loin d'ostende est dans sa dernière interview extraite d'un documentaire intitulé dans les yeux d'arnaud il avait confié maintenant que je suis à la fin de ma vie je vois plein d'images du pape"
},{
  "result" : [{
      "conf" : 0.994864,
      "end" : 159.210000,
      "start" : 159.060000,
      "word" : "qui"
    }, {
      "conf" : 0.895150,
      "end" : 159.720000,
      "start" : 159.210000,
      "word" : "reviennent"
    }, {
      "conf" : 0.738594,
      "end" : 160.290000,
      "start" : 160.080000,
      "word" : "j"
    }, {
      "conf" : 0.784716,
      "end" : 160.320000,
      "start" : 160.290000,
      "word" : "ai"
    }, {
      "conf" : 0.996431,
      "end" : 160.530000,
      "start" : 160.326475,
      "word" : "eu"
    }, {
      "conf" : 1.000000,
      "end" : 160.770000,
      "start" : 160.590000,
      "word" : "une"
    }, {
      "conf" : 1.000000,
      "end" : 160.980000,
      "start" : 160.770000,
      "word" : "belle"
    }, {
      "conf" : 0.999338,
      "end" : 161.310000,
      "start" : 160.980000,
      "word" : "vie"
    }],
  "text" : "qui reviennent j ai eu une belle vie"
},{
  "result" : [{
      "conf" : 1.000000,
      "end" : 163.980000,
      "start" : 163.710000,
      "word" : "hier"
    }, {
      "conf" : 0.980803,
      "end" : 164.191538,
      "start" : 163.980000,
      "word" : "c'était"
    }, {
      "conf" : 0.801181,
      "end" : 164.277671,
      "start" : 164.191538,
      "word" : "le"
    }, {
      "conf" : 0.945984,
      "end" : 164.580000,
      "start" : 164.277671,
      "word" : "passé"
    }, {
      "conf" : 1.000000,
      "end" : 165.000000,
      "start" : 164.580000,
      "word" : "aujourd'hui"
    }, {
      "conf" : 1.000000,
      "end" : 165.150000,
      "start" : 165.000000,
      "word" : "la"
    }, {
      "conf" : 1.000000,
      "end" : 165.599868,
      "start" : 165.150000,
      "word" : "vérité"
    }, {
      "conf" : 0.670697,
      "end" : 165.870000,
      "start" : 165.600000,
      "word" : "antoine"
    }, {
      "conf" : 0.519368,
      "end" : 166.170000,
      "start" : 165.873193,
      "word" : "t-il"
    }, {
      "conf" : 0.788603,
      "end" : 166.349985,
      "start" : 166.230000,
      "word" : "en"
    }, {
      "conf" : 0.886387,
      "end" : 166.860000,
      "start" : 166.349985,
      "word" : "refrain"
    }, {
      "conf" : 0.999676,
      "end" : 167.040000,
      "start" : 166.890000,
      "word" : "de"
    }, {
      "conf" : 0.968702,
      "end" : 167.220000,
      "start" : 167.040000,
      "word" : "sa"
    }, {
      "conf" : 0.968702,
      "end" : 167.430000,
      "start" : 167.220000,
      "word" : "voix"
    }, {
      "conf" : 1.000000,
      "end" : 168.000000,
      "start" : 167.430000,
      "word" : "rocailleuse"
    }, {
      "conf" : 0.965991,
      "end" : 168.120000,
      "start" : 168.000000,
      "word" : "dans"
    }, {
      "conf" : 1.000000,
      "end" : 168.240000,
      "start" : 168.120000,
      "word" : "ce"
    }, {
      "conf" : 1.000000,
      "end" : 168.600000,
      "start" : 168.240000,
      "word" : "titre"
    }, {
      "conf" : 0.989157,
      "end" : 169.320000,
      "start" : 168.600000,
      "word" : "mélancolique"
    }, {
      "conf" : 0.973022,
      "end" : 169.439985,
      "start" : 169.350000,
      "word" : "à"
    }, {
      "conf" : 1.000000,
      "end" : 169.560000,
      "start" : 169.439985,
      "word" : "la"
    }, {
      "conf" : 0.998934,
      "end" : 169.860000,
      "start" : 169.560000,
      "word" : "trame"
    }, {
      "conf" : 0.987007,
      "end" : 170.310000,
      "start" : 169.890000,
      "word" : "électro"
    }, {
      "conf" : 1.000000,
      "end" : 170.550000,
      "start" : 170.310000,
      "word" : "rock"
    }, {
      "conf" : 0.870271,
      "end" : 170.609883,
      "start" : 170.550000,
      "word" : "et"
    }, {
      "conf" : 0.970276,
      "end" : 170.670000,
      "start" : 170.609883,
      "word" : "à"
    }, {
      "conf" : 1.000000,
      "end" : 170.910000,
      "start" : 170.670000,
      "word" : "titre"
    }, {
      "conf" : 1.000000,
      "end" : 171.450000,
      "start" : 170.910000,
      "word" : "personnel"
    }, {
      "conf" : 0.993796,
      "end" : 171.840000,
      "start" : 171.660000,
      "word" : "son"
    }, {
      "conf" : 1.000000,
      "end" : 172.380000,
      "start" : 171.840000,
      "word" : "expression"
    }, {
      "conf" : 1.000000,
      "end" : 172.530000,
      "start" : 172.380000,
      "word" : "tu"
    }, {
      "conf" : 0.994671,
      "end" : 172.680000,
      "start" : 172.530000,
      "word" : "vois"
    }, {
      "conf" : 1.000000,
      "end" : 172.770000,
      "start" : 172.680000,
      "word" : "le"
    }, {
      "conf" : 0.993096,
      "end" : 173.190000,
      "start" : 172.770000,
      "word" : "bazar"
    }, {
      "conf" : 0.981023,
      "end" : 173.610000,
      "start" : 173.430000,
      "word" : "va"
    }, {
      "conf" : 1.000000,
      "end" : 174.210000,
      "start" : 173.610000,
      "word" : "profondément"
    }, {
      "conf" : 0.996931,
      "end" : 174.300000,
      "start" : 174.210000,
      "word" : "me"
    }, {
      "conf" : 0.867335,
      "end" : 174.660000,
      "start" : 174.300000,
      "word" : "manquer"
    }],
  "text" : "hier c'était le passé aujourd'hui la vérité antoine t-il en refrain de sa voix rocailleuse dans ce titre mélancolique à la trame électro rock et à titre personnel son expression tu vois le bazar va profondément me manquer"
},{
  "result" : [{
      "conf" : 0.603059,
      "end" : 175.610610,
      "start" : 175.200000,
      "word" : "je"
    }, {
      "conf" : 0.362806,
      "end" : 176.580000,
      "start" : 176.460000,
      "word" : "me"
    }],
  "text" : "je me"
},{
  "result" : [{
      "conf" : 0.988904,
      "end" : 182.160000,
      "start" : 181.950000,
      "word" : "je"
    }, {
      "conf" : 0.572961,
      "end" : 182.610000,
      "start" : 182.160000,
      "word" : "prends"
    }],
  "text" : "je prends"
},{
  "result" : [{
      "conf" : 0.619370,
      "end" : 185.954414,
      "start" : 185.656509,
      "word" : "bon"
    }, {
      "conf" : 0.758060,
      "end" : 187.109312,
      "start" : 186.856216,
      "word" : "bon"
    }, {
      "conf" : 0.669285,
      "end" : 187.530000,
      "start" : 187.173149,
      "word" : "bon"
    }],
  "text" : "bon bon bon"
},{
  "result" : [{
      "conf" : 0.510594,
      "end" : 189.330000,
      "start" : 188.970000,
      "word" : "avec"
    }],
  "text" : "avec"
},{
  "result" : [{
      "conf" : 0.377334,
      "end" : 194.370000,
      "start" : 193.862505,
      "word" : "enfants"
    }, {
      "conf" : 0.733994,
      "end" : 195.780381,
      "start" : 195.630146,
      "word" : "de"
    }, {
      "conf" : 0.706249,
      "end" : 195.959971,
      "start" : 195.780381,
      "word" : "neuf"
    }, {
      "conf" : 0.707704,
      "end" : 196.231333,
      "start" : 195.959971,
      "word" : "ans"
    }],
  "text" : "enfants de neuf ans"
},{
  "result" : [{
      "conf" : 0.895129,
      "end" : 198.150000,
      "start" : 197.507388,
      "word" : "tango"
    }],
  "text" : "tango"
},{
  "result" : [{
      "conf" : 0.776268,
      "end" : 199.769883,
      "start" : 199.260000,
      "word" : "peut-on"
    }],
  "text" : "peut-on"
},{
  "result" : [{
      "conf" : 0.934369,
      "end" : 204.420000,
      "start" : 204.030000,
      "word" : "c'était"
    }, {
      "conf" : 0.876805,
      "end" : 204.540000,
      "start" : 204.420000,
      "word" : "la"
    }, {
      "conf" : 0.840421,
      "end" : 204.900000,
      "start" : 204.540029,
      "word" : "force"
    }],
  "text" : "c'était la force"
},{
  "result" : [{
      "conf" : 0.524631,
      "end" : 206.670000,
      "start" : 206.190000,
      "word" : "aujourd'hui"
    }],
  "text" : "aujourd'hui"
},{
  "result" : [{
      "conf" : 0.521779,
      "end" : 213.420000,
      "start" : 213.030000,
      "word" : "aujourd'hui"
    }],
  "text" : "aujourd'hui"
},{
  "text" : ""
},{
  "result" : [{
      "conf" : 0.726960,
      "end" : 221.610000,
      "start" : 221.370000,
      "word" : "plus"
    }, {
      "conf" : 0.779962,
      "end" : 223.499956,
      "start" : 223.260000,
      "word" : "la"
    }, {
      "conf" : 0.730528,
      "end" : 223.800000,
      "start" : 223.500000,
      "word" : "vie"
    }, {
      "conf" : 0.919362,
      "end" : 225.300000,
      "start" : 224.730000,
      "word" : "aujourd'hui"
    }],
  "text" : "plus la vie aujourd'hui"
},{
  "result" : [{
      "conf" : 0.998833,
      "end" : 228.840000,
      "start" : 228.270000,
      "word" : "pourtant"
    }],
  "text" : "pourtant"
},{
  "result" : [{
      "conf" : 0.525039,
      "end" : 232.110000,
      "start" : 231.974048,
      "word" : "le"
    }, {
      "conf" : 0.745271,
      "end" : 232.679355,
      "start" : 232.140000,
      "word" : "procès"
    }, {
      "conf" : 0.977355,
      "end" : 234.300000,
      "start" : 233.760000,
      "word" : "aujourd'hui"
    }],
  "text" : "le procès aujourd'hui"
},{
  "result" : [{
      "conf" : 0.923819,
      "end" : 238.890000,
      "start" : 238.530000,
      "word" : "c'était"
    }, {
      "conf" : 0.962276,
      "end" : 239.010000,
      "start" : 238.890000,
      "word" : "le"
    }, {
      "conf" : 0.562009,
      "end" : 239.640000,
      "start" : 239.010381,
      "word" : "procès"
    }],
  "text" : "c'était le procès"
},{
  "result" : [{
      "conf" : 0.980887,
      "end" : 241.080000,
      "start" : 240.630000,
      "word" : "aujourd'hui"
    }],
  "text" : "aujourd'hui"
},{
  "text" : ""
},{
  "text" : ""
},{
  "text" : ""
},{
  "result" : [{
      "conf" : 0.716989,
      "end" : 258.690000,
      "start" : 257.910000,
      "word" : "embrasse"
    }],
  "text" : "embrasse"
},{
  "result" : [{
      "conf" : 0.590685,
      "end" : 260.010000,
      "start" : 259.439971,
      "word" : "passé"
    }],
  "text" : "passé"
},{
  "result" : [{
      "conf" : 0.811481,
      "end" : 261.930000,
      "start" : 261.540000,
      "word" : "il"
    }, {
      "conf" : 0.755213,
      "end" : 263.190000,
      "start" : 262.650000,
      "word" : "n'existe"
    }, {
      "conf" : 0.983553,
      "end" : 263.580000,
      "start" : 263.192637,
      "word" : "plus"
    }],
  "text" : "il n'existe plus"
},{
  "text" : ""
},{
  "result" : [{
      "conf" : 0.614049,
      "end" : 273.381357,
      "start" : 273.000000,
      "word" : "c'était"
    }, {
      "conf" : 0.867704,
      "end" : 273.510000,
      "start" : 273.381357,
      "word" : "le"
    }, {
      "conf" : 0.747654,
      "end" : 274.050000,
      "start" : 273.511494,
      "word" : "passé"
    }],
  "text" : "c'était le passé"
},{
  "result" : [{
      "conf" : 1.000000,
      "end" : 275.640000,
      "start" : 275.130000,
      "word" : "aujourd'hui"
    }],
  "text" : "aujourd'hui"
},{
  "result" : [{
      "conf" : 0.581311,
      "end" : 280.241543,
      "start" : 279.930000,
      "word" : "c'était"
    }, {
      "conf" : 0.577802,
      "end" : 280.380000,
      "start" : 280.241543,
      "word" : "le"
    }, {
      "conf" : 0.784069,
      "end" : 280.920000,
      "start" : 280.389404,
      "word" : "passé"
    }],
  "text" : "c'était le passé"
},{
  "result" : [{
      "conf" : 0.416452,
      "end" : 282.270000,
      "start" : 281.970000,
      "word" : "bonjour"
    }],
  "text" : "bonjour"
},{
  "result" : [{
      "conf" : 0.854365,
      "end" : 287.160088,
      "start" : 286.560000,
      "word" : "c'était"
    }, {
      "conf" : 0.498871,
      "end" : 287.280000,
      "start" : 287.160088,
      "word" : "le"
    }, {
      "conf" : 0.207551,
      "end" : 287.790000,
      "start" : 287.282637,
      "word" : "procès"
    }],
  "text" : "c'était le procès"
},{
  "result" : [{
      "conf" : 0.875643,
      "end" : 296.250000,
      "start" : 295.800000,
      "word" : "aujourd'hui"
    }],
  "text" : "aujourd'hui"
},{
  "text" : ""
},{
  "text" : ""
},{
  "text" : ""
},{
  "result" : [{
      "conf" : 1.000000,
      "end" : 315.300000,
      "start" : 315.060000,
      "word" : "la"
    }, {
      "conf" : 1.000000,
      "end" : 315.870000,
      "start" : 315.300000,
      "word" : "vérité"
    }, {
      "conf" : 0.994824,
      "end" : 316.290000,
      "start" : 315.870000,
      "word" : "premier"
    }, {
      "conf" : 0.995421,
      "end" : 316.860000,
      "start" : 316.290000,
      "word" : "morceau"
    }, {
      "conf" : 0.996203,
      "end" : 317.400000,
      "start" : 316.860000,
      "word" : "extrait"
    }, {
      "conf" : 1.000000,
      "end" : 317.520000,
      "start" : 317.400000,
      "word" : "de"
    }, {
      "conf" : 0.921494,
      "end" : 317.880000,
      "start" : 317.520000,
      "word" : "l'album"
    }, {
      "conf" : 1.000000,
      "end" : 318.330000,
      "start" : 317.880000,
      "word" : "posthume"
    }, {
      "conf" : 1.000000,
      "end" : 318.750000,
      "start" : 318.330000,
      "word" : "d'arnaud"
    }, {
      "conf" : 1.000000,
      "end" : 319.290000,
      "start" : 319.140000,
      "word" : "qui"
    }, {
      "conf" : 0.957944,
      "end" : 319.500000,
      "start" : 319.290000,
      "word" : "devrait"
    }, {
      "conf" : 1.000000,
      "end" : 319.920000,
      "start" : 319.500000,
      "word" : "sortir"
    }, {
      "conf" : 0.994417,
      "end" : 319.980000,
      "start" : 319.920000,
      "word" : "à"
    }, {
      "conf" : 1.000000,
      "end" : 320.070000,
      "start" : 319.980000,
      "word" : "la"
    }, {
      "conf" : 1.000000,
      "end" : 320.430000,
      "start" : 320.070000,
      "word" : "rentrée"
    }, {
      "conf" : 0.975669,
      "end" : 320.549941,
      "start" : 320.430381,
      "word" : "on"
    }, {
      "conf" : 0.942565,
      "end" : 320.706504,
      "start" : 320.556709,
      "word" : "a"
    }, {
      "conf" : 0.581284,
      "end" : 320.849150,
      "start" : 320.706504,
      "word" : "hâte"
    }, {
      "conf" : 0.594666,
      "end" : 321.210000,
      "start" : 320.849561,
      "word" : "aline"
    }, {
      "conf" : 0.877287,
      "end" : 321.570000,
      "start" : 321.390000,
      "word" : "ah"
    }, {
      "conf" : 0.999293,
      "end" : 321.840000,
      "start" : 321.570000,
      "word" : "oui"
    }, {
      "conf" : 0.999529,
      "end" : 321.990000,
      "start" : 321.840000,
      "word" : "moi"
    }, {
      "conf" : 0.659171,
      "end" : 322.110000,
      "start" : 321.990000,
      "word" : "j'ai"
    }, {
      "conf" : 0.609366,
      "end" : 322.435400,
      "start" : 322.110000,
      "word" : "adoré"
    }, {
      "conf" : 0.513440,
      "end" : 322.799385,
      "start" : 322.435400,
      "word" : "arnaud"
    }, {
      "conf" : 0.952353,
      "end" : 323.197002,
      "start" : 322.920000,
      "word" : "donc"
    }, {
      "conf" : 0.864813,
      "end" : 323.400000,
      "start" : 323.197002,
      "word" : "euh"
    }, {
      "conf" : 0.856033,
      "end" : 323.820000,
      "start" : 323.610000,
      "word" : "voilà"
    }, {
      "conf" : 0.984704,
      "end" : 324.270000,
      "start" : 323.880000,
      "word" : "c'est"
    }, {
      "conf" : 1.000000,
      "end" : 324.510000,
      "start" : 324.300000,
      "word" : "très"
    }, {
      "conf" : 0.996402,
      "end" : 324.960000,
      "start" : 324.510000,
      "word" : "important"
    }, {
      "conf" : 1.000000,
      "end" : 325.410000,
      "start" : 325.350000,
      "word" : "on"
    }, {
      "conf" : 1.000000,
      "end" : 325.530205,
      "start" : 325.410000,
      "word" : "va"
    }, {
      "conf" : 0.988937,
      "end" : 325.739941,
      "start" : 325.530205,
      "word" : "tous"
    }, {
      "conf" : 0.434114,
      "end" : 326.010000,
      "start" : 325.740088,
      "word" : "l'acheter"
    }, {
      "conf" : 0.595379,
      "end" : 326.130000,
      "start" : 326.010000,
      "word" : "ce"
    }, {
      "conf" : 0.588918,
      "end" : 326.400000,
      "start" : 326.130000,
      "word" : "disque"
    }, {
      "conf" : 0.964877,
      "end" : 326.550000,
      "start" : 326.412539,
      "word" : "mais"
    }, {
      "conf" : 1.000000,
      "end" : 327.090000,
      "start" : 326.579736,
      "word" : "tous"
    }, {
      "conf" : 0.893811,
      "end" : 327.750000,
      "start" : 327.480000,
      "word" : "allient"
    }, {
      "conf" : 0.922730,
      "end" : 327.900000,
      "start" : 327.750000,
      "word" : "neuf"
    }, {
      "conf" : 0.447271,
      "end" : 328.224609,
      "start" : 327.900000,
      "word" : "anouk"
    }, {
      "conf" : 0.304742,
      "end" : 328.319971,
      "start" : 328.250127,
      "word" : "et"
    }, {
      "conf" : 0.742091,
      "end" : 328.380000,
      "start" : 328.329199,
      "word" : "a"
    }, {
      "conf" : 1.000000,
      "end" : 328.710000,
      "start" : 328.380029,
      "word" : "demain"
    }, {
      "conf" : 0.774253,
      "end" : 328.980000,
      "start" : 328.890000,
      "word" : "a"
    }, {
      "conf" : 1.000000,
      "end" : 329.280000,
      "start" : 328.980000,
      "word" : "demain"
    }],
  "text" : "la vérité premier morceau extrait de l'album posthume d'arnaud qui devrait sortir à la rentrée on a hâte aline ah oui moi j'ai adoré arnaud donc euh voilà c'est très important on va tous l'acheter ce disque mais tous allient neuf anouk et a demain a demain"
}]}